
estate_gerunanin_disarmed_populance = {
	icon = privilege_weapon_ban
	loyalty = 0.05
	influence = -0.10
	land_share = 0
	max_absolutism = 10
	
	can_select = {
	}
	
	can_revoke = {
		always = no
	}
	
	is_valid = {
		has_estate_privilege = estate_gerunanin_disarmed_populance
	}
	
	on_granted = {
		custom_tooltip = "All human provinces gain the following:"
		tooltip = {
			random_owned_province = {
				# limit = { culture_is_human = yes }
				add_province_modifier = {
					name = hob_gerunanin_disarmed_populace	#-100% local manpower
					duration = -1
				}
			}
		}
	}
	
	on_granted_province = {
		if = {
			limit = { culture_is_human = yes }
			add_province_modifier = {
				name = hob_gerunanin_disarmed_populace	#-100% local manpower
				duration = -1
			}
		}
	}
	
	on_revoked = {
	}
	
	on_revoked_province = {
		if = {
			limit = { has_province_modifier = hob_gerunanin_disarmed_populace }
			remove_province_modifier = hob_gerunanin_disarmed_populace
		}
	}
	
	on_invalid = {
	}
	
	on_invalid_province = {
		if = {
			limit = { has_province_modifier = hob_gerunanin_disarmed_populace }
			remove_province_modifier = hob_gerunanin_disarmed_populace
		}
	}
	
	penalties = {
	}
	
	benefits = {
		num_accepted_cultures = 2
		promote_culture_cost = -0.25
	}
	
	ai_will_do = {
		#factor = x
		#triggers
	}
}

estate_gerunanin_wuhyun_rights = {
	icon = privilege_supply_arms
	loyalty = 0.05
	influence = 0.05
	#land_share = 
	max_absolutism = 10
	
	can_select = {
		if = {
			limit = { has_estate_privilege = estate_gerunanin_disarmed_populance }
			stability = 2
		}
		any_owned_province = {
			culture_group = wuhyun
		}
	}
	
	can_revoke = {
		always = no
	}
	
	is_valid = {
		OR = {
			has_estate_privilege = estate_gerunanin_disarmed_populance
			has_estate_privilege = estate_gerunanin_wuhyun_rights
		}
	}
	
	on_granted = {
		if = {
			limit = { has_estate_privilege = estate_gerunanin_disarmed_populance }
			add_stability = -2
			hidden_effect = { remove_estate_privilege = estate_gerunanin_disarmed_populance }
		}
		custom_tooltip = "All non-Wuhyun human provinces will gain the following:"
		tooltip = {
			random_owned_province = {
				# limit = { culture_is_human = yes }
				add_province_modifier = {
					name = hob_gerunanin_disarmed_populace	#-100% local manpower
					duration = -1
				}
			}
		}
		
		hidden_effect = {
			every_owned_province = {
				limit = { has_province_modifier = hob_gerunanin_disarmed_populace }
				remove_province_modifier = hob_gerunanin_disarmed_populace
			}
			every_owned_province = {
				limit = {
					culture_is_human = yes
					NOT = { culture_group = wuhyun }
				}
				add_province_modifier = {
					name = hob_gerunanin_disarmed_populace	#-100% local manpower
					duration = -1
				}
			}
		}
	}
	
	on_revoked = {
		hidden_effect = {
			every_owned_province = {
				limit = { has_province_modifier = hob_gerunanin_disarmed_populace }
				remove_province_modifier = hob_gerunanin_disarmed_populace
			}
		}
	}
	
	penalties = {
	}
	
	benefits = {
		num_accepted_cultures = 1
	}
	
	ai_will_do = {
		#factor = x
		#triggers
	}
}

estate_gerunanin_directed_trading = {
	icon = privilege_make_generous_donation
	loyalty = -0.05
	influence = 0.05
	#land_share = 
	#max_absolutism = 
	
	can_select = {
	}
	
	can_revoke = {
	}
	
	is_valid = {
	}
	
	on_granted = {
	}
	
	on_revoked = {
	}
	
	penalties = {
		global_foreign_trade_power = -0.1
	}
	
	benefits = {
		trade_steering = 0.1
	}
	
	ai_will_do = {
		#factor = x
		#triggers
	}
}

estate_gerunanin_enlist_naval_experts = {
	icon = privilege_comission_merchant_ships_for_war
	#loyalty = 
	influence = 0.05
	#land_share = 
	max_absolutism = -5
	
	can_select = {
	}
	
	can_revoke = {
	}
	
	is_valid = {
		any_owned_province = {
			has_port = yes
		}
	}
	
	on_granted = {
	}
	
	on_revoked = {
	}
	
	penalties = {
	}
	
	benefits = {
		navy_tradition_decay = -0.05
		admiral_cost = -0.25
	}
	
	ai_will_do = {
		#factor = x
		#triggers
	}
}

estate_gerunanin_autonomous_enclaves = {
	icon = privilege_grant_autonomy
	loyalty = 0.05
	influence = 0.10
	max_absolutism = -10
	
	can_select = {
	}
	
	can_revoke = {
	}
	
	is_valid = {
		num_of_subjects = 1
	}
	
	on_granted = {
	}
	
	on_revoked = {
	}
	
	penalties = {
	}
	
	benefits = {
		reduced_liberty_desire = 10
		diplomatic_upkeep = 2
	}
	
	ai_will_do = {
		#factor = x
		#triggers
	}
}

estate_gerunanin_reduced_tribute_requirements = {
	icon = privilege_give_money
	loyalty = 0.05
	influence = 0.05
	land_share = 0
	max_absolutism = -5
	
	is_valid = {
		any_owned_province = { culture_is_human = yes }
	}
	
	can_select = {
	}
	
	can_revoke = {
	}
	
	on_granted = {
		custom_tooltip = "All human provinces gain the following:"
		tooltip = {
			random_owned_province = {
				limit = { culture_is_human = yes }
				add_province_modifier = {
					name = hob_gerunanin_lightened_tax_burden
					duration = -1
				}
			}
		}
	}
	
	on_granted_province = {
		if = {
			limit = { culture_is_human = yes }
			add_province_modifier = {
				name = hob_gerunanin_lightened_tax_burden
				duration = -1
			}
		}
	}
	
	on_revoked = {
	}
	
	on_revoked_province = {
		if = {
			limit = { has_province_modifier = hob_gerunanin_lightened_tax_burden }
			remove_province_modifier = hob_gerunanin_lightened_tax_burden
		}
	}
	
	on_invalid = {
	}
	
	on_invalid_province = {
		if = {
			limit = { has_province_modifier = hob_gerunanin_lightened_tax_burden }
			remove_province_modifier = hob_gerunanin_lightened_tax_burden
		}
	}
	
	penalties = {
	}
	
	benefits = {
	}
	
	ai_will_do = {
		#factor = x
		#triggers
	}
}

estate_gerunanin_syncretism = {
	icon = privilege_freedom_of_religion
	max_absolutism = -5
	influence = 0.1
	
	is_valid = {
		any_owned_province = { NOT = { religion = godlost } }
	}
	can_select = {
	}
	can_revoke = {
	}
	penalties = {
		tolerance_own = -1
	}
	benefits = {
		global_missionary_strength = 0.01
	}
	ai_will_do = {
		factor = 1
		modifier = {
			factor = 10
			num_of_owned_provinces_with = {
				NOT = { religion_group = root }
				is_state_core = root
				value = 15
			}
		}
		modifier = {
			factor = 0.8
			is_absolutism_active = yes
		}
	}
}

estate_gerunanin_draw_on_the_markets = {
	can_select = {
	}
	icon = privilege_loan_interaction
	max_absolutism = -5
	loyalty = 0.05
	influence = 0.05
	on_granted = {
		custom_tooltip = estate_burghers_indebted_to_burghers_effect_tooltip
		add_mercantilism = -1
		tooltip = {
			add_inflation = 0.5
		}
		hidden_effect = {
			add_loan = {
				fixed_interest = 1
				duration = 60
				estate_loan = yes
			}
			add_loan = {
				fixed_interest = 1
				duration = 60
				estate_loan = yes
			}
			add_loan = {
				fixed_interest = 1
				duration = 60
				estate_loan = yes
			}
			add_loan = {
				fixed_interest = 1
				duration = 60
				estate_loan = yes
			}
			add_loan = {
				fixed_interest = 1
				duration = 60
				estate_loan = yes
			}
		}
	}
	penalties = {
		trade_efficiency = -0.05
	}
	benefits = {
	}
	can_select = {
		if = {
			limit = {
				has_estate_privilege = estate_gerunanin_draw_on_the_markets
			}
			has_estate_loan = yes
		}
	}
	can_revoke = {
		has_estate_loan = no
	}
	ai_will_do = {
		factor = 0
	}
}