wandering_warriors = {	#escort agency is a popular idea apparently
	cost = 100
	modifier = {
		mercenary_cost = -0.25
		stability_cost_modifier = 0.1
	}
	ai_will_do = {
		factor = 15

	}
}

leadership_of_martial_heroes = {	
	cost = 100
	modifier = {
		leader_land_shock = 2
		leader_cost = 0.33
	}
	ai_will_do = {
		factor = 15

	}
}

romanticize_our_feats = {
	cost = 100
	modifier = {
		war_exhaustion = -0.05
		shock_damage_received = 0.1
	}
	ai_will_do = {
		factor = 15

	}
}

organize_the_sects = {
	cost = 100
	modifier = {
		governing_capacity_modifier = 0.2
		advisor_cost = 0.25
	}
	ai_will_do = {
		factor = 15

	}
}

medicine_and_alchemy = {
	cost = 100
	modifier = {
		merc_maintenance_modifier = -0.1
	}
	ai_will_do = {
		factor = 15

	}
}

martial_arts_for_the_peasantry = {
	cost = 100
	modifier = {
		land_morale = 0.15
		discipline = -0.05
	}
	ai_will_do = {
		factor = 15

	}
}

medidation_through_farming = {	#farming is promoted as a way to live life and balance and ground oneself and a form of meditation
	cost = 100
	modifier = {
		global_trade_goods_size_modifier = 0.1
		manpower_recovery_speed = -0.15
	}
	ai_will_do = {
		factor = 15

	}
}

preserve_the_secret_world = {
	cost = 100
	modifier = {
		defensiveness = 0.2
		diplomatic_reputation = -1
	}
	ai_will_do = {
		factor = 15

	}
}

community_around_the_temple = {
	cost = 100
	modifier = {
		merc_maintenance_modifier = -0.1
	}
	ai_will_do = {
		factor = 15

	}
}

karmic_code = {
	cost = 100
	modifier = {
		improve_relation_modifier = 0.25
		same_culture_advisor_cost = 0.2
	}
	ai_will_do = {
		factor = 15

	}
}

matchlock_monks = {
	cost = 100
	potential = {
		mil_tech = 11
		OR = {
			has_reform = wulin
			has_reform = xiaken
			has_reform = one_xia
			has_reform = indep_xiaken
			accepted_culture = western_yan
		}
	}
	modifier = {
		fire_damage = 0.1
		prestige = -1
	}
	ai_will_do = {
		factor = 100

	}
}

teachings_of_balris = {
	cost = 100
	potential = {
		OR = {
			primary_culture = goldscale_kobold
			accepted_culture = goldscale_kobold
		}
	}
	trigger = {
		high_tolerance_kobold_race_trigger = yes
	}
	modifier = {
		inflation_reduction = -0.2
		prestige_decay = -0.015
	}
	ai_will_do = {
		factor = 50

	}
}

elixirs_of_knowledge = {
	cost = 100
	modifier = {
		country_admin_power = 1
		all_estate_loyalty_equilibrium = -0.1
	}
	ai_will_do = {
		factor = 15
	}
}

trial_by_combat = {
	cost = 100	
	potential = {
		OR = {
			has_reform = wulin
			has_reform = xiaken
			has_reform = one_xia
			has_reform = indep_xiaken
			accepted_culture = western_yan
		}
	}
	modifier = {
		infantry_power = 0.1
		land_forcelimit_modifier = -0.1
	}
	ai_will_do = { 
		factor = 15
	}
}

temple_communities = {
	cost = 100
	potential = {
		OR = {
			has_reform = wulin
			has_reform = xiaken
			has_reform = one_xia
			has_reform = indep_xiaken
			accepted_culture = western_yan
		}
	}
	modifier = {
		manpower_in_true_faith_provinces = 0.2
		global_trade_power = -0.1
	}
	ai_will_do = {
		factor = 15
	}
}

kobold_house_pets = {
	cost = 100
	potential = {
		NOT = {
			OR = {
				primary_culture = goldscale_kobold
				accepted_culture = goldscale_kobold
			}
		}
		OR = {
			primary_culture = northern_yan
			primary_culture = river_yan 
			primary_culture = hill_yan
			primary_culture = coastal_yan
			primary_culture = forest_yan
			accepted_culture = northern_yan
			accepted_culture = river_yan
			accepted_culture = hill_yan
			accepted_culture = coastal_yan
			accepted_culture = forest_yan
		}
	}
	modifier = {
		global_prosperity_growth = 0.1
		global_unrest = 1
	}
	ai_will_do = {
		factor = 15
	}
}
		

vow_of_poverty = {
	cost = 100
	potential = {
		OR = {
			primary_culture = northern_yan
			primary_culture = river_yan 
			primary_culture = hill_yan
			primary_culture = coastal_yan
			primary_culture = forest_yan
			accepted_culture = northern_yan
			accepted_culture = river_yan
			accepted_culture = hill_yan
			accepted_culture = coastal_yan
			accepted_culture = forest_yan
		}
	}
	modifier = {
		yearly_corruption = -0.15
		army_tradition_decay = 0.01
	}
	ai_will_do = {
		factor = 15
	}
}

meditation_and_tea = {
	cost = 100
	potential = {
		OR = {
			primary_culture = northern_yan
			primary_culture = river_yan 
			primary_culture = hill_yan
			primary_culture = coastal_yan
			primary_culture = forest_yan
			accepted_culture = northern_yan
			accepted_culture = river_yan
			accepted_culture = hill_yan
			accepted_culture = coastal_yan
			accepted_culture = forest_yan
		}
	}
	modifier = {
		innovativeness_gain = 1.5
		production_efficiency = -0.1
	}
	ai_will_do = {
		factor = 15
	}
}

remembrance_festivals = {
	cost = 100
	potential = {
		OR = {
			culture_group = kai
			accepted_culture = phonan
			accepted_culture = hinphat
			accepted_culture = bokai
			accepted_culture = binhrung
			accepted_culture = sikai
			accepted_culture = khom
		}
	}
	modifier = { 
		years_of_nationalism = -5
		global_tax_modifier = -0.1
	}
	ai_will_do = {
		factor = 15
	}
}

equal_inheritance = {
	cost = 100
	potential = {
		AND = {
			NOT = {
				tag = Y66
			}
			OR = {
				culture_group = kai
				accepted_culture = phonan
				accepted_culture = hinphat
				accepted_culture = bokai
				accepted_culture = binhrung
				accepted_culture = sikai
				accepted_culture = khom
			}
		}
	}
	modifier = {
		governing_cost = -0.2
		global_autonomy = 0.05
	}
	ai_will_do = {
		factor = 15
	}
}

spirit_influenced_crafts = {
	cost = 100
	potential = {
		OR = {
			culture_group = bom
			accepted_culture = ranilau
			accepted_culture = biengdi
			accepted_culture = gon
			accepted_culture = risbeko
			accepted_culture = chengrong
			accepted_culture = teplin
		}
	}
	modifier = {
		production_efficiency = 0.15
		state_maintenance_modifier = 0.5
	}
	ai_will_do = {
		factor = 15
	}
}

guardians_after_death = {
	cost = 100
	potential = {
		OR = {
			culture_group = bom
			accepted_culture = ranilau
			accepted_culture = biengdi
			accepted_culture = gon
			accepted_culture = risbeko
			accepted_culture = chengrong
			accepted_culture = teplin
		}
	}
	modifier = {
		garrison_size = 0.3
		fort_maintenance_modifier = 0.1
	}
	ai_will_do = {
		factor = 15
	}
}

honsai_the_ghostemperor = {
	cost = 100
	potential = {
		OR = {
			tag = Y66
			tag = Y97
		}
	}
	trigger = {
		OR = {
			tag = Y66
			tag = Y97
		}
		custom_trigger_tooltip = { 
			tooltip = honsai_god_emperor_tt
			has_country_flag = honsai_god_emperor
		}
	}
	modifier = {
		tolerance_own = -2
		global_tax_modifier = -0.1
	}
	ai_will_do = {
		factor = 0
	}
}