# Hard-coded functions made fully or partly scripted
#
# Note that most functions use unique mechanics

# ROOT = country
can_join_hre_league = {
	condition = {
		tooltip = "CANNOT_JOIN_LEAGUE_AT_WAR"
		potential = {
		}
		allow = {
			is_at_war = no
		}
	}
}

can_leave_hre_league = {
}

can_harsh_treatment = {
}

can_reduce_war_exhaustion = {
}

can_reduce_inflation = {
}

can_declare_bankruptcy = {
}

can_release_colonial_nation = {
	condition = {
		tooltip = "CAN_RELEASE_CN_WE_ARE_AT_WAR"
		potential = {
		}
		allow = {
			is_at_war = no
		}
	}
}

can_claim_defender_of_faith = {
	condition = {
		tooltip = "regent_court_defender_tooltip"
		potential = {
			religion = regent_court
		}
		allow = {
			always = no
		}
	}
	condition = {
		tooltip = "khetist_defender_tooltip"
		potential = {
			religion = khetist
		}
		allow = {
			always = no
		}
	}
}

can_change_national_focus = {
}

can_increase_stability = {
}

# ROOT = province, FROM = country
can_add_province_to_hre = {
	condition = {
		potential = {
			FROM = { has_reform = adventurer_reform }
		}
		allow = {
			always = no
		}
	}
}

#ROOT = province, FROM = country
can_remove_province_from_hre = {
	condition = {
		potential = {
			owner = {
				ai = yes
			}
		}
		allow = {
			owner = {
				NOT = {
					has_country_flag = permanently_left_hre_flag
				}
			}
		}
	}
}

can_increase_autonomy = {
}

can_decrease_autonomy = {
}

can_make_core = {
}

can_make_state = {
}

can_abandon_state = {
}

can_improve_tax = {
}

can_improve_production = {
}

can_improve_manpower = {
}

can_exploit_tax = {
}

can_exploit_production = {
}

can_exploit_manpower = {
}

can_change_culture = {
	# So that Castanorian Dominions won't just instantly convert their provinces back
	condition = {
		potential = {
			FROM = {
				is_subject_of_type = castanor_dominion
				ai = yes
			}
			culture = castanorian
		}
		allow = {
			always = no
		}
	}
}

can_move_capital = {
	condition = {
		tooltip = "NO_CAPITAL_MOVE_SHOGUN"
		potential = {
			FROM = {
				OR = {
					# has_reform = shogunate
					has_reform = raja_reform
				}
			}
		}
		allow = {
			always = no
		}
	}
	condition = {
		tooltip = "NO_CAPITAL_MOVE_DIGGING"
		potential = {
			FROM = {
				has_country_flag = is_digging
			}
		}
		allow = {
			always = no
		}
	}
	condition = {
		tooltip = "NO_CAPITAL_MOVE_ADVANCED_SPECIALIZATION"
		potential = {
			FROM = {
				has_country_flag = building_diggy
			}
		}
		allow = {
			always = no
		}
	}
	condition = {
		tooltip = "NO_CAPITAL_MOVE_DIGGY_FALLEN"
		potential = {
			has_province_modifier = fallen_great_excavation
		}
		allow = {
			always = no
		}
	}
	condition = {
		tooltip = "NO_CAPITAL_MOVE_ARENA"
		potential = {
			FROM = {
				has_reform = teplinbasiet_arena_kingdom_reform
			}
		}
		allow = {
			always = no
		}
	}
	condition = {
		tooltip = "NO_CAPITAL_MOVE_ROADWARRIOR"
		potential = {
			FROM = {
				has_reform = roadwarrior_great_convoy
			}
		}
		allow = {
			always = no
		}
	}
}

can_move_trade_port = {
}

can_order_assault = {
}

can_order_force_march = {
}

can_scorch_earth = {
}

can_garrison_sorties = {
}

can_seize_colony = {
}

can_burn_colony = {
}

can_colonize_province = {
	condition = { # Venail AI is a lil bitch
		potential = {
			FROM = {
				tag = A21
				ai = yes
			}
			OR = {
				AND = {
					NOT = { colonial_region = colonial_endralliande }
					NOT = { colonial_region = colonial_noruin }
					#NOT = { colonial_region = colonial_dalaire }
				}
				area = north_obaithail_area
				area = south_obaithail_area
			}
		}
		allow = {
			always = no
		}
	}
	
	condition = { # Can't colonize Escann if your an AI outside Escann and the Borders (for the folly)
		potential = {
			FROM = {
				ai = yes
				capital_scope = {
					NOT = { OR = { superregion = escann_superregion region = the_borders_region superregion = deepwoods_superregion } }
				}
			}
			superregion = escann_superregion
		}
		allow = {
			always = no
		}
	}
	
	condition = { # Can't colonize Gerudia if not from Gerudia or Escann
		potential = {
			FROM = {
				ai = yes
				NOT = {
					capital_scope = {
						OR = {
							superregion = gerudia_superregion
							superregion = escann_superregion
						}
					}
				}
			}
			superregion = gerudia_superregion
		}
		allow = {
			always = no
		}
	}
	
	condition = { # Silblaidd can't colonize outside haraf
		potential = {
			FROM = {
				ai = yes
				OR = {
					tag = Z43
				}
			}
			NOT = { colonial_region = colonial_haraf }
		}
		allow = {
			always = no
		}
	}
	
	condition = { # Stops Corvuria from colonizing into Escann
		potential = {
			FROM = {
				ai = yes
				OR = {
					tag = A59
				}
			}
			region = south_castanor_region
		}
		allow = {
			always = no
		}
	}
	
	condition = { # Test to see if Frozenforge colonizes into the Forbidden Plains
		potential = {
			FROM = {
				ai = yes
				OR = {
					tag = I02
				}
			}
			region = yyl_moista_region
		}
		allow = {
			always = no
		}
    }
	
	condition = { # Cant colonize those province
		potential = {
			has_province_flag = cant_colonize
			FROM = { ai = yes }
		}
		allow = {
			always = no
		}
	}

	condition = { # Roadwarrior ruined provinces
		tooltip = "ROADWARRIOR_RUINED"
		potential = {
			tribal_land_of = H91
			FROM = { truce_with = H91 }
			exists = H91
			H91 = {
				has_reform = roadwarrior_great_convoy
			}
		}
		allow = {
			always = no
		}
	}

	condition = {
		tooltip = "ROADWARRIOR_BLOCKED"
		potential = { 
			FROM = {
				is_subject = yes
				overlord = {
					has_reform = roadwarrior_great_convoy
					has_country_flag = roadwarrior_subject_no_colonize
				}
			}
		}
		allow = { 
			NOT = {
				continent = serpentspine
			}
		}
	}
	
	condition = {
		tooltip = "ROADWARRIOR_NO_COLONIZE"
		potential = { 
			FROM = { has_reform = roadwarrior_great_convoy }
		}
		allow = { 
			always = no
		}
	}
	
	condition = { # Trollsbayers stick to the Trollsbay
		potential = {
			NOT = { is_year = 1600 }
			FROM = {
				ai = yes
				OR = {
					tag = H36 #Valorpoint
					tag = G96 #Thilvis
					tag = G91 #Isobelin
					tag = H38 #Zanlib
					tag = G95 #Marlliande
					tag = H33 #Cestirmark
				}
			}
			OR = {
				NOT = {
					region = trollsbay_region
					region = bloodgroves_region
				}
				NOT = {
					any_neighbor_province = {
						owned_by = FROM
					}
				}
			}
			
		}
		allow = {
			always = no
		}
	}
	
	condition = { # Stops Lteibhar from colonizing outside Severed Coast
		potential = {
			FROM = {
				ai = yes
				OR = {
					tag = G79
				}
				OR = {
					is_subject_of = G52 #Ameion
					is_subject_of = G00
				}
			}
			NOT = { region = severed_coast_region }
		}
		allow = {
			always = no
		}
	}
}

can_colonize_province_siberian_frontier = {
	condition = { # Cant colonize those province
		potential = {
			has_province_flag = cant_colonize
			FROM = { ai = yes }
		}
		allow = {
			always = no
		}
	}
	
	condition = { # Roadwarrior ruined provinces
		tooltip = "ROADWARRIOR_RUINED"
		potential = {
			has_province_modifier = roadwarrior_decolonized
		}
		allow = {
			always = no
		}
	}
	
	condition = {
		tooltip = "ROADWARRIOR_BLOCKED"
		potential = { 
			FROM = {
				is_subject = yes
				overlord = {
					has_reform = roadwarrior_great_convoy
					has_country_flag = roadwarrior_subject_no_colonize
				}
			}
		}
		allow = { 
			NOT = {
				continent = serpentspine
			}
		}
	}
	
	condition = {
		tooltip = "ROADWARRIOR_NO_COLONIZE"
		potential = { 
			FROM = { has_reform = roadwarrior_great_convoy }
		}
		allow = { 
			always = no
		}
	}
}

can_add_seat_in_parliament = {
}

can_add_estate = {
}

can_expel_minority_from = {
	condition = {
		potential = {
			OR = {
				is_religious_center_province = yes
				is_reformation_center = yes
			}
		}
		allow = {
			always = no
		}
	}
}

#hardcoded: has a colonial parent or is in the same colonial region as the capital
can_have_colonial_nations = {
	condition = {
		potential = {
			FROM = {
				has_country_flag = no_colonial_nations
			}
		}
		allow = {
			always = no 
		}
	}
}

### Special functions

# Called by can_add_province_to_hre
is_possible_hre_province = {
	condition = {
		tooltip = "APH_ONLY_EUROPE"
		potential = {
		}
		allow = {
			continent = europe
		}
	}
}

will_demand_annexation = {
	condition = {
		potential = {
			is_elector = yes
		}
		allow = {
			NOT = { hre_reform_passed = landfriede }
		}
	}
}