
# Author: Guivarch

bulwar_incident_1 = {
	slot = 1 
	generic = no
	ai = yes 
	potential = {
		tag = F39
		NOT = { is_incident_happened = incident_naqtazan }
	}
	has_country_shield = yes

	bulwar_clearing_out_rubble = {
		icon = mission_crush_delhi
		required_missions = {
			bulwar_raise_ones_head
		}
		position = 2
		
		trigger = {
			treasury = 50
		}
		effect = {
			add_treasury = -50
			
			601 = {
				add_devastation = -20
				add_base_tax = -3
				add_base_production = -3
				add_base_manpower = -3
				add_province_modifier = {
					name = bulwar_city_reconstruction
					duration = 730
				}
			}
			
			add_adm_power = 150
			add_dip_power = 150
			add_mil_power = 150
		}
	}

	bulwar_repair_walls = {
		icon = fortress_of_belgrade
		required_missions = {
			bulwar_clearing_out_rubble
		}
		position = 3
		
		trigger = {
			601 = { NOT = { has_province_modifier = bulwar_city_reconstruction } }
			mil_power = 50
		}
		effect = {
			if = { limit = { NOT = { mission_completed = bulwar_repair_temple } }
				custom_tooltip = bulwar_completing_bulwar_repair_walls_effect_tt
				custom_tooltip = nsc_chosen_role_down_tt
				add_incident_variable_value = { incident = incident_naqtazan value = -1 }
			}
			add_mil_power = -50
			
			601 = {
				add_devastation = -15
				add_building_construction = {
					building = fort_15th 
					speed = 0.5
					cost = 0
				}
				add_province_modifier = {
					name = bulwar_city_reconstruction
					duration = 730
				}
			}
		}
	}
}

bulwar_incident_2 = {
	slot = 2
	generic = no
	ai = yes 
	potential = {
		tag = F39
		NOT = { is_incident_happened = incident_naqtazan }
	}
	has_country_shield = yes
	
	bulwar_black_phoenix = {
		icon = mission_found_the_city_of_agra
		required_missions = {
			bulwar_raise_ones_head
		}
		position = 2
		
		provinces_to_highlight = {
			is_capital_of = F25
		}
		
		trigger = {
			exists = F25
			F25 = {
				OR = {
					has_opinion = { who = ROOT value = 100 }
					custom_trigger_tooltip = {
						tooltip = bulwar_opinion_improved_70_tt
						has_opinion_modifier = {
							who = ROOT
							modifier = improved_relation
							value = 70
						}
					}
				}
			}
			dip_power = 50
		}
		effect = {
			if = {
				limit = {
					NOT = { mission_completed = bulwar_a_cult_classic }
					NOT = { mission_completed = bulwar_huddling_with_harklumi }
				}
				custom_tooltip = bulwar_completing_black_phoenix_first_effect_tt
				custom_tooltip = nsc_much_chosen_role_up_tt
				add_incident_variable_value = { incident = incident_naqtazan value = 1 }
			}
			add_dip_power = -50
			
			F25 = { country_event = { id = flavour_bulwar_tag.6 days = 1 } }
			custom_tooltip = bulwar_will_join_tluukt_war_if_accept_tt
		}
	}

	bulwar_repair_temple = {
		icon = mission_into_persia_1
		required_missions = {
			bulwar_clearing_out_rubble
		}
		position = 3
		
		trigger = {
			601 = { NOT = { has_province_modifier = bulwar_city_reconstruction } }
			adm_power = 50
		}
		effect = {
			if = { limit = { NOT = { mission_completed = bulwar_repair_walls } }
				custom_tooltip = bulwar_completing_bulwar_repair_temple_effect_tt
				custom_tooltip = nsc_chosen_role_up_tt
				add_incident_variable_value = { incident = incident_naqtazan value = 1 }
			}
			add_adm_power = -50
			
			601 = {
				add_devastation = -15
				add_building_construction = {
					building = temple
					speed = 0.5
					cost = 0
				}
				add_province_modifier = {
					name = bulwar_city_reconstruction
					duration = 730
				}
			}
		}
	}
}

bulwar_incident_3 = {
	slot = 3
	generic = no
	ai = yes 
	potential = {
		tag = F39
		NOT = { is_incident_happened = incident_naqtazan }
	}
	has_country_shield = yes

	bulwar_raise_ones_head = {
		icon = mission_end_tamil_insurgency
		required_missions = { }
		position = 1
		
		trigger = {
			army_size = 10
		}
		effect = {
			define_advisor = {
				type = diplomat
				skill = 1
				cost_multiplier = 0.75
			}
			define_advisor = {
				type = spymaster
				skill = 1
				cost_multiplier = 0.75
			}
		}
	}
	
	bulwar_a_cult_classic = {
		icon = mission_into_persia_2
		required_missions = {
			bulwar_raise_ones_head
		}
		position = 2
		
		provinces_to_highlight = {
			is_capital_of = F31
		}
		
		trigger = {
			exists = F31
			F31 = {
				OR = {
					AND = {
						has_opinion = { who = ROOT value = 100 }
						alliance_with = ROOT
					}
					custom_trigger_tooltip = {
						tooltip = bulwar_opinion_improved_70_tt
						has_opinion_modifier = {
							who = ROOT
							modifier = improved_relation
							value = 70
						}
					}
				}
			}
			dip_power = 30
			F29 = {
				OR = {
					custom_trigger_tooltip = {
						tooltip = bulwar_has_insulted_tt
						OR = {
							has_opinion_modifier = { who = ROOT modifier = insulted }
							has_opinion_modifier = { who = ROOT modifier = scornfully_insulted }
						}
					}
					exists = no
				}
			}
		}
		effect = {
			if = { limit = { NOT = { mission_completed = bulwar_black_phoenix } }
				custom_tooltip = bulwar_completing_black_phoenix_last_effect_tt
				custom_tooltip = nsc_chosen_role_down_tt
				add_incident_variable_value = { incident = incident_naqtazan value = -1 }
			}
			add_dip_power = -30
			
			F31 = { country_event = { id = flavour_bulwar_tag.6 days = 1 } }
			custom_tooltip = bulwar_will_join_tluukt_war_if_accept_tt
		}
	}
	
	bulwar_league_of_our_own = {
		icon = mission_friends_or_enemies
		required_missions = { }
		position = 3
		
		trigger = {
			calc_true_if = {
				OR = {
					NOT = { exists = F25 }
					mission_completed = bulwar_black_phoenix
				}
				OR = {
					NOT = { exists = F31 }
					mission_completed = bulwar_a_cult_classic
				}
				OR = {
					NOT = { exists = F36 }
					mission_completed = bulwar_huddling_with_harklumi
				}
				amount = 2
			}
			is_subject = no
			adm_power = 50
			dip_power = 50
			mil_power = 50
		}
		effect = {
			country_event = { id = flavour_bulwar_tag.14 }
		}
	}
	
	bulwar_casting_the_die = {
		icon = mission_subdue_rajputana
		required_missions = {
			bulwar_league_of_our_own
		}
		position = 4
		
		trigger = {
			OR = {
				NOT = { exists = F28 }
				AND = {
					NOT = { truce_with = F28 }
					is_at_war = no
				}
			}
		}
		effect = {
			if = { limit = { exists = F28 }
				declare_war_with_cb = {
					who = F28
					casus_belli = cb_civ_vs_monster 
				}
				every_known_country = {
					limit = { has_country_flag = naqtazan_member }
					join_all_offensive_wars_of = F39
				}
			}
			hidden_effect = {
				if = { limit = { mission_completed = bulwar_a_lot_to_unpack }
					F28 = { country_event = { id = flavour_bulwar_tag.13 days = 10 } }
				}
			}
		}
	}
}

bulwar_incident_4 = {
	slot = 4
	generic = no
	ai = yes 
	potential = {
		tag = F39
		NOT = { is_incident_happened = incident_naqtazan }
	}
	has_country_shield = yes
	
	bulwar_huddling_with_harklumi = {
		icon = mission_warrior_gold
		required_missions = {
			bulwar_raise_ones_head
		}
		position = 2
		
		provinces_to_highlight = {
			is_capital_of = F36
		}
		
		trigger = {
			exists = F36
			F36 = {
				OR = {
					AND = {
						has_opinion = { who = ROOT value = 100 }
						alliance_with = ROOT
					}
					custom_trigger_tooltip = {
						tooltip = bulwar_opinion_improved_70_tt
						has_opinion_modifier = {
							who = ROOT
							modifier = improved_relation
							value = 70
						}
					}
				}
			}
			dip_power = 30
			F36 = {
				capital_scope = {
					num_of_units_in_province = {
						who = ROOT
						amount = 5
					}
				}
			}
		}
		effect = {
			if = { limit = { NOT = { mission_completed = bulwar_black_phoenix } }
				custom_tooltip = bulwar_completing_black_phoenix_last_effect_tt
				custom_tooltip = nsc_chosen_role_down_tt
				add_incident_variable_value = { incident = incident_naqtazan value = -1 }
			}
			add_dip_power = -30
			F36 = {
				capital_scope = {
					kill_units = {
						who = ROOT
						amount = 5
					}
					add_base_manpower = 2
					add_province_modifier = { name = bulwar_garrison duration = 9125 }
				}
			}
			
			F36 = { country_event = { id = flavour_bulwar_tag.6 days = 1 } }
			custom_tooltip = bulwar_will_join_tluukt_war_if_accept_tt
		}
	}
}

bulwar_incident_5 = {
	slot = 5
	generic = no
	ai = yes 
	potential = {
		tag = F39
		NOT = { is_incident_happened = incident_naqtazan }
	}
	has_country_shield = yes
	
	bulwar_a_lot_to_unpack = {
		icon = mission_turning_the_tables
		required_missions = {
			bulwar_raise_ones_head
		}
		position = 2
		
		trigger = {
			exists = F28
			has_spy_network_in = { who = F28 value = 30 }
			if = { limit = { exists = F43 }
				F43 = {
					OR = {
						has_opinion = { who = ROOT value = 75 }
						custom_trigger_tooltip = {
							tooltip = bulwar_opinion_improved_70_tt
							has_opinion_modifier = {
								who = ROOT
								modifier = improved_relation
								value = 70
							}
						}
					}
				}
			}
			treasury = 50
		}
		effect = {
			add_spy_network_in = { who = F28 value = -30 }
			add_treasury = -50
			U09 = {
				add_opinion = { who = F28 modifier = nsc_suspicious_behaviour_big }
				add_trust = { who = F28 value = -35 mutual = no }
			}
			F29 = {
				add_opinion = { who = F28 modifier = nsc_suspicious_behaviour_big }
				add_trust = { who = F28 value = -35 mutual = no }
			}
			custom_tooltip = bulwar_rebels_in_tluukt_tt
		}
	}
	
	bulwar_cleavers_head = {
		icon = mission_assassination
		required_missions = {
			bulwar_a_lot_to_unpack
		}
		position = 3
		
		trigger = {
			exists = F28
			has_spy_network_in = { who = F28 value = 30 }
			F28 = { ruler_has_personality = mage_personality }
			dip_power = 50
			mil_power = 50
		}
		effect = {
			add_spy_network_in = { who = F28 value = -30 }
			add_dip_power = -50
			add_mil_power = -50
			country_event = { id = flavour_bulwar_tag.10 }
		}
	}
}

bulwar_quarters_1 = {
	slot = 1
	generic = no
	ai = yes 
	potential = {
		OR = {
			tag = F39
			AND = {
				tag = F52
				was_tag = F39
			}
		}
		is_incident_happened = incident_naqtazan
	}
	has_country_shield = yes
	
	bulwar_banking_district = {
		icon = mission_trade_company_region_abroad
		required_missions = {
			bulwar_at_close_quarters
		}
		position = 2
		
		trigger = {
			custom_trigger_tooltip = {
				tooltip = fula_in_government_tt
				has_country_flag = fula_in_government
			}
			601 = { base_tax = 12 }
			treasury = 100
		}
		effect = {
			add_treasury = -100
			601 = {
				add_permanent_province_modifier = {
					name = bulwar_banking_district_1
					duration = -1
				}
			}
		}
	}
	
	bulwar_in_mint_condition = {
		icon = mission_establish_mint_towns
		required_missions = {
			bulwar_banking_district
		}
		position = 3
		
		provinces_to_highlight = {
			superregion = bulwar_superregion
			trade_goods = gold
			OR = {
				NOT = { owned_by = ROOT }
				NOT = { base_production = 10 }
			}
		}
		
		trigger = {
			custom_trigger_tooltip = {
				tooltip = bulwar_banking_upgrade_ready_tt
				601 = { check_variable = { banking_district_progress = 100 } }
			}
			any_owned_province = {
				trade_goods = gold
				base_production = 10
			}
			employed_advisor = { type = master_of_mint }
			treasury = 200
			601 = { development = 40 }
		}
		effect = {
			hidden_effect = { set_variable = { banking_district_progress = 0 } }
			add_treasury = -200
			601 = {
				hidden_effect = {
					remove_province_modifier = bulwar_banking_district_1
					set_variable = { banking_district_progress = 0 }
				}
				add_permanent_province_modifier = {
					name = bulwar_banking_district_2
					duration = -1
				}
			}
		}
	}
	
	bulwar_a_sur_thing = {
		icon = mission_high_income
		required_missions = {
			bulwar_in_mint_condition
		}
		position = 4
		
		trigger = {
			custom_trigger_tooltip = {
				tooltip = bulwar_banking_upgrade_ready_tt
				601 = { check_variable = { banking_district_progress = 100 } }
			}
			full_idea_group = economic_ideas
			NOT = { inflation = 2 }
			treasury = 300
			if = { limit = { has_dlc = "Mandate of Heaven" }
				splendor = 250
			}
			else = {
				prestige = 30
			}
			601 = { development = 50 }
		}
		effect = {
			add_treasury = -300
			if = { limit = { has_dlc = "Mandate of Heaven" }
				add_splendor = -250
			}
			else = {
				add_prestige = -30
			}
			601 = {
				hidden_effect = {
					remove_province_modifier = bulwar_banking_district_2
					set_variable = { banking_district_progress = 0 }
				}
				add_permanent_province_modifier = {
					name = bulwar_banking_district_3
					duration = -1
				}
			}
		}
	}
}

bulwar_quarters_2 = {
	slot = 2
	generic = no
	ai = yes 
	potential = {
		OR = {
			tag = F39
			AND = {
				tag = F52
				was_tag = F39
			}
		}
		is_incident_happened = incident_naqtazan
	}
	has_country_shield = yes
	
	bulwar_temple_district = {
		icon = mission_golden_century
		required_missions = {
			bulwar_at_close_quarters
		}
		position = 2
		
		trigger = {
			custom_trigger_tooltip = {
				tooltip = aharmandas_in_government_tt
				has_country_flag = aharmandas_in_government
			}
			treasury = 100
			601 = { has_tax_building_trigger = yes }
		}
		effect = {
			add_treasury = -100
			601 = {
				add_permanent_province_modifier = {
					name = bulwar_temple_district_1
					duration = -1
				}
			}
		}
	}
	
	bulwar_through_red_coloured_glass = {
		icon = mission_sweat_fealty
		required_missions = {
			bulwar_temple_district
		}
		position = 3
		
		provinces_to_highlight = {
			superregion = bulwar_superregion
			trade_goods = gold
			OR = {
				NOT = { owned_by = ROOT }
				NOT = { base_production = 10 }
			}
		}
		
		trigger = {
			custom_trigger_tooltip = {
				tooltip = bulwar_temple_upgrade_ready_tt
				601 = { check_variable = { temple_district_progress = 100 } }
			}
			600 = {
				owned_by = ROOT
				has_production_building_trigger = yes
				base_production = 10
			}
			treasury = 200
			601 = { development = 40 }
		}
		effect = {
			hidden_effect = { set_variable = { temple_district_progress = 0 } }
			add_treasury = -200
			601 = {
				hidden_effect = {
					remove_province_modifier = bulwar_temple_district_1
					set_variable = { temple_district_progress = 0 }
				}
				add_permanent_province_modifier = {
					name = bulwar_temple_district_2
					duration = -1
				}
			}
		}
	}
	
	bulwar_red_lights_dancing_flammes = {
		icon = mission_sun_temple
		required_missions = {
			bulwar_through_red_coloured_glass
		}
		position = 4
		
		trigger = {
			custom_trigger_tooltip = {
				tooltip = bulwar_temple_upgrade_ready_tt
				601 = { check_variable = { temple_district_progress = 100 } }
			}
			estate_loyalty = {
				estate = estate_church
				loyalty = 60
			}
			employed_advisor = { type = inquisitor }
			treasury = 1000
			if = { limit = { has_dlc = "Mandate of Heaven" }
				splendor = 250
			}
			else = {
				prestige = 30
			}
			601 = { development = 50 }
		}
		effect = {
			add_treasury = -1000
			if = { limit = { has_dlc = "Mandate of Heaven" }
				add_splendor = -250
			}
			else = {
				add_prestige = -30
			}
			601 = {
				hidden_effect = {
					remove_province_modifier = bulwar_temple_district_2
					set_variable = { temple_district_progress = 0 }
				}
				add_permanent_province_modifier = {
					name = bulwar_temple_district_3
					duration = -1
				}
				province_event = { id = flavour_bulwar_tag.23 days = 1825 }
			}
		}
	}
}

bulwar_quarters_3 = {
	slot = 3
	generic = no
	ai = yes 
	potential = {
		OR = {
			tag = F39
			AND = {
				tag = F52
				was_tag = F39
			}
		}
		is_incident_happened = incident_naqtazan
	}
	has_country_shield = yes
	
	bulwar_at_close_quarters = {
		icon = mission_city_prosperity
		required_missions = { }
		position = 1
		
		trigger = {
			is_incident_happened = incident_naqtazan
			601 = {
				NOT = { has_province_modifier = bulwar_city_reconstruction }
				NOT = { devastation = 1 }
				development = 23
			}
			treasury = 100
		}
		effect = {
			add_treasury = -100
			601 = {
				add_permanent_province_modifier = {
					name = bulwar_city_planning
					duration = -1
				}
				hidden_effect = {
					add_province_triggered_modifier = bulwar_districts_manager
				}
			}
		}
	}
	
	bulwar_kanu_district = {
		icon = mission_son_own_develop_clothes_and_salt
		required_missions = {
			bulwar_at_close_quarters
		}
		position = 2
		
		trigger = {
			custom_trigger_tooltip = {
				tooltip = givar_in_government_tt
				has_country_flag = givar_in_government
			}
			treasury = 100
			601 = { base_production = 12 }
		}
		effect = {
			add_treasury = -100
			601 = {
				add_permanent_province_modifier = {
					name = bulwar_kanu_district_1
					duration = -1
				}
			}
		}
	}
	
	bulwar_looming_thread = {
		icon = mission_brahmin_administrators
		required_missions = {
			bulwar_kanu_district
		}
		position = 3
		
		trigger = {
			custom_trigger_tooltip = {
				tooltip = bulwar_kanu_upgrade_ready_tt
				601 = { check_variable = { kanu_district_progress = 100 } }
			}
			production_leader = { trade_goods = silk }
			treasury = 200
			601 = { development = 40 }
		}
		effect = {
			add_treasury = -200
			601 = {
				hidden_effect = {
					remove_province_modifier = bulwar_kanu_district_1
					set_variable = { kanu_district_progress = 0 }
				}
				add_permanent_province_modifier = {
					name = bulwar_kanu_district_2
					duration = -1
				}
			}
		}
	}
	
	bulwar_state_of_the_art = {
		icon = mission_valencian_silk
		required_missions = {
			bulwar_looming_thread
		}
		position = 4
		
		trigger = {
			custom_trigger_tooltip = {
				tooltip = bulwar_kanu_upgrade_ready_tt
				601 = { check_variable = { kanu_district_progress = 100 } }
			}
			601 = { has_building = textile }
			employed_advisor = { type = artist }
			treasury = 300
			if = { limit = { has_dlc = "Mandate of Heaven" }
				splendor = 250
			}
			else = {
				prestige = 30
			}
			601 = { development = 50 }
		}
		effect = {
			add_treasury = -300
			if = { limit = { has_dlc = "Mandate of Heaven" }
				add_splendor = -250
			}
			else = {
				add_prestige = -30
			}
			601 = {
				hidden_effect = {
					remove_province_modifier = bulwar_kanu_district_2
					set_variable = { kanu_district_progress = 0 }
				}
				add_permanent_province_modifier = {
					name = bulwar_kanu_district_3
					duration = -1
				}
			}
		}
	}
	
	bulwar_city_of_light = {
		icon = mission_sunset
		required_missions = {
			bulwar_a_sur_thing
			bulwar_red_lights_dancing_flammes
			bulwar_state_of_the_art
			bulwar_something_to_write_about
			bulwar_the_great_waterway
		}
		position = 5
		
		trigger = {
			custom_trigger_tooltip = {
				tooltip = bulwar_banking_upgrade_ready_tt
				601 = { check_variable = { banking_district_progress = 100 } }
			}
			custom_trigger_tooltip = {
				tooltip = bulwar_temple_upgrade_ready_tt
				601 = { check_variable = { temple_district_progress = 100 } }
			}
			custom_trigger_tooltip = {
				tooltip = bulwar_kanu_upgrade_ready_tt
				601 = { check_variable = { kanu_district_progress = 100 } }
			}
			custom_trigger_tooltip = {
				tooltip = bulwar_schools_upgrade_ready_tt
				601 = { check_variable = { schools_district_progress = 100 } }
			}
			custom_trigger_tooltip = {
				tooltip = bulwar_canals_upgrade_ready_tt
				601 = { check_variable = { canals_district_progress = 100 } }
			}
			601 = {
				development = 65
				has_province_modifier = bulwar_eduz_rakadags
			}
		}
		effect = {
			601 = {
				add_permanent_province_modifier = {
					name = bulwar_city_of_light_mod
					duration = -1
				}
			}
			custom_tooltip = bulwar_fula_new_power_tt
			custom_tooltip = bulwar_aharmandas_new_power_tt
			custom_tooltip = bulwar_givar_new_power_tt
			custom_tooltip = bulwar_gillugames_new_power_tt
			custom_tooltip = bulwar_kastalukast_new_power_tt
			custom_tooltip = bulwar_bilul_yulun_new_power_tt
		}
	}
}

bulwar_quarters_4 = {
	slot = 4
	generic = no
	ai = yes 
	potential = {
		OR = {
			tag = F39
			AND = {
				tag = F52
				was_tag = F39
			}
		}
		is_incident_happened = incident_naqtazan
	}
	has_country_shield = yes
	
	bulwar_schools_district = {
		icon = mission_develop_alhambra
		required_missions = {
			bulwar_at_close_quarters
		}
		position = 2
		
		trigger = {
			custom_trigger_tooltip = {
				tooltip = gillugames_in_government_tt
				has_country_flag = gillugames_in_government
			}
			treasury = 100
			employed_advisor = { type = natural_scientist }
		}
		effect = {
			add_treasury = -100
			601 = {
				add_permanent_province_modifier = {
					name = bulwar_schools_district_1
					duration = -1
				}
			}
		}
	}
	
	bulwar_intense_intendancy = {
		icon = mission_diplomacy_missive
		required_missions = {
			bulwar_schools_district
		}
		position = 3
		
		trigger = {
			custom_trigger_tooltip = {
				tooltip = bulwar_schools_upgrade_ready_tt
				601 = { check_variable = { schools_district_progress = 100 } }
			}
			601 = { has_courthouse_building_trigger = yes }
			employed_advisor = { type = stateman }
			treasury = 200
			601 = { development = 40 }
		}
		effect = {
			add_treasury = -200
			601 = {
				hidden_effect = {
					remove_province_modifier = bulwar_schools_district_1
					set_variable = { schools_district_progress = 0 }
				}
				add_permanent_province_modifier = {
					name = bulwar_schools_district_2
					duration = -1
				}
			}
		}
	}
	
	bulwar_something_to_write_about = {
		icon = reform_the_nomocanon
		required_missions = {
			bulwar_intense_intendancy
		}
		position = 4
		
		trigger = {
			custom_trigger_tooltip = {
				tooltip = bulwar_schools_upgrade_ready_tt
				601 = { check_variable = { schools_district_progress = 100 } }
			}
			has_institution = printing_press
			employed_advisor = { type = philosopher }
			treasury = 300
			if = { limit = { has_dlc = "Mandate of Heaven" }
				splendor = 250
			}
			else = {
				prestige = 30
			}
			601 = { development = 50 }
		}
		effect = {
			add_treasury = -300
			if = { limit = { has_dlc = "Mandate of Heaven" }
				add_splendor = -250
			}
			else = {
				add_prestige = -30
			}
			601 = {
				hidden_effect = {
					remove_province_modifier = bulwar_schools_district_2
					set_variable = { schools_district_progress = 0 }
				}
				add_permanent_province_modifier = {
					name = bulwar_schools_district_3
					duration = -1
				}
			}
			if = {
				limit = {
					has_dlc = "Mandate of Heaven"
					religion = bulwari_sun_cult
				}
				country_event = { id = flavour_bulwar_tag.24 }
			}
		}
	}
}

bulwar_quarters_5 = {
	slot = 5
	generic = no
	ai = yes 
	potential = {
		OR = {
			tag = F39
			AND = {
				tag = F52
				was_tag = F39
			}
		}
		is_incident_happened = incident_naqtazan
	}
	has_country_shield = yes
	
	bulwar_canals_district = {
		icon = construct_the_kiel_canal
		required_missions = {
			bulwar_at_close_quarters
		}
		position = 2
		
		trigger = {
			custom_trigger_tooltip = {
				tooltip = kastalukast_in_government_tt
				has_country_flag = kastalukast_in_government
			}
			treasury = 100
			601 = { has_trade_building_trigger = yes }
		}
		effect = {
			add_treasury = -100
			601 = {
				add_permanent_province_modifier = {
					name = bulwar_canals_district_1
					duration = -1
				}
			}
		}
	}
	
	bulwar_water_under_the_bridge = {
		icon = mission_al-wadi_al-kabir
		required_missions = {
			bulwar_canals_district
		}
		position = 3
		
		trigger = {
			custom_trigger_tooltip = {
				tooltip = bulwar_canals_upgrade_ready_tt
				601 = { check_variable = { canals_district_progress = 100 } }
			}
			601 = {
				OR = {
					has_province_modifier = bulwari_locks_and_lifts
					has_province_modifier = great_bulwari_watercourse
				}
				base_manpower = 12
			}
			employed_advisor = { type = trader }
			treasury = 200
			601 = { development = 40 }
		}
		effect = {
			add_treasury = -200
			601 = {
				hidden_effect = {
					remove_province_modifier = bulwar_canals_district_1
					set_variable = { canals_district_progress = 0 }
				}
				add_permanent_province_modifier = {
					name = bulwar_canals_district_2
					duration = -1
				}
			}
		}
	}
	
	bulwar_the_great_waterway = {
		icon = mission_se_along_the_river
		required_missions = {
			bulwar_water_under_the_bridge
		}
		position = 4
		
		trigger = {
			custom_trigger_tooltip = {
				tooltip = bulwar_canals_upgrade_ready_tt
				601 = { check_variable = { canals_district_progress = 100 } }
			}
			601 = { has_province_modifier = great_bulwari_watercourse }
			monthly_income = 200
			estate_loyalty = { estate = estate_burghers loyalty = 60 }
			treasury = 300
			if = { limit = { has_dlc = "Mandate of Heaven" }
				splendor = 250
			}
			else = {
				prestige = 30
			}
			601 = { development = 50 }
		}
		effect = {
			add_treasury = -300
			if = { limit = { has_dlc = "Mandate of Heaven" }
				add_splendor = -250
			}
			else = {
				add_prestige = -30
			}
			601 = {
				hidden_effect = {
					remove_province_modifier = bulwar_canals_district_2
					set_variable = { canals_district_progress = 0 }
				}
				add_permanent_province_modifier = {
					name = bulwar_canals_district_3
					duration = -1
				}
			}
		}
	}
}

bulwar_1 = {
	slot = 1
	generic = no
	ai = yes 
	potential = {
		OR = {
			tag = F39
			AND = {
				tag = F52
				was_tag = F39
			}
		}
		is_incident_happened = incident_naqtazan
	}
	has_country_shield = yes
	
	bulwar_plucking_white_phoenix = {
		icon = mission_burning_castle
		required_missions = {
			bulwar_taking_the_lead
		}
		position = 7
		
		provinces_to_highlight = {
			OR = {
				owned_by = F42
				AND = {
					area = traz_buranun_area
					NOT = { owned_by = ROOT }
				}
			}
		}
		
		trigger = {
			F42 = { exists = no }
			traz_buranun_area = {
				country_or_non_sovereign_subject_holds = ROOT
				type = all
			}
		}
		effect = {
			add_power_projection = {
				type = mission_rewards_power_projection
				amount = 10
			}
			if = {
				limit = {
					F30 = {
						exists = yes
						NOT = { total_development = 75 }
					}
				}
				add_casus_belli = {
					target = F30
					type = cb_vassalize_mission
					months = 240
				}
			}
			else = {
				kumarkand_area = {
					add_permanent_claim = ROOT
				}
			}
		}
	}
	
	bulwar_having_field_day = {
		icon = mission_rb_import_potatoes
		required_missions = {
			bulwar_plucking_white_phoenix
			bulwar_adamant_azkabari
		}
		position = 9
		
		provinces_to_highlight = {
			OR = {
				AND = {
					area = kumarkand_area
					NOT = { owned_by = ROOT }
				}
				AND = {
					OR = {
						has_terrain = farmlands
						has_terrain = grasslands
					}
					trade_goods = grain
					NOT = { has_manufactory_trigger = yes }
				}
			}
		}
		
		trigger = {
			kumarkand_area = {
				country_or_non_sovereign_subject_holds = ROOT
				type = all
			}
			calc_true_if = {
				all_owned_province = {
					OR = {
						has_terrain = farmlands
						has_terrain = grasslands
					}
					trade_goods = grain
					has_manufactory_trigger = yes 
				}
				amount = 5
			}
		}
		effect = {
			custom_tooltip = bulwar_5_prov_base_manpower_tt
			hidden_effect = {
				random_owned_province = {
					limit = {
						OR = {
							has_terrain = farmlands
							has_terrain = grasslands
						}
						trade_goods = grain
						has_manufactory_trigger = yes
					}
					add_base_manpower = 2
				}
				random_owned_province = {
					limit = {
						OR = {
							has_terrain = farmlands
							has_terrain = grasslands
						}
						trade_goods = grain
						has_manufactory_trigger = yes
					}
					add_base_manpower = 2
				}
				random_owned_province = {
					limit = {
						OR = {
							has_terrain = farmlands
							has_terrain = grasslands
						}
						trade_goods = grain
						has_manufactory_trigger = yes
					}
					add_base_manpower = 2
				}
				random_owned_province = {
					limit = {
						OR = {
							has_terrain = farmlands
							has_terrain = grasslands
						}
						trade_goods = grain
						has_manufactory_trigger = yes
					}
					add_base_manpower = 2
				}
				random_owned_province = {
					limit = {
						OR = {
							has_terrain = farmlands
							has_terrain = grasslands
						}
						trade_goods = grain
						has_manufactory_trigger = yes
					}
					add_base_manpower = 2
				}
			}
			add_country_modifier = { name = bulwar_population_growth duration = 3650 }
		}
	}
	
	bulwar_not_so_small_council = {
		icon = mission_taula_de_canvi
		required_missions = {
			bulwar_law_and_order
		}
		position = 10
		
		trigger = {
			custom_trigger_tooltip = {
				tooltip = has_elected_ruqasah_tt
				has_country_flag = ruqasah_elected
			}
			custom_trigger_tooltip = {
				tooltip = has_elected_fula_tt
				has_country_flag = fula_elected
			}
			custom_trigger_tooltip = {
				tooltip = has_elected_kastalukast_tt
				has_country_flag = kastalukast_elected
			}
			custom_trigger_tooltip = {
				tooltip = has_elected_gillugames_tt
				has_country_flag = gillugames_elected
			}
			custom_trigger_tooltip = {
				tooltip = has_elected_aharmandas_tt
				has_country_flag = aharmandas_elected
			}
			custom_trigger_tooltip = {
				tooltip = has_elected_givar_tt
				has_country_flag = givar_elected
			}
			custom_trigger_tooltip = {
				tooltip = has_elected_bilul_yulun_tt
				has_country_flag = bilul_yulun_elected
			}
			custom_trigger_tooltip = {
				tooltip = has_elected_husnekar_tt
				has_country_flag = husnekar_elected
			}
			custom_trigger_tooltip = {
				tooltip = has_elected_alukaturan_tt
				has_country_flag = alukaturan_elected
			}
			custom_trigger_tooltip = {
				tooltip = has_elected_lekad_tt
				has_country_flag = lekad_elected
			}
			custom_trigger_tooltip = {
				tooltip = has_elected_belatis_tt
				has_country_flag = belatis_elected
			}
			custom_trigger_tooltip = {
				tooltip = has_elected_dikuras_tt
				has_country_flag = dikuras_elected
			}
			adm_power = 100
			dip_power = 100
			mil_power = 100
			government_reform_progress = 100
		}
		effect = {
			add_adm_power = -100
			add_dip_power = -100
			add_mil_power = -100
			change_government_reform_progress = -100
			add_government_reform = bulwar_expended_council_reform
		}
	}
	
	bulwar_spring_cleaning = {
		icon = mission_eliminate_pretenders
		required_missions = {
			bulwar_not_so_small_council
			bulwar_matter_of_administration
		}
		position = 11
		
		trigger = {
			custom_trigger_tooltip = {
				tooltip = dikuras_in_government_tt
				has_country_flag = dikuras_in_government
			}
			republican_tradition = 99
			NOT = { corruption = 1 }
			estate_loyalty = { estate = estate_nobles loyalty = 60 }
			NOT = { estate_influence = { estate = estate_nobles influence = 50 } }
		}
		effect = {
			custom_tooltip = bulwar_lower_bad_personality_chance_tt
		}
	}
}

bulwar_2 = {
	slot = 2
	generic = no
	ai = yes 
	potential = {
		OR = {
			tag = F39
			AND = {
				tag = F52
				was_tag = F39
			}
		}
		is_incident_happened = incident_naqtazan
	}
	has_country_shield = yes
	
	bulwar_adamant_azkabari = {
		icon = mission_dark_ritual
		required_missions = {
			bulwar_tightening_the_grip
		}
		position = 8
		
		trigger = {
			custom_trigger_tooltip = {
				tooltip = alukaturan_in_government_tt
				has_country_flag = alukaturan_in_government
			}
			if = { limit = { exists = F35 }
				if = { limit = { F35 = { is_subject = yes } }
					if = { limit = { F35 = { is_subject_of = ROOT } }
						F35 = { is_subject_of = ROOT }
					}
					else = {
						F35 = {
							overlord = { has_spy_network_from = { who = ROOT value = 30 } }
							custom_trigger_tooltip = {
								tooltip = bulwar_opinion_improved_70_tt
								has_opinion_modifier = {
									who = ROOT
									modifier = improved_relation
									value = 70
								}
							}
							capital_scope = {
								num_of_units_in_province = {
									who = ROOT
									amount = 15
								}
							}
						}
						num_of_diplomats = 2
					}
				}
				else = {
					F35 = {
						has_spy_network_from = { who = ROOT value = 30 }
						custom_trigger_tooltip = {
							tooltip = bulwar_opinion_improved_70_tt
							has_opinion_modifier = {
								who = ROOT
								modifier = improved_relation
								value = 70
							}
						}
						capital_scope = {
							num_of_units_in_province = {
								who = ROOT
								amount = 15
							}
						}
					}
					num_of_diplomats = 2
				}
			}
			else = {
				if = { limit = { owns = 613 }
					owns = 613
				}
				else = {
					613 = {
						owner = {
							has_spy_network_from = { who = ROOT value = 30 }
							custom_trigger_tooltip = {
								tooltip = bulwar_opinion_improved_70_tt
								has_opinion_modifier = {
									who = ROOT
									modifier = improved_relation
									value = 70
								}
							}
						}
						num_of_units_in_province = {
							who = ROOT
							amount = 15
						}
					}
					num_of_diplomats = 2
				}
			}
		}
		effect = {
			if = {
				limit = {
					NOT = { F35 = { is_subject_of = ROOT } }
					NOT = {
						AND = {
							owns = 613
							F35 = { exists = no }
						}
					}
				}
				country_event = { id = flavour_bulwar_tag.29 }
			}
			else = {
				add_dip_power = 50
			}
		}
	}
	
	bulwar_law_and_order = {
		icon = mission_vedic_education
		required_missions = {
			bulwar_adamant_azkabari
		}
		position = 9
		
		trigger = {
			custom_trigger_tooltip = {
				tooltip = dikuras_in_government_tt
				has_country_flag = dikuras_in_government
			}
			613 = { #azkabar
				owned_by = ROOT
				NOT = { nationalism = 1 }
				NOT = { unrest = 1 }
			}
			adm_power = 50
		}
		effect = {
			add_adm_power = -50
			601 = { add_permanent_province_modifier = { name = bulwar_order_of_judges_seat duration = -1 } }
		}
	}
	
	bulwar_matter_of_administration = {
		icon = mission_asian_trader
		required_missions = {
			bulwar_law_and_order
			bulwar_strenght_in_unity
		}
		position = 10
		
		trigger = {
			OR = {
				custom_trigger_tooltip = {
					tooltip = gillugames_in_government_tt
					has_country_flag = gillugames_in_government
				}
				custom_trigger_tooltip = {
					tooltip = aharmandas_in_government_tt
					has_country_flag = aharmandas_in_government
				}
			}
			OR = {
				custom_trigger_tooltip = {
					tooltip = fula_in_government_tt
					has_country_flag = fula_in_government
				}
				custom_trigger_tooltip = {
					tooltip = givar_in_government_tt
					has_country_flag = givar_in_government
				}
			}
			OR = {
				custom_trigger_tooltip = {
					tooltip = dikuras_in_government_tt
					has_country_flag = dikuras_in_government
				}
				custom_trigger_tooltip = {
					tooltip = ruqasah_in_government_tt
					has_country_flag = ruqasah_in_government
				}
			}
			stability = 2
			adm_power = 100
		}
		effect = {
			add_adm_power = -100
			add_country_modifier = {
				name = bulwar_new_administration
				duration = -1
			}
		}
	}
	
	bulwar_tale_of_twelve = {
		icon = mission_feast
		required_missions = {
			bulwar_spring_cleaning
			bulwar_builders_of_bulwar
		}
		position = 12
		
		trigger = {
			custom_trigger_tooltip = {
				tooltip = bulwar_no_bad_personality_tt
				NOT = { ruler_has_personality = babbling_buffoon_personality }
				NOT = { ruler_has_personality = embezzler_personality }
				NOT = { ruler_has_personality = infertile_personality }
				NOT = { ruler_has_personality = drunkard_personality }
				NOT = { ruler_has_personality = sinner_personality }
				NOT = { ruler_has_personality = greedy_personality }
				NOT = { ruler_has_personality = cruel_personality }
				NOT = { ruler_has_personality = naive_personality }
				NOT = { ruler_has_personality = craven_personality }
				NOT = { ruler_has_personality = loose_lips_personality }
				NOT = { ruler_has_personality = obsessive_perfectionist_personality }
				NOT = { ruler_has_personality = malevolent_personality }
				NOT = { ruler_has_personality = petty_personality }
			}
			custom_trigger_tooltip = {
				tooltip = bulwar_no_ongoing_election_tt
				NOT = { has_country_flag = in_bulwar_election }
			}
			republican_tradition = 99
			diplomatic_reputation = 4
		}
		effect = {
			custom_tooltip = bulwar_tale_of_twelve_effect_tt
			custom_tooltip = bulwar_dykarus_new_power_tt
		}
	}
}

bulwar_3 = {
	slot = 3
	generic = no
	ai = yes 
	potential = {
		OR = {
			tag = F39
			AND = {
				tag = F52
				was_tag = F39
			}
		}
		is_incident_happened = incident_naqtazan
	}
	has_country_shield = yes
	
	bulwar_taking_the_lead = {
		icon = mission_gharbianss
		required_missions = { }
		position = 6
		
		trigger = {
			if = { limit = { F31 = { has_country_flag = naqtazan_member } }
				army_strength = { who = F31 value = 2 }
				prestige = F31
				monthly_income = F31
				reverse_has_opinion = { who = F31 value = 80 }
			}
			if = { limit = { F36 = { has_country_flag = naqtazan_member } }
				army_strength = { who = F36 value = 2 }
				prestige = F36
				monthly_income = F36
				reverse_has_opinion = { who = F36 value = 80 }
			}
			if = { limit = { F41 = { has_country_flag = naqtazan_member } }
				army_strength = { who = F41 value = 2 }
				prestige = F41
				monthly_income = F41
				reverse_has_opinion = { who = F41 value = 80 }
			}
		}
		effect = {
			if = { limit = { F31 = { has_country_flag = naqtazan_member } }
				create_subject = {
					subject_type = autonomous_vassal
					subject = F31
				}
			}
			if = { limit = { F36 = { has_country_flag = naqtazan_member } }
				create_subject = {
					subject_type = autonomous_vassal
					subject = F36
				}
			}
			if = { limit = { F41 = { has_country_flag = naqtazan_member } }
				create_subject = {
					subject_type = autonomous_vassal
					subject = F41
				}
			}
			add_country_modifier = { name = bulwar_organised_naqtazan duration = 9125 }
			hidden_effect = {
				remove_opinion = { who = F31 modifier = nsc_suspicious_behaviour }
				remove_opinion = { who = F31 modifier = nsc_suspicious_behaviour_big }
				reverse_remove_opinion = { who = F31 modifier = nsc_suspicious_behaviour }
				reverse_remove_opinion = { who = F31 modifier = nsc_suspicious_behaviour_big }
				remove_opinion = { who = F36 modifier = nsc_suspicious_behaviour }
				remove_opinion = { who = F36 modifier = nsc_suspicious_behaviour_big }
				reverse_remove_opinion = { who = F36 modifier = nsc_suspicious_behaviour }
				reverse_remove_opinion = { who = F36 modifier = nsc_suspicious_behaviour_big }
				remove_opinion = { who = F41 modifier = nsc_suspicious_behaviour }
				remove_opinion = { who = F41 modifier = nsc_suspicious_behaviour_big }
				reverse_remove_opinion = { who = F41 modifier = nsc_suspicious_behaviour }
				reverse_remove_opinion = { who = F41 modifier = nsc_suspicious_behaviour_big }
			}
		}
	}
	
	bulwar_tightening_the_grip = {
		icon = mission_gharbianss
		required_missions = {
			bulwar_taking_the_lead
		}
		position = 7
		
		trigger = {
			dip_power = 50
			all_subject_country = {
				NOT = { liberty_desire = 60 }
				has_opinion = { who = ROOT value = 125 }
			}
		}
		effect = {
			add_dip_power = -50
			custom_tooltip = bulwar_autonomous_vassals_into_vassals_tt
			hidden_effect = {
				every_subject_country = {
					limit = { is_subject_of_type = autonomous_vassal }
					ROOT = {
						create_subject = {
							subject_type = vassal
							subject = PREV
						}
					}
				}
			}
		}
	}
	
	bulwar_strenght_in_unity = {
		icon = mission_restore_caliphate_of_cordoba
		required_missions = {
			bulwar_adamant_azkabari
			bulwar_tightening_the_grip
			bulwar_keen_kalibi
		}
		position = 9
		
		trigger = {
			custom_trigger_tooltip = {
				tooltip = alukaturan_in_government_tt
				has_country_flag = alukaturan_in_government
			}
			diplomatic_reputation = 2
			all_subject_country = {
				NOT = { liberty_desire = 50 }
				has_opinion = { who = ROOT value = 150 }
			}
		}
		effect = {
			add_country_modifier = { name = bulwar_strenght_in_unity_timer duration = 7300 hidden = yes }
			custom_tooltip = bulwar_no_penalty_annexing_subject_tt
		}
	}
	
	bulwar_river_alliance = {
		icon = mission_reclaim_morocco
		required_missions = {
			bulwar_strenght_in_unity
		}
		position = 10
		
		provinces_to_highlight = {
			OR = {
				area = bulwar_area
				area = eduz_vacyn_area
				area = harklum_area
				province_id = 613 #azkabar
			}
			NOT = { owned_by = ROOT }
		}
		
		trigger = {
			bulwar_area = {
				owned_by = ROOT
				type = all
			}
			eduz_vacyn_area = {
				owned_by = ROOT
				type = all
			}
			harklum_area = {
				owned_by = ROOT
				type = all
			}
			613 = { owned_by = ROOT }
		}
		effect = {
			override_country_name = naqtazan
			if = { limit = { government_rank = 1 }
				set_government_rank = 2
			}
			add_prestige = 25
		}
	}
	
	bulwar_builders_of_bulwar = {
		icon = mission_dwarf
		required_missions = {
			bulwar_matter_of_administration
			bulwar_river_alliance
		}
		position = 11
		
		provinces_to_highlight = {
			OR = {
				province_id = 601 #Bulwar
				province_id = 560 #Anzabad
				province_id = 565 #Brasan
				province_id = 604 #Zanbar
				province_id = 631 #Eduz-Vacyn
				province_id = 561 #Medurubar
				province_id = 613 #Azkabar
			}
			OR = {
				NOT = { owned_by = ROOT }
				NOT = { development = 25 }
				NOT = { has_trade_building_trigger = yes }
				NOT = { has_production_building_trigger = yes }
				NOT = { has_multiple_manufactory_trigger = { VAL = 2 } }
			}
		}
		
		trigger = {
			custom_trigger_tooltip = {
				tooltip = bilul_yulun_in_government_tt
				has_country_flag = bilul_yulun_in_government
			}
			560	= { owned_by = ROOT }
			565	= { owned_by = ROOT }
			604	= { owned_by = ROOT }
			631	= { owned_by = ROOT }
			561	= { owned_by = ROOT }
			613	= { owned_by = ROOT }
			OR = {
				high_tolerance_dwarven_race_trigger = yes
				601 = { has_dwarven_minority_trigger = yes }
			}
			if = {
				limit = {
					calc_true_if = {
						all_known_country = {
							culture_is_dwarven = yes
							NOT = { is_rival = ROOT }
						}
						amount = 2
					}
				}
				calc_true_if = {
					all_known_country = {
						culture_is_dwarven = yes
						has_opinion = { who = ROOT value = 150 }
					}
					amount = 2
				}
			}
		}
		effect = {
			560	= {
				add_permanent_province_modifier = { name = bulwar_builders duration = -1 }
				add_dwarven_minority_size_effect = yes
			}
			565	= {
				add_permanent_province_modifier = { name = bulwar_builders duration = -1 }
				add_dwarven_minority_size_effect = yes
			}
			604	= {
				add_permanent_province_modifier = { name = bulwar_builders duration = -1 }
				add_dwarven_minority_size_effect = yes
			}
			631	= {
				add_permanent_province_modifier = { name = bulwar_builders duration = -1 }
				add_dwarven_minority_size_effect = yes
			}
			561	= {
				add_permanent_province_modifier = { name = bulwar_builders duration = -1 }
				add_dwarven_minority_size_effect = yes
			}
			613	= {
				add_permanent_province_modifier = { name = bulwar_builders duration = -1 }
				add_dwarven_minority_size_effect = yes
			}
		}
	}
}

bulwar_4 = {
	slot = 4
	generic = no
	ai = yes 
	potential = {
		OR = {
			tag = F39
			AND = {
				tag = F52
				was_tag = F39
			}
		}
		is_incident_happened = incident_naqtazan
	}
	has_country_shield = yes
	
	bulwar_keen_kalibi = {
		icon = mission_central_asian_city
		required_missions = {
			bulwar_tightening_the_grip
		}
		position = 8
		
		trigger = {
			custom_trigger_tooltip = {
				tooltip = alukaturan_in_government_tt
				has_country_flag = alukaturan_in_government
			}
			if = { limit = { exists = F44 }
				if = { limit = { F44 = { is_subject = yes } }
					if = { limit = { F44 = { is_subject_of = ROOT } }
						F44 = { is_subject_of = ROOT }
					}
					else = {
						F44 = {
							overlord = {
								has_spy_network_from = { who = ROOT value = 30 }
							}
							custom_trigger_tooltip = {
								tooltip = bulwar_sent_gift_tt
								has_opinion_modifier = {
									who = ROOT
									modifier = sent_gift 
									value = 25
								}
							}
							custom_trigger_tooltip = {
								tooltip = bulwar_opinion_improved_70_tt
								has_opinion_modifier = {
									who = ROOT
									modifier = improved_relation
									value = 70
								}
							}
						}
					}
				}
				else = {
					F44 = {
						has_spy_network_from = { who = ROOT value = 30 }
						custom_trigger_tooltip = {
							tooltip = bulwar_sent_gift_tt
							has_opinion_modifier = {
								who = ROOT
								modifier = sent_gift 
								value = 25
							}
						}
						custom_trigger_tooltip = {
							tooltip = bulwar_opinion_improved_70_tt
							has_opinion_modifier = {
								who = ROOT
								modifier = improved_relation
								value = 70
							}
						}
					}
				}
			}
			else = {
				if = { limit = { owns = 599 }
					owns = 599
					owns = 600
				}
				else = {
					599 = {
						owner = {
							has_spy_network_from = { who = ROOT value = 30 }
							NOT = { army_strength = { who = ROOT value = 1 } }
						}
					}
					treasury = 50
				}
			}
		}
		effect = {
			if = {
				limit = {
					OR = {
						ai = yes
						F44 = { is_subject_of = ROOT }
						owns = 599
					}
				}
				add_dip_power = 50
			}
			else = {
				country_event = { id = flavour_bulwar_tag.32 }
			}
		}
	}
	
	bulwar_pale_imitation = {
		icon = mission_levantine_restoration
		required_missions = {
			bulwar_keen_kalibi
			bulwar_ahead_of_the_pack
		}
		position = 9
		
		provinces_to_highlight = {
			OR = {
				province_id = 631
				is_capital_of = F37
			}					
		}
		
		trigger = {
			if = { limit = { has_dlc = "Mandate of Heaven" }
				is_incident_happened = incident_death_of_taelarios
			}
			else = {
				F37 = { NOT = { has_ruler = "Taelarios I" } }
			}
			OR = {
				NOT = { exists = F37 }
				total_development = F37
			}
			631 = { country_or_non_sovereign_subject_holds = ROOT }
		}
		effect = {
			irrliam_area = { add_permanent_claim = ROOT }
			anzabad_area = { add_permanent_claim = ROOT }
			medurubar_area = { add_permanent_claim = ROOT }
		}
	}
	
	bulwar_council_of_eduz_buranun = {
		icon = mission_pacify_the_berbers
		required_missions = {
			bulwar_strenght_in_unity
			bulwar_pale_imitation
		}
		position = 10
		
		provinces_to_highlight = {
			OR = {
				AND = {
					province_id = 602
					NOT = { has_tax_building_trigger = yes }
				}
				AND = {
					OR = {
						province_id = 595
						province_id = 561
						province_id = 631
					}
					NOT = { country_or_non_sovereign_subject_holds = ROOT }
				}
			}
		}
		
		trigger = {
			602 = {
				owned_by = ROOT
				has_tax_building_trigger = yes
			}
			treasury = 250
			595 = { country_or_non_sovereign_subject_holds = ROOT }
			561 = { country_or_non_sovereign_subject_holds = ROOT }
			631 = { country_or_non_sovereign_subject_holds = ROOT }
		}
		effect = {
			add_treasury = -250
			country_event = { id = flavour_bulwar_tag.16 }
		}
	}
	
	bulwar_down_the_road = {
		icon = mission_guarded_market
		required_missions = {
			bulwar_river_alliance
			bulwar_council_of_eduz_buranun
		}
		position = 11
		
		provinces_to_highlight = {
			province_group = golden_highway_bulwar_proper
			NOT = { has_province_modifier = golden_highway }
		}
		
		trigger = {
			golden_highway_bulwar_proper = {
				has_province_modifier = golden_highway
				type = all
			}
			601 = { #Bulwar
				trade_share = {
					country = ROOT
					share = 90
				}
			}
			calc_true_if = {
				all_owned_province = {
					province_group = golden_highway_bulwar_proper
					has_trade_building_trigger = yes
				}
				amount = 7
			}
		}
		effect = {
			add_country_modifier = {
				name = bulwar_golden_highway_boom
				duration = 7300
			}
			golden_highway_bulwar_proper = {
				limit = {
					owned_by = ROOT
					has_trade_building_trigger = yes
				}
				add_permanent_province_modifier = {
					name = bulwar_golden_bazaar
					duration = -1
				}
			}
		}
	}
	
	bulwar_cities_of_the_suran = {
		icon = mission_growth_of_ahmedabad
		required_missions = {
			bulwar_builders_of_bulwar
			bulwar_down_the_road
			bulwar_dip_in_divenhal
		}
		position = 12
		
		provinces_to_highlight = {
			OR = {
				province_id = 560 #Anzabad
				province_id = 565 #Brasan
				province_id = 604 #Zanbar
				province_id = 631 #Eduz-Vacyn
				province_id = 561 #Medurubar
				province_id = 613 #Azkabar
			}
			OR = {
				NOT = { owned_by = ROOT }
				NOT = { development = 25 }
				NOT = { has_trade_building_trigger = yes }
				NOT = { has_production_building_trigger = yes }
				NOT = { has_multiple_manufactory_trigger = { VAL = 2 } }
			}
		}
		
		trigger = {
			601	= {
				owned_by = ROOT 
				development = 60
			}
			560	= {
				owned_by = ROOT
				development = 25
				has_trade_building_trigger = yes
				has_production_building_trigger = yes
				has_multiple_manufactory_trigger = { VAL = 2 }
			}
			565	= {
				owned_by = ROOT
				development = 25
				has_trade_building_trigger = yes
				has_production_building_trigger = yes
				has_multiple_manufactory_trigger = { VAL = 2 }
			}
			604	= {
				owned_by = ROOT
				development = 25
				has_trade_building_trigger = yes
				has_production_building_trigger = yes
				has_multiple_manufactory_trigger = { VAL = 2 }
			}
			631	= {
				owned_by = ROOT
				development = 25
				has_trade_building_trigger = yes
				has_production_building_trigger = yes
				has_multiple_manufactory_trigger = { VAL = 2 }
			}
			561	= {
				owned_by = ROOT
				development = 25
				has_trade_building_trigger = yes
				has_production_building_trigger = yes
				has_multiple_manufactory_trigger = { VAL = 2 }
			}
			613	= {
				owned_by = ROOT
				development = 25
				has_trade_building_trigger = yes
				has_production_building_trigger = yes
				has_multiple_manufactory_trigger = { VAL = 2 }
			}
		}
		effect = {
			601	= { add_permanent_province_modifier = { name = bulwar_suran_city duration = -1 } }
			560	= { add_permanent_province_modifier = { name = bulwar_suran_city duration = -1 } }
			565	= { add_permanent_province_modifier = { name = bulwar_suran_city duration = -1 } }
			604	= { add_permanent_province_modifier = { name = bulwar_suran_city duration = -1 } }
			631	= { add_permanent_province_modifier = { name = bulwar_suran_city duration = -1 } }
			561	= { add_permanent_province_modifier = { name = bulwar_suran_city duration = -1 } }
			613	= { add_permanent_province_modifier = { name = bulwar_suran_city duration = -1 } }
			custom_tooltip = bulwar_alukaturan_new_power_tt
		}
	}
}

bulwar_5 = {
	slot = 5
	generic = no
	ai = yes 
	potential = {
		OR = {
			tag = F39
			AND = {
				tag = F52
				was_tag = F39
			}
		}
		is_incident_happened = incident_naqtazan
	}
	has_country_shield = yes
	
	bulwar_happy_people_of_the_sad_sur = {
		icon = mission_cope_with_refugees
		required_missions = {
			bulwar_taking_the_lead
		}
		position = 7
		
		provinces_to_highlight = {
			OR = {
				area = grixekyr_area
				area = jixobix_area
			}
			NOT = { country_or_non_sovereign_subject_holds = ROOT }
		}
		
		trigger = {
			grixekyr_area = {
				country_or_non_sovereign_subject_holds = ROOT
				type = all
			}
			jixobix_area = {
				country_or_non_sovereign_subject_holds = ROOT
				type = all
			}
		}
		effect = {
			if = {
				limit = {
					F43 = {
						OR = {
							total_development = 75
							exists = no
						}
					}
				}
				add_country_modifier = {
					name = bulwar_reclaiming_the_sad_sur
					duration = 1825
				}
			}
			else = {
				country_event = { id = flavour_bulwar_tag.17 }
			}
		}
	}
	
	bulwar_ahead_of_the_pack = {
		icon = mission_torch_fire
		required_missions = {
			bulwar_happy_people_of_the_sad_sur
		}
		position = 8
		
		provinces_to_highlight = {
			superregion = bulwar_superregion
			owned_by = F28
		}
		
		trigger = {
			bulwar_superregion = {
				NOT = { owned_by = F28 }
				type = all
			}
			OR = {
				has_country_modifier = racial_pop_gnollish_purge
				has_country_modifier = racial_pop_gnollish_expulsion
			}
		}
		effect = {
			add_stability_or_adm_power = yes
			custom_tooltip = bulwar_sadnatu_return_tt
			hidden_effect = {
				country_event = { id = flavour_bulwar_tag.22 days = 60 random = 60 }
				country_event = { id = flavour_bulwar_tag.22 days = 90 random = 60 }
				country_event = { id = flavour_bulwar_tag.22 days = 150 random = 60 }
				country_event = { id = flavour_bulwar_tag.22 days = 270 random = 60 }
				country_event = { id = flavour_bulwar_tag.22 days = 390 random = 60 }
				country_event = { id = flavour_bulwar_tag.22 days = 510 random = 60 }
				country_event = { id = flavour_bulwar_tag.22 days = 330 random = 60 }
				country_event = { id = flavour_bulwar_tag.22 days = 450 random = 60 }
				country_event = { id = flavour_bulwar_tag.22 days = 570 random = 60 }
				country_event = { id = flavour_bulwar_tag.22 days = 700 random = 60 }
				country_event = { id = flavour_bulwar_tag.22 days = 880 random = 60 }
				country_event = { id = flavour_bulwar_tag.22 days = 1060 random = 60 }
				country_event = { id = flavour_bulwar_tag.22 days = 1240 random = 60 }
				country_event = { id = flavour_bulwar_tag.22 days = 1420 random = 60 }
			}
		}
	}
	
	bulwar_rabsukalukaturan = {
		icon = mission_fatimid_caliphate
		required_missions = {
			bulwar_pale_imitation
		}
		position = 10
		
		trigger = {
			custom_trigger_tooltip = {
				tooltip = alukaturan_in_government_tt
				has_country_flag = alukaturan_in_government
			}
			if = { limit = { exists = F24 }
				if = { limit = { F24 = { is_subject = yes } }
					if = { limit = { F24 = { is_subject_of = ROOT } }
						F24 = { is_subject_of = ROOT }
					}
					else = {
						F24 = {
							overlord = {
								has_spy_network_from = { who = ROOT value = 30 }
							}
						}
						treasury = 350
					}
				}
				else = {
					F24 = {
						has_spy_network_from = { who = ROOT value = 30 }
					}
					treasury = 350
				}
			}
			else = {
				if = { limit = { owns = 556 }
					owns = 556
				}
				else = {
					556 = {
						owner = {
							has_spy_network_from = { who = ROOT value = 30 }
						}
					}
				}
			}
			republican_tradition = 99
			
		}
		effect = {
			if = { limit = { F24 = { exists = no } }
				upper_brasan_area = { add_permanent_claim = ROOT }
				lower_brasan_area = { add_permanent_claim = ROOT }
			}
			else_if = { limit = { F24 = { is_subject_of = ROOT } }
				add_dip_power = 50
			}
			else_if = { limit = { F24 = { government = republic } }
				add_treasury = -350
				F24 = { set_country_flag = bulwar_got_rabsukalukaturanised }
				custom_tooltip = bulwar_brasan_election_effect_tt
			}
			else = {
				add_casus_belli = {
					target = F24
					type = cb_vassalize_mission
					months = 240
				}
			}
		}
	}
	
	bulwar_dip_in_divenhal = {
		icon = mission_galleys_in_port
		required_missions = {
			bulwar_rabsukalukaturan
		}
		position = 11
		
		provinces_to_highlight = {
			OR = {
				province_id = 565
				province_id = 560
			}
			OR = {
				NOT = { owned_by = ROOT }
				NOT = { has_dock_building_trigger = yes }
				NOT = { has_shipyard_building_trigger = yes }
				NOT = { has_trade_building_trigger = yes }
				NOT = { base_production = 10 }
			}
		}
		
		trigger = {
			565 = {
				owned_by = ROOT
				has_dock_building_trigger = yes
				has_shipyard_building_trigger = yes
				has_trade_building_trigger = yes
				base_production = 10
			}
			560 = {
				owned_by = ROOT
				has_dock_building_trigger = yes
				has_shipyard_building_trigger = yes
				has_trade_building_trigger = yes
				base_production = 10
			}
		}
		effect = {
			565 = {
				add_permanent_province_modifier = {
					name = bulwar_great_shipyards
					duration = -1
				}
			}
			560 = {
				add_permanent_province_modifier = {
					name = bulwar_great_shipyards
					duration = -1
				}
			}
		}
	}
}
