
karashar_city = {
	slot = 1
	generic = no
	ai = yes
	potential = { tag = Z57 }
	has_country_shield = yes
	
	karashar_conquer_ovdal_tungr = {
		icon = mission_recover_konkan_ports
		required_missions = { 
			karashar_liberate_west_bahar
		}
		position = 3
		
		provinces_to_highlight = {
			OR = {
				owned_by = F23
				AND = {
					area = tungr_mountains_area
					NOT = { country_or_non_sovereign_subject_holds = ROOT }
				}
			}
		}
		
		trigger = {
			NOT = { exists = F23 }
			tungr_mountains_area = {
				country_or_non_sovereign_subject_holds = ROOT
				type = all
			}
		}
		
		effect = {
			add_adm_power = 100
			add_dip_power = 100
			add_mil_power = 100
		}
	}
	
	karashar_city_of_the_black_sun = {
		icon = mission_into_persia_1
		required_missions = { }
		position = 4
		
		trigger = {
			dip_power = 200
			custom_trigger_tooltip = {
				tooltip = karashar_city_dev20_tooltip
				any_owned_province = {
					has_province_flag = karashar_city
					development = 20
				}
			}
		}
		
		effect = {
			add_dip_power = -200
			if = {
				limit = {
					any_owned_province = {
						has_province_flag = karashar_city
						NOT = { province_has_center_of_trade_of_level = 1 }
					}
				}
				random_owned_province = {
					limit = { has_province_flag = karashar_city }
					center_of_trade = 1 
				}
			}
			else = {
				random_owned_province = {
					limit = { has_province_flag = karashar_city }
					add_center_of_trade_level = 1
				}
			}
		}
	}
	
	karashar_religious_center = {
		icon = mission_into_persia_2
		required_missions = {
			karashar_city_of_the_black_sun
		}
		position = 5
		
		provinces_to_highlight = {
			has_province_flag = karashar_city
			OR = {
				NOT = { base_tax = 10 }
				NOT = { has_tax_building_trigger = yes }
			}
		}
		
		trigger = {
			custom_trigger_tooltip = {
				tooltip = karashar_city_tax_tooltip
				any_owned_province = {
					has_province_flag = karashar_city
					base_tax = 10
					has_tax_building_trigger = yes
				}
			}
			num_of_owned_provinces_with = {
				religion = old_bulwari_sun_cult
				value = 50
			}
		}
		
		effect = {
			random_owned_province = {
				limit = { has_province_flag = karashar_city }
				add_province_modifier = {
					name = karashar_religious_center_modifier
					duration = -1
				}
			}
		}
	}
	
	karashar_heart_of_bulwar = {
		icon = mission_city_prosperity
		required_missions = {
			karashar_religious_center
			karashar_karashari_empire
		}
		position = 7
		
		provinces_to_highlight = {
			OR = {
				AND = {
					has_province_flag = karashar_city
					NOT = { development = 50 }
				}
				AND = {
					superregion = bulwar_superregion
					OR = {
						NOT = { religion = old_bulwari_sun_cult }
						NOT = { country_or_non_sovereign_subject_holds = ROOT }
					}
				}
			}
		}
		
		trigger = {
			custom_trigger_tooltip = {
				tooltip = karashar_city_dev50_tooltip
				any_owned_province = {
					has_province_flag = karashar_city
					development = 50
				}
			}
			bulwar_superregion = {
				religion = old_bulwari_sun_cult
				country_or_non_sovereign_subject_holds = ROOT
				type = all
			}
		}
		
		effect = {
			random_owned_province = {
				limit = { has_province_flag = karashar_city }
				change_trade_goods = paper
			}
			random_owned_province = {
				limit = { has_province_flag = karashar_city }
				add_province_modifier = {
					name = karashar_heart_of_bulwar_modifier
					duration = 9125
				}
			}
		}
	}
	
	karashar_black_sun_arises = {
		icon = mission_sunset
		required_missions = {
			karashar_heart_of_bulwar
		}
		position = 8
		
		provinces_to_highlight = {
			has_province_flag = karashar_city
			NOT = { province_has_center_of_trade_of_level = 3 }
		}
		
		trigger = {
			if = {
				limit = { has_dlc = "Dharma" }
				custom_trigger_tooltip = {
					tooltip = karashar_city_cot_tooltip
					any_owned_province = {
						has_province_flag = karashar_city
						province_has_center_of_trade_of_level = 3
					}
				}
			}
			else = {
				treasury = 1000
			}
			development_in_provinces = { value = 1500 }
		}
		
		effect = {
			if = { limit = { NOT = { has_dlc = "Dharma" } }
				add_treasury = -1000
				random_owned_province = {
					limit = { has_province_flag = karashar_city }
					add_center_of_trade_level = 2
				}
			}
			random_owned_province = {
				limit = { has_province_flag = karashar_city }
				add_province_modifier = {
					name = karashar_city_of_the_black_sun_modifier
					duration = -1
				}
			}
		}
	}
}

karashar_bahar = {
	slot = 2
	generic = no
	ai = yes
	potential = {
		tag = Z57
	}
	has_country_shield = yes
	
	karashar_prepare_for_war = {
		icon = mission_rajendras_ambition
		required_missions = { }
		position = 1
		
		trigger = {
			army_size_percentage = 0.9
			manpower_percentage = 0.75
		}
		
		effect = {
			add_country_modifier = {
				name = karashar_war_preparations
				duration = 14600
			}
			kuz_mountains_area = {
				add_permanent_claim = ROOT
			}
			imuluses_area = {
				add_permanent_claim = ROOT
			}
			bahar_szel_uak_area = {
				add_permanent_claim = ROOT
			}
			birsartenslib_area = {
				add_permanent_claim = ROOT
			}
		}
	}
	
	karashar_liberate_west_bahar = {
		icon = overseas_empire
		required_missions = {
			karashar_prepare_for_war
		}
		position = 2
		
		provinces_to_highlight = {
			OR = {
				area = birsartenslib_area
				area = bahar_szel_uak_area
				area = azka_evran_area
			}
			NOT = { country_or_non_sovereign_subject_holds = ROOT }
		}
		
		trigger = {
			birsartenslib_area = {
				country_or_non_sovereign_subject_holds = ROOT
				type = all
			}
			bahar_szel_uak_area = {
				country_or_non_sovereign_subject_holds = ROOT
				type = all
			}
			azka_evran_area = {
				country_or_non_sovereign_subject_holds = ROOT
				type = all
			}
		}
		
		effect = {
			add_adm_power = 100
			add_prestige = 10
			aqatbahar_area = {
				add_permanent_claim = ROOT
			}
			fajabahar_area = {
				add_permanent_claim = ROOT
			}
			magairous_area = {
				add_permanent_claim = ROOT
			}
			tungr_mountains_area = {
				add_permanent_claim = ROOT
			}
		}
	}
	
	karashar_deal_with_aqatbar = {
		icon = take_the_littoral
		required_missions = {
			karashar_liberate_west_bahar
		}
		position = 3
		
		provinces_to_highlight = {
			OR = {
				AND = {
					OR = {
						area = aqatbahar_area
						area = magairous_area
						area = fajabahar_area
					}
					NOT = { country_or_non_sovereign_subject_holds = ROOT }
				}
				owned_by = U15
			}
		}
		
		trigger = {
			aqatbahar_area = {
				country_or_non_sovereign_subject_holds = ROOT
				type = all
			}
			fajabahar_area = {
				country_or_non_sovereign_subject_holds = ROOT
				type = all
			}
			magairous_area = {
				country_or_non_sovereign_subject_holds = ROOT
				type = all
			}
			NOT = { exists = U15 }
		}
		
		effect = {
			add_power_projection = {
				type = mission_rewards_power_projection
				amount = 10
			}
			medbahar_area = {
				add_permanent_claim = ROOT
			}
			reuyel_area = {
				add_permanent_claim = ROOT
			}
		}
	}
	
	karashar_liberate_east_bahar = {
		icon = mission_raid_on_genoa
		required_missions = {
			karashar_deal_with_aqatbar
		}
		position = 4
		
		provinces_to_highlight = {
			OR = {
				area = medbahar_area
				area = reuyel_area
			}
			NOT = { country_or_non_sovereign_subject_holds = ROOT }
		}
		
		trigger = {
			medbahar_area = {
				country_or_non_sovereign_subject_holds = ROOT
				type = all
			}
			reuyel_area = {
				country_or_non_sovereign_subject_holds = ROOT
				type = all
			}
		}
		
		effect = {
			crathanor_area = {
				add_permanent_claim = ROOT
			}
		}
	}
	
	karashar_conquer_crathanor = {
		icon = mission_control_venice
		required_missions = {
			karashar_liberate_east_bahar
		}
		position = 5
		
		provinces_to_highlight = {
			area = crathanor_area
			NOT = { country_or_non_sovereign_subject_holds = ROOT }
		}
		
		trigger = {
			crathanor_area = {
				country_or_non_sovereign_subject_holds = ROOT
				type = all
			}
		}
		
		effect = {
			add_country_modifier = {
				name = karashar_crathanor_conquered
				duration = 9125
			}
		}
	}
	
	karashar_restore_surani_irrigation_systems = {
		icon = mission_advance_to_the_arabian_sea
		required_missions = {
			karashar_karashari_empire
		}
		position = 7
		
		provinces_to_highlight = {
			province_group = suran_river
			NOT = { country_or_non_sovereign_subject_holds = ROOT }
		}
		
		trigger = {
			suran_river = {
				country_or_non_sovereign_subject_holds = ROOT
				type = all
			}
			treasury = 2000
		}
		
		effect = {
			add_treasury = -2000
			suran_river = {
				add_province_modifier = {
					name = karashar_restored_irrigation_system
					duration = -1
				}
			}
			suran_river = {
				limit = { trade_goods = grain }
				add_base_production = 3
			}
		}
	}
	
	karashar_granary_of_sarhal = {
		icon = mission_wine_monopolies
		required_missions = {
			karashar_restore_surani_irrigation_systems
		}
		position = 8
		
		provinces_to_highlight = {
			trade_goods = grain
			OR = {
				NOT = { base_production = 10 }
				NOT = { country_or_non_sovereign_subject_holds = ROOT }
			}
		}
		
		trigger = {
			num_of_provinces_owned_or_owned_by_non_sovereign_subjects_with = {
				trade_goods = grain
				base_production = 10
				value = 40
			}
		}
		
		effect = {
			add_country_modifier = {
				name = karashar_granary_of_sarhal_modifier
				duration = 36500
			}
		}
	}
}

karashar_sareyand_and_gnolls = {
	slot = 3
	generic = no
	ai = yes
	potential = {
		tag = Z57
	}
	has_country_shield = yes
	
	karashar_first_step_to_forgiveness = {
		icon = mission_women_prayer
		required_missions = { }
		position = 1
		
		trigger = {
			any_subject_country = {
				is_subject_of = ROOT
				is_subject_of_type = vassal
				has_country_modifier = human_administration
			}
		}
		
		effect = {
			sareyand_area = {
				add_permanent_claim = ROOT
			}
			avamezan_area = {
				add_permanent_claim = ROOT
			}
			south_naza_area  = {
				add_permanent_claim = ROOT
			}
			east_naza_area  = {
				add_permanent_claim = ROOT
			}
			add_country_modifier = {
				name = karashar_first_step_to_forgiveness_modifier
				duration = 9125
			}
			custom_tooltip = karashar_vassal_purging_tooltip
			hidden_effect = {
				set_country_flag = karashar_vassal_purging
			}
		}
	}
	
	karashar_crush_sareyand = {
		icon = mission_crush_delhi
		required_missions = {
			karashar_first_step_to_forgiveness
		}
		position = 2
		
		provinces_to_highlight = {
			OR = {
				AND = {
					province_id = 625 #Sareyand
					NOT = { country_or_non_sovereign_subject_holds = ROOT }
				}
				owned_by = F25
			}
		}
		
		trigger = {
			625 = { 
				country_or_non_sovereign_subject_holds = ROOT
			}
			NOT = { exists = F25 } #Sareyand
		}
		
		effect = {
			add_prestige = 10
			panuses_area = {
				add_permanent_claim = ROOT
			}
			eduz_vacyn_area = {
				add_permanent_claim = ROOT
			}
			upper_suran_area  = {
				add_permanent_claim = ROOT
			}
		}
	}
	
	karashar_liberate_upper_suran = {
		icon = jerusalem
		required_missions = {
			karashar_crush_sareyand
		}
		position = 3
		
		provinces_to_highlight = {
			OR = {
				area = panuses_area
				area = eduz_vacyn_area
				area = upper_suran_area
			}
			NOT = { country_or_non_sovereign_subject_holds = ROOT }
		}
		
		trigger = {
			panuses_area = {
				country_or_non_sovereign_subject_holds = ROOT
				type = all
			}
			eduz_vacyn_area = {
				country_or_non_sovereign_subject_holds = ROOT
				type = all
			}
			upper_suran_area = {
				country_or_non_sovereign_subject_holds = ROOT
				type = all
			}
		}
		
		effect = {
			add_country_modifier = {
				name = karashar_upper_suran_liberated
				duration = 7300
			}
			jixobix_area = {
				add_permanent_claim = ROOT
			}
			harklum_area = {
				add_permanent_claim = ROOT
			}
			zansap_area = {
				add_permanent_claim = ROOT
			}
		}
	}
	
	karashar_liberate_zansap = {
		icon = mission_unite_home_region
		required_missions = {
			karashar_liberate_upper_suran
		}
		position = 4
		
		provinces_to_highlight = {
			OR = {
				area = harklum_area
				area = jixobix_area
				area = zansap_area
			}
			NOT = { country_or_non_sovereign_subject_holds = ROOT }
		}
		
		trigger = {
			harklum_area = {
				country_or_non_sovereign_subject_holds = ROOT
				type = all
			}
			jixobix_area = {
				country_or_non_sovereign_subject_holds = ROOT
				type = all
			}
			zansap_area = {
				country_or_non_sovereign_subject_holds = ROOT
				type = all
			}
		}
		
		effect = {
			add_dip_power = 100
			garpix_tluukt_area = {
				add_permanent_claim = ROOT
			}
			grixekyr_area = {
				add_permanent_claim = ROOT
			}
			sur_mountains_area = {
				add_permanent_claim = ROOT
			}
			691 = {
				add_permanent_claim = ROOT
			}
		}
	}
	
	karashar_purge_tluukt = {
		icon = mission_rb_unite_the_clans
		required_missions = {
			karashar_liberate_zansap
		}
		position = 5
		
		provinces_to_highlight = {
			OR = {
				area = garpix_tluukt_area
				area = grixekyr_area
				area = sur_mountains_area
				province_id = 691
			}
			NOT = { country_or_non_sovereign_subject_holds = ROOT }
		}
		
		trigger = {
			garpix_tluukt_area = {
				country_or_non_sovereign_subject_holds = ROOT
				type = all
			}
			grixekyr_area = {
				country_or_non_sovereign_subject_holds = ROOT
				type = all
			}
			sur_mountains_area = {
				country_or_non_sovereign_subject_holds = ROOT
				type = all
			}
			691 = {
				country_or_non_sovereign_subject_holds = ROOT
			}
		}
		
		effect = {
			add_country_modifier = {
				name = karashar_tluukt_purged
				duration = 14600
			}
		}
	}
	
	karashar_karashari_empire = {
		icon = mission_persianate_empire
		required_missions = {
			karashar_conquer_crathanor
			karashar_purge_tluukt
			karashar_eliminate_dwarven_threat
			karashar_invade_bulwar
		}
		position = 6
		
		provinces_to_highlight = {
			superregion = bulwar_superregion
			NOT = { country_or_non_sovereign_subject_holds = ROOT }
			NOT = {
				ROOT = {
					num_of_provinces_owned_or_owned_by_non_sovereign_subjects_with = {
						superregion = bulwar_superregion
						value = 80
					}
				}
			}
		}
		
		trigger = {
			num_of_provinces_owned_or_owned_by_non_sovereign_subjects_with = {
				superregion = bulwar_superregion
				value = 80
			}
			calc_true_if = {
				all_subject_country = {
					culture_group = bulwari
					religion = old_bulwari_sun_cult
					vassal_of = ROOT
				}
				amount = 5
			}
		}
		
		effect = {
			bulwar_superregion = {
				if = { 
					limit = {
						NOT = { country_or_non_sovereign_subject_holds  = ROOT }
						NOT = { is_permanent_claim = ROOT }
					}
					add_permanent_claim = ROOT
				}
			}
			elizna_area = {
				add_permanent_claim = ROOT
			}
			ibtat_axast_area = {
				add_permanent_claim = ROOT
			}
			awaashesh_area = {
				add_permanent_claim = ROOT
			}
			masusopot_area = {
				add_permanent_claim = ROOT
			}
			add_country_modifier = {
				name = karashar_empire_modifier
				duration = 18250
			}
		}
	}
	
	karashar_finish_last_pretenders = {
		icon = mission_invade_island
		required_missions = {
			karashar_karashari_empire
		}
		position = 7
		
		provinces_to_highlight = {
			OR = {
				owned_by = U05
				AND = {
					OR = {
						area = elizna_area
						area = ibtat_axast_area
						area = awaashesh_area
						area = masusopot_area
					}
					NOT = { country_or_non_sovereign_subject_holds = ROOT }
				}
			}
		}
		
		trigger = {
			NOT = { exists = U05 }
			elizna_area = {
				country_or_non_sovereign_subject_holds = ROOT
				type = all
			}
			ibtat_axast_area = {
				country_or_non_sovereign_subject_holds = ROOT
				type = all
			}
			awaashesh_area = {
				country_or_non_sovereign_subject_holds = ROOT
				type = all
			}
			masusopot_area = {
				country_or_non_sovereign_subject_holds = ROOT
				type = all
			}
		}
		
		effect = {
			salahad_superregion = {
				if = { 
					limit = {
						NOT = { country_or_non_sovereign_subject_holds = ROOT }
						NOT = { is_permanent_claim = ROOT }
						is_city = yes
					}
					add_permanent_claim = ROOT
				}
			}
			add_country_modifier = {
				name = karashar_last_pretenders_finished
				duration = 18250
			}
		}
	}
	
	karashar_beyond_bulwar = {
		icon = mission_egyptian_mamluk_soldier
		required_missions = {
			karashar_finish_last_pretenders
		}
		position = 8
		
		provinces_to_highlight = {
			superregion = salahad_superregion
			NOT = { country_or_non_sovereign_subject_holds = ROOT }
			is_city = yes
		}
		
		trigger = {
			salahad_superregion = {
				OR = {
					country_or_non_sovereign_subject_holds = ROOT
					is_city = no
				}
				type = all
			}
		}
		
		effect = {
			add_power_projection = {
				type = mission_rewards_power_projection
				amount = 25
			}
			add_adm_power = 200
			add_dip_power = 200
			add_mil_power = 200
		}
	}
	
	karashar_the_forgiveness = {
		icon = mission_reliable_allies
		required_missions = {
			karashar_black_sun_arises
			karashar_granary_of_sarhal
			karashar_beyond_bulwar
			karashar_return_valleys_to_humans
			karashar_silver_age_of_bulwar
		}
		position = 9
		
		provinces_to_highlight = {
			superregion = bulwar_superregion
			OR = {
				NOT = { country_or_non_sovereign_subject_holds = ROOT }
				is_prosperous = no
			}
		}
		
		trigger = {
			stability = 3
			custom_trigger_tooltip = {
				tooltip = karashar_the_forgiveness_tooltip
				num_of_provinces_owned_or_owned_by_non_sovereign_subjects_with = {
					superregion = bulwar_superregion
					country_or_non_sovereign_subject_holds = ROOT
					is_prosperous = yes
					value = 80
				}
			}
		}
		
		effect = {
			add_country_modifier = {
				name = karashar_the_forgiveness_modifier
				duration = -1
			}
		}
	}
}

karashar_far_salahad = {
	slot = 4
	generic = no
	ai = yes
	potential = {
		tag = Z57
	}
	has_country_shield = yes
	
	karashar_employ_bulwari_wise_men = {
		icon = mission_indian_stateman
		required_missions = { }
		position = 1
		
		trigger = {
			custom_trigger_tooltip = {
				tooltip = karashar_bulwari_osc_advisor_tt
				OR = {
					employed_advisor = {
						culture = bahari
						religion = old_bulwari_sun_cult
					}
					employed_advisor = {
						culture = gelkar
						religion = old_bulwari_sun_cult
					}
					employed_advisor = {
						culture = brasanni
						religion = old_bulwari_sun_cult
					}
					employed_advisor = {
						culture = surani
						religion = old_bulwari_sun_cult
					}
					employed_advisor = {
						culture = zanite
						religion = old_bulwari_sun_cult
					}
					employed_advisor = {
						culture = maqeti
						religion = old_bulwari_sun_cult
					}
					employed_advisor = {
						culture = sadnatu
						religion = old_bulwari_sun_cult
					}
					employed_advisor = {
						culture = masnsih
						religion = old_bulwari_sun_cult
					}
				}
			}
		}
		
		effect = {
			add_adm_power = 200
			azka_sur_area = {
				add_permanent_claim = ROOT
			}
			grixek_area = {
				add_permanent_claim = ROOT
			}
			jikarzax_area = {
				add_permanent_claim = ROOT
			}
			
		}
	}
	
	karashar_liberate_azka_sur = {
		icon = the_latin_empire
		required_missions = {
			karashar_employ_bulwari_wise_men
		}
		position = 2
		
		provinces_to_highlight = {
			OR = {
				area = azka_sur_area
				area = grixek_area
				area = jikarzax_area
			}
			NOT = { country_or_non_sovereign_subject_holds = ROOT }
		}
		
		trigger = {
			azka_sur_area = {
				country_or_non_sovereign_subject_holds = ROOT
				type = all
			}
			grixek_area = {
				country_or_non_sovereign_subject_holds = ROOT
				type = all
			}
			jikarzax_area = {
				country_or_non_sovereign_subject_holds = ROOT
				type = all
			}
		}
		
		effect = {
			add_prestige = 15
			add_dip_power = 100
			xhurgrum_area = {
				add_permanent_claim = ROOT
			}
			harpys_gate_area = {
				add_permanent_claim = ROOT
			}
			saranza_area = {
				add_permanent_claim = ROOT
			}
			keruhar_area = {
				add_permanent_claim = ROOT
			}
			if = {
				limit = {
					643 = {
						NOT = { has_province_flag = karashar_city }
					}
				}
				643 = { #azka-Sur
					change_culture = surani
				}
			}
		}
	}
	
	karashar_secure_desert_roads = {
		icon = mission_traverse_the_sahara
		required_missions = {
			karashar_liberate_azka_sur
		}
		position = 3
		
		provinces_to_highlight = {
			OR = {
				area = xhurgrum_area
				area = harpys_gate_area
				area = saranza_area
				area = keruhar_area
			}
			NOT = { country_or_non_sovereign_subject_holds = ROOT }
		}
		
		trigger = {
			xhurgrum_area = {
				country_or_non_sovereign_subject_holds = ROOT
				type = all
			}
			harpys_gate_area = {
				country_or_non_sovereign_subject_holds = ROOT
				type = all
			}
			saranza_area = {
				country_or_non_sovereign_subject_holds = ROOT
				type = all
			}
			keruhar_area = {
				country_or_non_sovereign_subject_holds = ROOT
				type = all
			}
		}
		
		effect = {
			far_salahad_region = {
				add_permanent_claim = ROOT
			}
			add_country_modifier = {
				name = karashar_deserd_roads_secured
				duration = 9125
			}
		}
	}
	
	karashar_conquer_far_salahad = {
		icon = mission_conquer_timbuktu
		required_missions = {
			karashar_secure_desert_roads
		}
		position = 4
		
		provinces_to_highlight = {
			OR = {
				AND = {
					region = far_salahad_region
					NOT = { country_or_non_sovereign_subject_holds = ROOT }
				}
				AND = {
					region = far_bulwar_region
					religion = the_jadd
				}
			}
		}
		
		trigger = {
			far_salahad_region = {
				country_or_non_sovereign_subject_holds = ROOT
				type = all
			}
			far_bulwar_region = {
				NOT = { religion = the_jadd }
				type = all
			}
		}
		
		effect = {
			add_prestige = 25
			add_mil_power = 200
			add_country_modifier = {
				name = karashar_conquer_far_salahad_modifier
				duration = 9125
			}
			if = { limit = { exists = F47 } #Verkal Gulan
				custom_tooltip = karashar_verkal_gulan_claims_tooltip
				hidden_effect = {
					F47 = {
						every_owned_province = {
							add_permanent_claim = ROOT
						}
					}
				}
			}
			else = {
				2914 = { #Verkal Gulan
					add_permanent_claim = ROOT
				}
			}
			if = { limit = { exists = H78 } #Seghdihr
				custom_tooltip = karashar_seghdihr_claims_tooltip
				hidden_effect = {
					H78 = {
						every_owned_province = {
							add_permanent_claim = ROOT
						}
					}
				}
			}
			else = {
				4124 = { #Seghdihr
					add_permanent_claim = ROOT
				}
			}
		}
	}
	
	karashar_eliminate_dwarven_threat = {
		icon = alpine_defenses
		required_missions = {
			karashar_conquer_far_salahad
		}
		position = 5
		
		provinces_to_highlight = {
			OR = {
				owned_by = F47
				owned_by = H78
			}
			has_discovered = ROOT
		}
		
		trigger = {
			NOT = { exists = F47 }
			NOT = { exists = H78 }
		}
		
		effect = {
			add_adm_power = 100
			add_dip_power = 100
			add_mil_power = 100
			add_country_modifier = {
				name = karashar_dwarven_threat_eliminated
				duration = 14600
			}
			custom_tooltip = karashar_decolonize_dwarovar_tooltip
			hidden_effect = {
				every_owned_province = {
					limit = { continent = serpentspine }
					export_to_variable = {
						which = TotalDev
						value = development
					}
					ROOT = { change_variable = { which = TotalDev which = PREV } }
				}
			}
			hidden_effect = {
				every_owned_province = {
					limit = { continent = serpentspine }
					add_base_manpower = -20
					add_base_tax = -20
					add_base_production = -20
					remove_core = ROOT
					decolonize = yes
				}
				while = {
					limit = { check_variable = { TotalDev = 0 } }
					subtract_variable = { TotalDev = 1 }
					random_owned_province = {
						limit = { 
							trade_goods = grain
							superregion = bulwar_superregion
						}
						random_list = {
							25 = { add_base_tax = 1 }
							50 = { add_base_production = 1 }
							25 = { add_base_manpower = 1 }
						}
					}
				}
			}
		}
	}
	
	karashar_destroy_all_lies_and_hate = {
		icon = mission_fire_judgement
		required_missions = {
			karashar_karashari_empire
		}
		position = 7
		
		provinces_to_highlight = {
			superregion = bulwar_superregion
			NOT = { culture_is_human = yes }
			NOT = { culture_group = orcish }
		}
		
		trigger = {
			bulwar_superregion = {
				OR = {
					custom_trigger_tooltip = {
						tooltip = karashar_human_culture_tooltip
						culture_is_human = yes
					}
					culture_group = orcish
				}
				type = all
			}
		}
		
		effect = {
			add_country_modifier = {
				name = karashar_lies_and_hate_destroyed
				duration = 36500
			}
		}
	}
	
	karashar_return_valleys_to_humans = {
		icon = mission_levantine_restoration
		required_missions = {
			karashar_destroy_all_lies_and_hate
		}
		position = 8
		
		provinces_to_highlight = {
			superregion = bulwar_superregion
			OR = {
				has_terrain = grasslands
				has_terrain = farmlands
				has_terrain = drylands
				has_terrain = woods
				has_terrain = city_terrain
				has_terrain = marsh
			}
			NOT = { culture_is_human = yes }
		}
		
		trigger = {
			bulwar_superregion = {
				type = all
				OR = {
					custom_trigger_tooltip = {
						tooltip = karashar_human_culture_tooltip
						culture_is_human = yes
					}
					NOT = {
						has_terrain = grasslands
						has_terrain = farmlands
						has_terrain = drylands
						has_terrain = woods
						has_terrain = city_terrain
						has_terrain = marsh
					}
				}
			}
		}
		
		effect = {
			add_dip_power = 300
			add_country_modifier = {
				name = karashar_valleys_returned
				duration = 36500
			}
		}
	}
}

karashar_harpy_hills_and_bulwar = {
	slot = 5
	generic = no
	ai = yes
	potential = {
		tag = Z57
	}
	has_country_shield = yes
	
	karashar_settle_inner_conflicts = {
		icon = adjust_the_general_means
		required_missions = { }
		position = 1
		
		trigger = {
			stability = 1
		}
		
		effect = {
			upper_gelkali_area = {
				add_permanent_claim = ROOT
			}
			gelkalis_area = {
				add_permanent_claim = ROOT
			}
			harpylen_area = {
				add_permanent_claim = ROOT
			}
			frenyantlen_area = {
				add_permanent_claim = ROOT
			}
			invaders_pass_area = {
				add_permanent_claim = ROOT
			}
			nephevis_tears_area = {
				add_permanent_claim = ROOT
			}
			jorkad_lake_area = {
				add_permanent_claim = ROOT
			}
			add_country_modifier = {
				name = karashar_inner_conflicts_settled
				duration = 9125
			}
		}
	}
	
	karashar_push_harpies_out_of_bulwar = {
		icon = alpine_fortifications
		required_missions = {
			karashar_settle_inner_conflicts
		}
		position = 2
		
		provinces_to_highlight = {
			OR = {
				owned_by = F27
				AND = {
					OR = {
						area = invaders_pass_area
						area = frenyantlen_area
						area = harpylen_area
						area = jorkad_lake_area
					}
					NOT = { country_or_non_sovereign_subject_holds = ROOT }
				}
			}
		}
		
		trigger = {
			NOT = { exists = F27 } #Harpylen
			invaders_pass_area = {
				country_or_non_sovereign_subject_holds = ROOT
				type = all
			}
			frenyantlen_area = {
				country_or_non_sovereign_subject_holds = ROOT
				type = all
			}
			OR = {
				harpylen_area = {
					country_or_non_sovereign_subject_holds = ROOT
					type = all
				}
				jorkad_lake_area = {
					country_or_non_sovereign_subject_holds = ROOT
					type = all
				}
			}
		}
		
		effect = {
			add_power_projection = {
				type = mission_rewards_power_projection
				amount = 15
			}
		}
	}
	
	karashar_liberate_gelkalis = {
		icon = mission_rb_conquer_wales
		required_missions = {
			karashar_push_harpies_out_of_bulwar
		}
		position = 3
		
		provinces_to_highlight = {
			OR = {
				area = upper_gelkali_area
				area = gelkalis_area
			}
			NOT = { owned_by = ROOT }
			NOT = {
				AND = {
					owned_by = F26
					F26 = { vassal_of = ROOT }
				}
			}
		}
		
		trigger = {
			OR = {
				AND = {
					upper_gelkali_area = {
						owned_by = ROOT
						type = all
					}
					gelkalis_area = {
						owned_by = ROOT
						type = all
					}
					accepted_culture = gelkar
				}
				AND = {
					upper_gelkali_area = {
						owned_by = F26
						type = all
					}
					gelkalis_area = {
						owned_by = F26
						type = all
					}
					F26 = { vassal_of = ROOT } #Gelkalis
				}
			}
		}
		
		effect = {
			traz_buranun_area = {
				add_permanent_claim = ROOT
			}
			north_naza_area = {
				add_permanent_claim = ROOT
			}
			add_country_modifier = {
				name = karashar_gelkalis_liberated
				duration = 9125
			}
		}
	}
	
	karashar_conquer_varamhar = {
		icon = mission_conquer_andhra_vij
		required_missions = {
			karashar_liberate_gelkalis
		}
		position = 4
		
		provinces_to_highlight = {
			OR = {
				area = traz_buranun_area
				area = north_naza_area
			}
			NOT = { country_or_non_sovereign_subject_holds = ROOT }
		}
		
		trigger = {
			traz_buranun_area = {
				country_or_non_sovereign_subject_holds = ROOT
				type = all
			}
			north_naza_area = {
				country_or_non_sovereign_subject_holds = ROOT
				type = all
			}
		}
		
		effect = {
			bulwar_area = {
				add_permanent_claim = ROOT
			}
			add_country_modifier = {
				name = karashar_varamhar_conquered
				duration = 9125
			}
		}
	}
	
	karashar_invade_bulwar = {
		icon = mission_city_of_the_world's_desire
		required_missions = {
			karashar_conquer_varamhar
		}
		position = 5
		
		provinces_to_highlight = {
			area = bulwar_area
			NOT = { country_or_non_sovereign_subject_holds = ROOT }
		}
		
		trigger = {
			bulwar_area = {
				country_or_non_sovereign_subject_holds = ROOT
				type = all
			}
		}
		
		effect = {
			add_country_modifier = {
				name = karashar_bulwar_invaded
				duration = 9125
			}
		}
	}
	
	karashar_gates_of_bulwar = {
		icon = mission_arabian_fort
		required_missions = {
			karashar_karashari_empire
		}
		position = 7
		
		provinces_to_highlight = {
			OR = {
				area = invaders_pass_area
				area = crathanor_area
				area = keruhar_area
				area = arrtukerr_area
				area = salahimil_area
				area = jorkad_lake_area
				area = mulen_pass_area
			}
			NOT = { country_or_non_sovereign_subject_holds = ROOT }
		}
		
		trigger = {
			invaders_pass_area = {
				country_or_non_sovereign_subject_holds = ROOT
				type = all
			}
			crathanor_area = {
				country_or_non_sovereign_subject_holds = ROOT
				type = all
			}
			keruhar_area = {
				country_or_non_sovereign_subject_holds = ROOT
				type = all
			}
			arrtukerr_area = {
				country_or_non_sovereign_subject_holds = ROOT
				type = all
			}
			salahimil_area = {
				country_or_non_sovereign_subject_holds = ROOT
				type = all
			}
			jorkad_lake_area = {
				country_or_non_sovereign_subject_holds = ROOT
				type = all
			}
			mulen_pass_area = {
				country_or_non_sovereign_subject_holds = ROOT
				type = all
			}
			invaders_pass_area = {
				fort_level = 2
			}
			crathanor_area = {
				fort_level = 2
			}
			keruhar_area = {
				fort_level = 2
			}
			arrtukerr_area = {
				fort_level = 2
			}
			salahimil_area = {
				fort_level = 2
			}
			jorkad_lake_area = {
				fort_level = 2
			}
			mulen_pass_area = {
				fort_level = 2
			}
		}
		
		effect = {
			every_province = {
				limit = {
					OR = {
						area = invaders_pass_area
						area = crathanor_area
						area = keruhar_area
						area = arrtukerr_area
						area = salahimil_area
						area = jorkad_lake_area
						area = mulen_pass_area
					}
					fort_level = 2
				}
				add_province_modifier = {
					name = karashar_gates_of_bulwar_modifer
					duration = 36500
				}
			}
		}
	}
	
	
	karashar_silver_age_of_bulwar = {
		icon = mission_guarded_market
		required_missions = { }
		position = 8
		
		provinces_to_highlight = {
			OR = {
				province_id = 565 #Brasan
				province_id = 601 #Bulwar
				province_id = 536 #Aqatbar
				province_id = 613 #Azkabar
				province_id = 561 #Medurubar
			}
			NOT = { development = 40 }
		}
		
		trigger = {
			565 = { development = 40 }
			601 = { development = 40 }
			536 = { development = 40 }
			613 = { development = 40 }
			561 = { development = 40 }
		}
		
		effect = {
			add_country_modifier = {
				name = karashar_silver_age_of_bulwar_modifier
				duration = 18250
			}
		}
	}
}
