
J33_1 = {
	slot = 1
	generic = no
	ai = yes
	has_country_shield = yes
	potential = {
		tag = J33
	}
	
	J33_setup_the_fur_trade = {
		icon = mission_amur_acquisition
		required_missions = { 
			J33_a_stable_island
		}
		position = 2
		
		provinces_to_highlight = {
			region = yyl_moista_region
		}
		
		trigger = {
			num_of_owned_provinces_with = {
				value = 3
				trade_goods = fur
				region = yyl_moista_region
			}
		}
		
		effect = {
			add_country_modifier = {
				name = federation_fur_trade
				duration = 36500
			}
		}
	}
	
	J33_haven_of_peace = {
		icon = scramble_for_africa
		required_missions = { 
			J33_setup_the_fur_trade
		}
		position = 3
		
		provinces_to_highlight = {
			province_group = lake_shore

			NOT = { owned_by = ROOT }
		}
		
		trigger = {
			lake_shore = {
				type = all
				owned_by = ROOT
				custom_trigger_tooltip = {
					tooltip = province_is_prosperous
					is_prosperous = yes
				}
			}
		}
		
		effect = {
			lake_shore = {
				add_prosperity = 20
				add_base_tax = 1
				add_base_manpower = 1
			}
			add_stability_or_adm_power = yes
		}
	}
	
	J33_trade_hub = {
		icon = promote_urbanization
		required_missions = { 
			J33_haven_of_peace
		}
		position = 4
		
		provinces_to_highlight = {
			province_group = lake_shore

			NOT = { development = 10 }
		}
		
		trigger = {
			lake_shore = {
				type = all
				development = 10
			}
		}
		
		effect = {
			5110 = {
				if = {
					limit = { province_has_center_of_trade_of_level = 3 }
					add_base_tax = 3
					add_base_manpower = 3
					add_base_production = 3
				}
				else = {
					add_center_of_trade_level = 1
				}
			}
		}
	}
}

J33_2 = {
	slot = 2
	generic = no
	ai = yes
	has_country_shield = yes
	potential = {
		tag = J33
	}
	
	J33_a_stable_island = {
		icon = defend_the_city
		required_missions = { 
		}
		position = 1
		
		provinces_to_highlight = {
			OR = {
				region = southern_isles_region
				region = northern_isles_region
			}
			NOT = { owned_by = ROOT }
		}
		
		trigger = {
			if = {
				limit = { ai = no }
				stability = 3
			}
			southern_isles_region = {
				type = all
				owned_by = ROOT
			}
			northern_isles_region = {
				type = all
				owned_by = ROOT
			}
		}
		
		effect = {
			add_years_of_income = 1
			add_country_modifier = {
				name = federation_a_stable_island
				duration = 18250
			}
		}
	}
	
	J33_a_prosperous_federation = {
		icon = the_alpine_wall
		required_missions = { 
			J33_a_stable_island
		}
		position = 2
		
		provinces_to_highlight = {
			OR = {
				region = southern_isles_region
				region = northern_isles_region
			}
			NOT = { is_prosperous = yes }
		}
		
		trigger = {
			if = {
				limit = { ai = no }
				stability = 3
			}
			num_of_owned_provinces_with = {
				value = 60
				OR = {
					region = southern_isles_region
					region = northern_isles_region
				}
				custom_trigger_tooltip = {
					tooltip = province_is_prosperous
					is_prosperous = yes
				}
			}
		}
		
		effect = {
			add_years_of_income = 1
			add_country_modifier = {
				name = federation_a_prosperous_federation
				duration = 18250
			}
		}
	}
	
	J33_establishing_contact = {
		icon = republican_yearnings
		required_missions = { 
			J33_a_prosperous_federation
		}
		position = 3
		
		provinces_to_highlight = {
			
		}
		
		trigger = {
			calc_true_if = {
				all_known_country = {
					NOT = { capital_scope = { superregion = forbidden_lands_superregion } }
					has_opinion = {
						who = ROOT
						value = 150
					}
				}
				amount = 2
			}
		}
		
		effect = {
			add_country_modifier = {
				name = federation_establishing_contact
				duration = 18250
			}
		}
	}
	
	J33_sustaining_the_nation = {
		icon = chater_the_voc
		required_missions = { 
			J33_establishing_contact
		}
		position = 4
		
		provinces_to_highlight = {
			
		}
		
		trigger = {
			current_income_balance = 350
		}
		
		effect = {
			add_country_modifier = {
				name = federation_sustaining_the_nation
				duration = 18250
			}
		}
	}
	
	J33_the_trading_crescent = {
		icon = invest_in_the_rich_trades
		required_missions = { 
			J33_sustaining_the_nation
		}
		position = 5
		
		provinces_to_highlight = {
			province_group = triunic_crescent
			
			NOT = { owned_by = ROOT }
		}
		
		trigger = {
			triunic_crescent = {
				type = all
				owned_by = ROOT
			}
		}
		
		effect = {
			add_country_modifier = {
				name = federation_the_trading_crescent
				duration = -1
			}
		}
	}
}

J33_3 = {
	slot = 3
	generic = no
	ai = yes
	has_country_shield = yes
	potential = {
		tag = J33
	}
	
	J33_between_sea_and_mountain = {
		icon = secure_dejima
		required_missions = { 
			J33_a_stable_island
		}
		position = 2
		
		provinces_to_highlight = {
			region = nuzurbokh_region
			
			NOT = { owned_by = ROOT }
		}
		
		trigger = {
			nuzurbokh_region = {
				type = all
				owned_by = ROOT
			}
		}
		
		effect = {
			add_years_of_income = 1
			add_prestige = 20
		}
	}
	
	J33_administratif_center = {
		icon = appease_the_estates
		required_missions = { 
			J33_between_sea_and_mountain
		}
		position = 3
		
		provinces_to_highlight = {
			province_id = 5202
		}
		
		trigger = {
			5202 = {
				owned_by = ROOT
				development = 20
			}
		}
		
		effect = {
			add_prestige = 10
			5202 = {
				if = {
					limit = { province_has_center_of_trade_of_level = 3 }
					add_base_tax = 3
					add_base_manpower = 3
					add_base_production = 3
				}
				else = {
					add_center_of_trade_level = 1
				}
			}
		}
	}
	
	J33_haless_missions = {
		icon = king_of_the_franks
		required_missions = { 
			J33_administratif_center
		}
		position = 4
		
		provinces_to_highlight = {
		}
		
		trigger = {
			always = no
		}
		
		effect = {
		}
	}
}

J33_4_GUNS = {
	slot = 4
	generic = no
	ai = yes
	has_country_shield = yes
	potential = {
		tag = J33
		has_country_modifier = guns_of_the_lake
	}
	
	J33_the_means = {
		icon = industrialized_rhineland
		required_missions = { 
			J33_the_9th_amendment
		}
		position = 2
		
		provinces_to_highlight = {
		}
		
		trigger = {
			has_institution = manufactories
			years_of_income = 1.5
		}
		
		effect = {
			add_years_of_income = -1.5
			add_country_modifier = {
				name = federation_the_means
				duration = 9125
			}
		}
	}
	
	J33_guns_foundry = {
		icon = mission_rb_prospect_for_coal
		required_missions = { 
			J33_the_means
		}
		position = 3
		
		provinces_to_highlight = {
			OR = { 
				region = southern_isles_region
				region = northern_isles_region
			}
			OR = {
				trade_goods = copper
				trade_goods = iron
			}
			
			NOT = { has_manufactory_trigger = yes }
		}
		
		trigger = {
			custom_trigger_tooltip = {
				tooltip = guns_foundry_tooltip
				southern_isles_region = {
					type = all
					if = {
						limit = {
							OR = {
								trade_goods = copper
								trade_goods = iron
							}
						}
						has_manufactory_trigger = yes
					}
				}
				northern_isles_region = {
					type = all
					if = {
						limit = {
							OR = {
								trade_goods = copper
								trade_goods = iron
							}
						}
						has_manufactory_trigger = yes
					}
				}
			}
		}
		
		effect = {
			every_owned_province = {
				limit = {
					OR = {
						region = southern_isles_region
						region = northern_isles_region
					}
					OR = {
						trade_goods = copper
						trade_goods = iron
					}
				}
				add_permanent_province_modifier = {
					name = federation_guns_foundry
					duration = -1
				}
			}
			hidden_effect = { set_country_flag = federation_guns_foundry }
		}
	}
	
	J33_guns_culture = {
		icon = polish_subjects
		required_missions = { 
			J33_guns_foundry
		}
		position = 4
		
		provinces_to_highlight = {
			
		}
		
		trigger = {
			custom_trigger_tooltip = {
				tooltip = federation_guns_culture_tooltip
				had_country_flag = {
					flag = federation_guns_foundry
					days = 7300
				}
			}
			dip_power = 300
		}
		
		effect = {
			add_dip_power = -300
			remove_country_modifier = federation_9th_amendment_1
			add_country_modifier = {
				name = federation_9th_amendment_2
				duration = -1
			}
		}
	}
	
	J33_guns_tournament = {
		icon = trade_with_the_natives
		required_missions = { 
			J33_guns_culture
		}
		position = 5
		
		provinces_to_highlight = {
			
		}
		
		trigger = {
			adm_power = 300
			dip_power = 300
			mil_power = 300
		}
		
		effect = {
			add_dip_power = -300
			add_mil_power = -300
			add_adm_power = -300
			custom_tooltip = guns_tournament_tooltip
			hidden_effect = { set_country_flag = federation_guns_tournament }
		}
	}
	
	J33_state_of_the_art_gunsmithery = {
		icon = reform_the_monte
		required_missions = { 
			J33_guns_tournament
		}
		position = 6
		
		provinces_to_highlight = {
			OR = {
				trade_goods = coal
				has_latent_trade_goods = coal
			}
		}
		
		trigger = {
			coal = 3
			mil_power = 350
		}
		
		effect = {
			add_mil_power = -350
			remove_country_modifier = federation_9th_amendment_2
			add_country_modifier = {
				name = federation_9th_amendment_3
				duration = -1
			}
		}
	}
	
	J33_black_bullet = {
		icon = confront_the_lombards
		required_missions = { 
			J33_state_of_the_art_gunsmithery
		}
		position = 6
		
		provinces_to_highlight = {
			trade_goods = damestear
			owned_by = ROOT
		}
		
		trigger = {
			any_owned_province = {
				trade_goods = damestear
				has_manufactory_trigger = yes
			}
			is_year = 1750
		}
		
		effect = {
			add_country_modifier = {
				name = federation_black_bullet
				duration = -1
			}
		}
	}
}

J33_5_GUNS = {
	slot = 5
	generic = no
	ai = yes
	has_country_shield = yes
	potential = {
		tag = J33
		has_country_modifier = guns_of_the_lake
	}
	
	J33_the_9th_amendment = {
		icon = medici_bank_ledgers
		required_missions = { 
			
		}
		position = 1
		
		provinces_to_highlight = {
		}
		
		trigger = {
			mil_power = 500
			adm_power = 150
		}
		
		effect = {
			add_mil_power = -500
			add_adm_power = -150
			add_country_modifier = {
				name = federation_9th_amendment_1
				duration = -1
			}
		}
	}
	
	J33_the_ends = {
		icon = mission_unite_the_deccan
		required_missions = { 
			J33_the_9th_amendment
		}
		position = 2
		
		provinces_to_highlight = {
		}
		
		trigger = {
			has_professionalism_equivalent = { VAL=0.5 }
		}
		
		effect = {
			define_advisor = {
				skill = 3
				type = commandant
				discount = yes
			}
		}
	}
	
	J33_blue_drill = {
		icon = the_spanish_succession
		required_missions = { 
			J33_the_ends
		}
		position = 3
		
		provinces_to_highlight = {
		}
		
		trigger = {
			has_professionalism_equivalent = { VAL=0.75 }
		}
		
		effect = {
			add_country_modifier = {
				name = federation_blue_drill
				duration = -1
			}
		}
	}
	
	J33_the_BFC = {
		icon = mission_cannons_firing
		required_missions = { 
			J33_blue_drill
		}
		position = 4
		
		provinces_to_highlight = {
		}
		
		trigger = {
			mil_tech = 16
			if = {
				limit = { has_dlc = "Rule Britannia" }
				OR = {
					innovativeness = 20
					mil_power = 500
				}
			}
			else = {
				mil_power = 350
			}
		}
		
		effect = {
			if = {
				limit = { has_dlc = "Rule Britannia" }
				if = {
					limit = { NOT = { innovativeness = 20 } }
					add_mil_power = -500
				}
			}
			else = {
				add_mil_power = -350
			}
			add_country_modifier = {
				name = federation_the_bfc
				duration = -1
			}
		}
	}
	
	J33_the_442nd = {
		icon = mission_go_for_broke
		required_missions = { 
			J33_the_BFC
			J33_guns_culture
		}
		position = 5
		
		provinces_to_highlight = {
		}
		
		trigger = {
			mil_power = 300
			any_enemy_country = {
				military_strength = {
					who = ROOT
					value = 1.1
				}
			}
		}
		
		effect = {
			add_mil_power = -300
			unlock_merc_company = {
				merc_company = merc_442nd
				free_merc = yes
			}
		}
	}
	
	J33_the_blue_star_of_honor = {
		icon = a_center_of_religion
		required_missions = { 
			J33_guns_tournament
		}
		position = 6
		
		provinces_to_highlight = {
		}
		
		trigger = {
			has_professionalism_equivalent = { VAL=0.95 }
			mil_power = 150
			adm_power = 150
		}
		
		effect = {
			add_mil_power = -150
			add_adm_power = -150
			add_country_modifier = {
				name = federation_the_blue_star_of_honor
				duration = -1
			}
		}
	}
	
	J33_a_floating_gun = {
		icon = mission_rb_scottish_north_sea_trade
		required_missions = { 
			J33_the_blue_star_of_honor
			J33_state_of_the_art_gunsmithery
		}
		position = 7
		
		provinces_to_highlight = {
		}
		
		trigger = {
			num_of_heavy_ship = 50
		}
		
		effect = {
			custom_tooltip = a_floating_gun_tooltip
			hidden_effect = { set_country_flag = a_floating_gun }
		}
	}
}

J33_4_SOLDIER = {
	slot = 4
	generic = no
	ai = yes
	has_country_shield = yes
	potential = {
		tag = J33
		has_country_modifier = soldiers_of_the_lake
	}
	
	J33_refit_the_navy = {
		icon = mission_rb_a_mighty_fleet
		required_missions = { 
			
		}
		position = 1
		
		provinces_to_highlight = {
		}
		
		trigger = {
			heavy_ship_fraction = 0.33
		}
		
		effect = {
			define_advisor = {
				type = naval_reformer
				skill = 3
				discount = yes
			}
		}
	}
	
	J33_creating_the_military_council = {
		icon = all_bases_covered
		required_missions = { 
			J33_refit_the_navy
		}
		position = 2
		
		provinces_to_highlight = {
		}
		
		trigger = {
			mil_power = 350
			government = republic
		}
		
		effect = {
			add_mil_power = -350
			add_government_reform = military_council_reform
		}
	}
	
	J33_to_serve_and_protect = {
		icon = military_self_reliance
		required_missions = { 
			J33_creating_the_military_council
			J33_leading_by_examples
		}
		position = 3
		
		provinces_to_highlight = {
		}
		
		trigger = {
			if = {
				limit = { ai = no }
				stability = 3
			}
			OR = {
				has_professionalism_equivalent = { VAL=0.7 }
				mil_power = 350
			}
		}
		
		effect = {
			if = {
				limit = { NOT = { has_professionalism_equivalent = { VAL=0.7 } } }
				add_mil_power = -350
			}
			add_country_modifier = {
				name = federation_to_serve_and_protect
				duration = -1
			}
		}
	}
	
	J33_strategical_readyness = {
		icon = alpine_fortifications
		required_missions = { 
			J33_to_serve_and_protect
		}
		position = 4
		
		provinces_to_highlight = {
		}
		
		trigger = {
			OR = {
				barracks = 20
				training_fields = 20
			}
		}
		
		effect = {
			add_country_modifier = {
				name = federation_strategical_readyness
				duration = -1
			}
		}
	}
	
	J33_tactical_readyness = {
		icon = king_of_poland
		required_missions = { 
			J33_strategical_readyness
		}
		position = 5
		
		provinces_to_highlight = {
		}
		
		trigger = {
			num_of_generals = 5
			mil_tech = 24
		}
		
		effect = {
			add_country_modifier = {
				name = federation_tactical_readyness
				duration = -1
			}
		}
	}
	
	J33_the_kukaein = {
		icon = la_marseillaise
		required_missions = { 
			J33_tactical_readyness
		}
		position = 6
		
		provinces_to_highlight = {
		}
		
		trigger = {
			has_global_modifier_value = {
				which = land_morale
				value = 0.6
			}
			mil_power = 150
			adm_power = 150
			dip_power = 150
		}
		
		effect = {
			add_mil_power = -150
			add_adm_power = -150
			add_dip_power = -150
			add_country_modifier = {
				name = federation_the_kukaein
				duration = -1
			}
		}
	}
	
	J33_center_peel_unit = {
		icon = army_reforms
		required_missions = { 
			J33_the_kukaein
		}
		position = 7
		
		provinces_to_highlight = {
		}
		
		trigger = {
			mil_tech = 26
			mil_power = 200
		}
		
		effect = {
			add_mil_power = -200
			custom_tooltip = center_peel_tooltip
			hidden_effect = { set_country_flag = center_peel_unit }
		}
	}
}

J33_5_SOLDIER = {
	slot = 5
	generic = no
	ai = yes
	has_country_shield = yes
	potential = {
		tag = J33
		has_country_modifier = soldiers_of_the_lake
	}
	
	J33_reshape_the_army = {
		icon = expand_the_swiss_guard
		required_missions = { 
			
		}
		position = 1
		
		provinces_to_highlight = {
		}
		
		trigger = {
			has_professionalism_equivalent = { VAL=0.5 }
		}
		
		effect = {
			define_advisor = {
				type = army_reformer
				skill = 3
				discount = yes
			}
		}
	}
	
	J33_leading_by_examples = {
		icon = end_the_habsburgs
		required_missions = { 
			J33_reshape_the_army
			J33_refit_the_navy
		}
		position = 2
		
		provinces_to_highlight = {
		}
		
		trigger = {
			has_global_modifier_value = {
				which = land_morale
				value = 0.4
			}
			government = republic
			mil_power = 100
			adm_power = 100
		}
		
		effect = {
			add_mil_power = -100
			add_adm_power = -100
			add_country_modifier = {
				name = federation_the_unit_1
				duration = -1
			}
			add_government_reform = leading_by_example_reform
		}
	}
	
	J33_storming_the_plains = {
		icon = protect_against_austria
		required_missions = { 
			J33_leading_by_examples
		}
		position = 3
		
		provinces_to_highlight = {
		}
		
		trigger = {
			OR = {
				army_size_percentage = 0.9
				army_size = 200
			}
		}
		
		effect = {
			forbidden_lands_superregion = {
				limit = {
					NOT = { is_core = ROOT }
					NOT = { is_permanent_claim = ROOT }
				}
				add_permanent_claim = ROOT
			}
		}
	}
	
	J33_for_everything = {
		icon = mission_four_men
		required_missions = { 
			J33_storming_the_plains
		}
		position = 4
		
		provinces_to_highlight = {
		}
		
		trigger = {
			if = {
				limit = { any_known_country = { has_country_modifier = centaur_administration } }
				any_known_country = {
					has_country_modifier = centaur_administration
					ROOT = {
						is_in_war = {
							defender_leader = PREV
							attacker_leader = ROOT
							war_score = 99
						}
					}
				}
			}
			else = {
				always = yes
			}
		}
		
		effect = {
			if = {
				limit = { any_known_country = { has_country_modifier = centaur_administration } }
				random_known_country = {
					limit = {
						has_country_modifier = centaur_administration		
						ROOT = {
							is_in_war = {
								defender_leader = PREV
								attacker_leader = ROOT
								war_score = 99
							}
						}
					}
					custom_tooltip = for_everything_tooltip
					every_owned_province = {
						add_core = ROOT
						cede_province = ROOT
						add_devastation = 80
					}
				}
				add_prestige = 10
			}
			else = {
				add_prestige = 20
			}
			
			largest_decrease_of_centaur_tolerance_effect = yes
			add_country_modifier = { 
				name = racial_pop_centaur_purge
				duration = -1  
			}
			country_event = { id = racial_pop_events_centaur.14 }
		}
	}
	
	J33_wrong_door = {
		icon = mission_heated_battle
		required_missions = { 
			J33_for_everything
		}
		position = 5
		
		provinces_to_highlight = {
			OR = {
				region = west_forbidden_plains_region
				region = east_forbidden_plains_region
			}
			NOT = { owned_by = ROOT }
		}
		
		trigger = {
			west_forbidden_plains_region = {
				type = all
				owned_by = ROOT
			}
			east_forbidden_plains_region = {
				type = all
				owned_by = ROOT
			}
			has_country_modifier = racial_pop_centaur_purge
		}
		
		effect = {
			remove_country_modifier = federation_the_unit_1
			add_country_modifier = {
				name = federation_the_unit_2
				duration = -1
			}
		}
	}
	
	J33_wrong_neighbourhood = {
		icon = mission_hanged_tree
		required_missions = { 
			J33_wrong_door
		}
		position = 6
		
		provinces_to_highlight = {
			superregion = forbidden_lands_superregion
			has_any_centaur_pop_trigger = yes
		}
		
		trigger = {
			forbidden_lands_superregion = {
				type = all
				custom_trigger_tooltip = {
					tooltip = no_more_centaur_tooltip
					NOT = { has_any_centaur_pop_trigger = yes }
				}
			}
			has_country_modifier = racial_pop_centaur_purge
		}
		
		effect = {
			remove_country_modifier = federation_the_unit_2
			add_country_modifier = {
				name = federation_the_unit_3
				duration = -1
			}
			custom_tooltip = wrong_neighbourhood_tooltip
			hidden_effect = { set_country_flag = killing_all_the_centaur }
			largest_decrease_of_centaur_tolerance_effect = yes
		}
	}
	
	J33_wrong_planet = {
		icon = mission_head_on_spike
		required_missions = { 
			J33_wrong_neighbourhood
		}
		position = 7
		
		provinces_to_highlight = {
			has_any_centaur_pop_trigger = yes
		}
		
		trigger = {
			all_province = {
				custom_trigger_tooltip = {
					tooltip = no_more_centaur_tooltip
					NOT = { has_any_centaur_pop_trigger = yes }
				}
			}
			has_country_modifier = racial_pop_centaur_purge
		}
		
		effect = {
			remove_country_modifier = federation_the_unit_3
			add_country_modifier = {
				name = federation_the_unit_4
				duration = -1
			}
			largest_decrease_of_centaur_tolerance_effect = yes
		}
	}
}

J33_4_CHILDRENS = {
	slot = 4
	generic = no
	ai = yes
	has_country_shield = yes
	potential = {
		tag = J33
		has_country_modifier = childrens_of_the_lake
	}
	
	J33_great_urbanization = {
		icon = mission_city_prosperity
		required_missions = { 
			
		}
		position = 1
		
		provinces_to_highlight = {
		}
		
		trigger = {
			treasury = 5000
		}
		
		effect = {
			add_treasury = -5000
			add_country_modifier = {
				name = federation_urbanization_effort
				duration = -1
			}
		}
	}
	
	J33_no_one_left_behind = {
		icon = mission_tree_fishing
		required_missions = { 
			J33_great_urbanization
		}
		position = 2
		
		provinces_to_highlight = {
			OR = {
				region = southern_isles_region
				region = northern_isles_region
			}
			
			NOT = { development = 10 }
		}
		
		trigger = {
			southern_isles_region = {
				type = all
				owned_by = ROOT
				development = 10
			}
		}
		
		effect = {
			add_country_modifier = {
				name = federation_no_one_left_behind
				duration = 9125
			}
		}
	}
	
	J33_northern_childrens = {
		icon = mission_white_tower
		required_missions = { 
			J33_no_one_left_behind
		}
		position = 3
		
		provinces_to_highlight = {
			region = northern_isles_region
		}
		
		trigger = {
			development_in_provinces = {
				value = 600
				region = northern_isles_region
			}
			northern_isles_region = {
				type = all
				owned_by = ROOT
			}
		}
		
		effect = {
			add_stability_or_adm_power = yes
			add_prestige = 10
			add_country_modifier = {
				name = federation_northern_children
				duration = 7300
			}
		}
	}
	
	J33_the_breaking_point = {
		icon = mission_discussion_arch
		required_missions = { 
			J33_northern_childrens
			J33_southern_childrens
		}
		position = 4
		
		provinces_to_highlight = {
			OR = {
				region = northern_isles_region
				region = southern_isles_region
			}
		}
		
		trigger = {
			development_in_provinces = {
				value = 1500
				OR = {
					region = northern_isles_region
					region = southern_isles_region
				}
			}
			northern_isles_region = {
				type = all
				owned_by = ROOT
			}
			southern_isles_region = {
				type = all
				owned_by = ROOT
			}
		}
		
		effect = {
			add_stability_or_adm_power = yes
			add_prestige = 15
			add_country_modifier = {
				name = federation_the_breaking_point
				duration = 9125
			}
		}
	}
	
	J33_reaching_new_height = {
		icon = the_london_steelyard
		required_missions = { 
			J33_the_breaking_point
		}
		position = 5
		
		provinces_to_highlight = {
			OR = {
				province_id = 5149
				province_id = 5086
				province_id = 5129
				province_id = 5102
				province_id = 5110
				province_id = 5051
			}
			NOT = { owned_by = ROOT }
		}
		
		trigger = {
			owns = 5149
			owns = 5086
			owns = 5129
			owns = 5102
			owns = 5110
			owns = 5051
		}
		
		effect = {
			add_stability_or_adm_power = yes
			add_prestige = 10
			5149 = {
				add_permanent_province_modifier = {
					name = federation_pearl_city
					duration = -1
				}
			}
			5086 = {
				add_permanent_province_modifier = {
					name = federation_pearl_city
					duration = -1
				}
			}
			5129 = {
				add_permanent_province_modifier = {
					name = federation_pearl_city
					duration = -1
				}
			}
			5102 = {
				add_permanent_province_modifier = {
					name = federation_pearl_city
					duration = -1
				}
			}
			5110 = {
				add_permanent_province_modifier = {
					name = federation_pearl_city
					duration = -1
				}
			}
			5051 = {
				add_permanent_province_modifier = {
					name = federation_pearl_city
					duration = -1
				}
			}
		}
	}
	
	J33_touching_the_sky = {
		icon = the_great_city_of_buda
		required_missions = { 
			J33_reaching_new_height
		}
		position = 6
		
		provinces_to_highlight = {
			OR = {
				region = northern_isles_region
				region = southern_isles_region
			}
			has_port = yes
			province_has_center_of_trade_of_level = 1
		}
		
		trigger = {
			num_of_owned_provinces_with = {
				value = 9
				province_has_center_of_trade_of_level = 3
				has_port = yes
				OR = {
					region = northern_isles_region
					region = southern_isles_region
				}
			}
		}
		
		effect = {
			add_stability_or_adm_power = yes
			add_prestige = 10
			add_country_modifier = {
				name = federation_touching_the_sky
				duration = 18250
			}
		}
	}
}

J33_5_CHILDRENS = {
	slot = 5
	generic = no
	ai = yes
	has_country_shield = yes
	potential = {
		tag = J33
		has_country_modifier = childrens_of_the_lake
	}
	
	J33_city_council = {
		icon = dalmatian_conquest
		required_missions = { 
			
		}
		position = 1
		
		provinces_to_highlight = {
		}
		
		trigger = {
			adm_power = 450
		}
		
		effect = {
			add_adm_power = -450
			every_province = {
				limit = {
					owned_by = ROOT
					has_terrain = city_terrain
				}
				add_province_modifier = {
					name = federation_city_council
					duration = -1
				}
			}
		}
	}
	
	J33_state_council = {
		icon = alpine_defenses
		required_missions = { 
			J33_city_council
			J33_great_urbanization
		}
		position = 2
		
		provinces_to_highlight = {
		}
		
		trigger = {
			government = republic
			adm_tech = 18
			adm_power = 600
		}
		
		effect = {
			add_adm_power = -600
			# custom_tooltip = state_council_tooltip
			add_government_reform = state_council_reform
		}
	}
	
	J33_southern_childrens = {
		icon = renaissance_city
		required_missions = { 
			J33_no_one_left_behind
		}
		position = 3
		
		provinces_to_highlight = {
			region = southern_isles_region
		}
		
		trigger = {
			development_in_provinces = {
				value = 600
				region = southern_isles_region
			}
			southern_isles_region = {
				type = all
				owned_by = ROOT
			}
		}
		
		effect = {
			add_stability_or_adm_power = yes
			add_prestige = 10
			add_country_modifier = {
				name = federation_southern_children
				duration = 7300
			}
		}
	}
	
	J33_new_land_act = {
		icon = capture_adriatic_ports
		required_missions = { 
			J33_the_breaking_point
		}
		position = 5
		
		provinces_to_highlight = {
			OR = {
				province_id = 5163
				province_id = 5179
				province_id = 5193
				province_id = 5175
				province_id = 5217
				province_id = 5202
			}
			NOT = { owned_by = ROOT }
		}
		
		trigger = {
			owns = 5163
			owns = 5179
			owns = 5193
			owns = 5175
			owns = 5217
			owns = 5202
		}
		
		effect = {
			add_stability_or_adm_power = yes
			add_prestige = 10
			5163 = {
				add_permanent_province_modifier = {
					name = federation_pearl_city
					duration = -1
				}
			}
			5179 = {
				add_permanent_province_modifier = {
					name = federation_pearl_city
					duration = -1
				}
			}
			5193 = {
				add_permanent_province_modifier = {
					name = federation_pearl_city
					duration = -1
				}
			}
			5175 = {
				add_permanent_province_modifier = {
					name = federation_pearl_city
					duration = -1
				}
			}
			5217 = {
				add_permanent_province_modifier = {
					name = federation_pearl_city
					duration = -1
				}
			}
			5202 = {
				add_permanent_province_modifier = {
					name = federation_pearl_city
					duration = -1
				}
			}
		}
	}
	
	J33_the_triunic_road = {
		icon = prosper_in_piedmont
		required_missions = { 
			J33_new_land_act
		}
		position = 6
		
		provinces_to_highlight = {
		}
		
		trigger = {
			years_of_income = 1
		}
		
		effect = {
			custom_tooltip = the_triunic_road_tooltip
			add_years_of_income = -1
			hidden_effect = { set_country_flag = the_triunic_road }
		}
	}
	
	J33_eternal_prosperity = {
		icon = conquer_tuscany
		required_missions = { 
			J33_the_triunic_road
			J33_touching_the_sky
		}
		position = 7
		
		provinces_to_highlight = {
			OR = {
				region = southern_isles_region
				region = northern_isles_region
			}
			
			NOT = { is_prosperous = yes }
		}
		
		trigger = {
			northern_isles_region = {
				type = all
				custom_trigger_tooltip = {
					tooltip = province_is_prosperous
					is_prosperous = yes
				}
				owned_by = ROOT
			}
			southern_isles_region = {
				type = all
				custom_trigger_tooltip = {
					tooltip = province_is_prosperous
					is_prosperous = yes
				}
				owned_by = ROOT
			}
		}
		
		effect = {
			add_country_modifier = {
				name = federation_eternal_prosperity
				duration = -1
			}
		}
	}
}

J33_4_WORKERS = {
	slot = 4
	generic = no
	ai = yes
	has_country_shield = yes
	potential = {
		tag = J33
		has_country_modifier = workers_of_the_lake
	}
	
	J33_the_islanders_manifest = {
		icon = mission_establish_the_prikazy
		required_missions = { 
			
		}
		position = 1
		
		provinces_to_highlight = {
		}
		
		trigger = {
			adm_power = 250
			dip_power = 250
			mil_power = 250
		}
		
		effect = {
			add_adm_power = -250
			add_dip_power = -250
			add_mil_power = -250
			add_country_modifier = {
				name = federation_the_islanders_manifest
				duration = -1
			}
		}
	}
	
	J33_the_great_leap_forward = {
		icon = mission_state_manufactories
		required_missions = { 
			J33_the_islanders_manifest
		}
		position = 2
		
		provinces_to_highlight = {
		
		}
		
		trigger = {
			has_institution = manufactories
		}
		
		effect = {
			add_country_modifier = {
				name = federation_the_great_leap_forward
				duration = 18250
			}
		}
	}
	
	J33_the_textile_industry = {
		icon = mission_gujarati_textiles
		required_missions = { 
			J33_the_great_leap_forward
		}
		position = 3
		
		provinces_to_highlight = {
			OR = {
				trade_goods = wool
				trade_goods = fur
				trade_goods = cotton
				trade_goods = cloth
				trade_goods = silk
			}
			
			owned_by = ROOT
			NOT = { has_manufactory_trigger = yes }
		}
		
		trigger = {
			num_of_owned_provinces_with = {
				value = 10
				OR = {
					trade_goods = wool
					trade_goods = fur
					trade_goods = cotton
					trade_goods = cloth
					trade_goods = silk
				}
				has_manufactory_trigger = yes
			}
		}
		
		effect = {
			add_country_modifier = {
				name = federation_securized_industry_textile
				duration = -1
			}
		}
	}
	
	J33_the_metal_industry = {
		icon = mission_rb_central_belt_coal_mining
		required_missions = { 
			J33_the_textile_industry
		}
		position = 4
		
		provinces_to_highlight = {
			OR = {
				trade_goods = copper
				trade_goods = iron
				trade_goods = mithril
			}
			
			owned_by = ROOT
			NOT = { has_manufactory_trigger = yes }
		}
		
		trigger = {
			num_of_owned_provinces_with = {
				value = 10
				OR = {
					trade_goods = copper
					trade_goods = iron
					trade_goods = mithril
				}
				has_manufactory_trigger = yes
			}
		}
		
		effect = {
			add_country_modifier = {
				name = federation_securized_industry_metal
				duration = -1
			}
		}
	}
	
	J33_building_up_the_mainland = {
		icon = mission_rb_build_furnaces
		required_missions = { 
			J33_the_metal_industry
			J33_the_luxury_industry
		}
		position = 5
		
		provinces_to_highlight = {
		}
		
		trigger = {
			num_of_owned_provinces_with = {
				value = 50
				superregion = forbidden_lands_superregion
				NOT = {
					region = southern_isles_region
					region = northern_isles_region
				}
				has_manufactory_trigger = yes
			}
		}
		
		effect = {
			add_country_modifier = {
				name = federation_mainland_manufactories
				duration = -1
			}
		}
	}
	
	J33_the_black_hands = {
		icon = mission_rb_control_electors
		required_missions = { 
			J33_building_up_the_mainland
			J33_the_voices_of_the_people
		}
		position = 6
		
		provinces_to_highlight = {
			OR = {
				trade_goods = coal
				has_latent_trade_goods = coal
			}
			owned_by = ROOT
			NOT = { has_building = furnace }
		}
		
		trigger = {
			furnace = 5
		}
		
		effect = {
			add_country_modifier = {
				name = federation_the_black_hands
				duration = -1
			}
		}
	}
	
	J33_duty = {
		icon = mission_rb_seize_alexandria
		required_missions = { 
			J33_the_black_hands
		}
		position = 7
		
		provinces_to_highlight = {
			province_id = 5253
		}
		
		trigger = {
			mil_power = 350
			dip_power = 350
			adm_power = 350
			5253 = {
				owned_by = ROOT
				development = 40
			}
		}
		
		effect = {
			add_mil_power = -350
			add_dip_power = -350
			add_adm_power = -350
			custom_tooltip = federation_duty_tooltip
			hidden_effect = { set_country_flag = federation_duty }
		}
	}
}

J33_5_WORKERS = {
	slot = 5
	generic = no
	ai = yes
	has_country_shield = yes
	potential = {
		tag = J33
		has_country_modifier = workers_of_the_lake
	}
	
	J33_collectivize_the_banks = {
		icon = mission_rb_monopolize_the_channel
		required_missions = { 
			
		}
		position = 1
		
		provinces_to_highlight = {
		}
		
		trigger = {
			treasury = 5000
			adm_power = 365
		}
		
		effect = {
			add_adm_power = -350
			every_owned_province = {
				limit = {
					OR = {
						has_province_modifier = lake_local_bank
						has_province_modifier = federation_central_bank
					}
				}
				remove_province_modifier = lake_local_bank
				remove_province_modifier = federation_central_bank
			}
			add_country_modifier = {
				name = federation_national_bank
				duration = -1
			}
		}
	}
	
	J33_national_council = {
		icon = mission_african_gold
		required_missions = { 
			J33_collectivize_the_banks
		}
		position = 2
		
		provinces_to_highlight = {
		}
		
		trigger = {
			total_development = 1500
			adm_power = 200
		}
		
		effect = {
			add_adm_power = -200
			add_country_modifier = {
				name = federation_national_council
				duration = -1
			}
		}
	}
	
	J33_the_food_industry = {
		icon = mission_dominate_persian_gulf
		required_missions = { 
			J33_the_great_leap_forward
		}
		position = 3
		
		provinces_to_highlight = {
			OR = {
				trade_goods = fish
				trade_goods = grain
				trade_goods = livestock
			}
			
			owned_by = ROOT
			NOT = { has_manufactory_trigger = yes }
		}
		
		trigger = {
			num_of_owned_provinces_with = {
				value = 10
				OR = {
					trade_goods = fish
					trade_goods = grain
					trade_goods = livestock
				}
				has_manufactory_trigger = yes
			}
		}
		
		effect = {
			add_country_modifier = {
				name = federation_securized_industry_food
				duration = -1
			}
		}
	}
	
	J33_the_luxury_industry = {
		icon = mission_riches_of_golconda
		required_missions = { 
			J33_the_food_industry
		}
		position = 4
		
		provinces_to_highlight = {
			OR = {
				trade_goods = silk
				trade_goods = gems
				trade_goods = glass
				trade_goods = dyes
				trade_goods = paper
				trade_goods = mithril
			}
			
			owned_by = ROOT
			NOT = { has_manufactory_trigger = yes }
		}
		
		trigger = {
			num_of_owned_provinces_with = {
				value = 10
				OR = {
					trade_goods = silk
					trade_goods = gems
					trade_goods = dyes
					trade_goods = glass
					trade_goods = paper
					trade_goods = mithril
				}
				has_manufactory_trigger = yes
			}
		}
		
		effect = {
			add_country_modifier = {
				name = federation_securized_industry_luxury
				duration = -1
			}
		}
	}
	
	J33_the_voices_of_the_people = {
		icon = mission_expel_the_moriscos
		required_missions = { 
			J33_the_luxury_industry
		}
		position = 5
		
		provinces_to_highlight = {
		}
		
		trigger = {
			has_institution = industrialization
			adm_power = 350
			years_of_income = 2
		}
		
		effect = {
			add_adm_power = -350
			add_years_of_income = -2
			custom_tooltip = the_voices_of_the_people_tooltip
			hidden_effect = {
				random_owned_province = {
					limit = { NOT = { trade_goods = silk trade_goods = gold trade_goods = gems trade_goods = dyes has_latent_trade_goods = coal } NOT = { has_province_flag = federation_target_coal } }
					change_trade_goods = coal
					hidden_effect = { set_province_flag = federation_target_coal }
				}
				random_owned_province = {
					limit = { NOT = { trade_goods = silk trade_goods = gold trade_goods = gems trade_goods = dyes has_latent_trade_goods = coal } NOT = { has_province_flag = federation_target_coal } }
					change_trade_goods = coal
					hidden_effect = { set_province_flag = federation_target_coal }
				}
				random_owned_province = {
					limit = { NOT = { trade_goods = silk trade_goods = gold trade_goods = gems trade_goods = dyes has_latent_trade_goods = coal } NOT = { has_province_flag = federation_target_coal } }
					change_trade_goods = coal
					hidden_effect = { set_province_flag = federation_target_coal }
				}
			}
		}
	}
	
	J33_protect_our_merchants = {
		icon = league_of_the_public_weal
		required_missions = { 
			J33_the_voices_of_the_people
		}
		position = 6
		
		provinces_to_highlight = {
		}
		
		trigger = {
			mercantilism = 25
		}
		
		effect = {
			add_mercantilism = 5
			add_country_modifier = {
				name = federation_protect_our_merchants
				duration = -1
			}
		}
	}
	
	J33_workers_of_the_world = {
		icon = establish_oktoberfest
		required_missions = { 
			J33_protect_our_merchants
			J33_the_black_hands
		}
		position = 7
		
		provinces_to_highlight = {
		}
		
		trigger = {
			production_leader = { trade_goods = iron }
			production_leader = { trade_goods = copper }
			production_leader = { trade_goods = glass }
			production_leader = { trade_goods = naval_supplies }
			production_leader = { trade_goods = coal }
			production_leader = { trade_goods = paper }
		}
		
		effect = {
			add_prestige = 25
			add_country_modifier = {
				name = federation_workers_of_the_world
				duration = -1
			}
		}
	}
}

J33_4_TRADERS = {
	slot = 4
	generic = no
	ai = yes
	has_country_shield = yes
	potential = {
		tag = J33
		has_country_modifier = traders_of_the_lake
	}
	
	J33_mapping_a_continent = {
		icon = mission_mediterranean_islands
		required_missions = { 
			
		}
		position = 1
		
		provinces_to_highlight = {
			province_id = 4226
		}
		
		trigger = {
			treasury = 1000
			4226 = { heavy_ships_in_province = 10 }
			OR = {
				AND = {
					advisor = navigator
					adm_power = 100
					dip_power = 100
				}
				AND = {
					adm_power = 250
					dip_power = 250
				}
			}	
		}

		effect = {
			add_treasury = -1000
			4226 = {
				kill_units = {
					who = ROOT
					type = heavy_ship
					amount = 10
				}	
			}
			if = {
				limit = { advisor = navigator }
				add_adm_power = -100
				add_dip_power = -100
			}
			else = {
				add_adm_power = -250
				add_adm_power = -250
			}
			country_event = {
				id = lake.66
				days = 150
			}
		}
	}

	J33_a_great_route_for_a_great_fleet = {
		icon = crusader_fleet
		required_missions = {
			J33_mapping_a_continent
		}
		position = 2

		provinces_to_highlight = {
			OR ={
				province_id = 5356
				province_id = 4962
				province_id = 4701
				province_id = 4570
				province_id = 4420
				province_id = 4380
				province_id = 4367
				province_id = 4362
				province_id = 2913
			}
		}

		trigger = {
			has_country_flag = haless_mapped
			OR = {
				treasury = 5000
				AND = {
					treasury = 2500
					OR = {
						5356 = {
							owner = {
								has_opinion = {
									who = ROOT
									value = 100
								}
								NOT = {
									tag = Y93
								}
							}
						}
						4962 = { 
							owner = { 
								has_opinion = { 
									who = ROOT 
									value = 100 
								} 
							} 
						}
						4701 = { 
							owner = { 
								has_opinion = { 
									who = ROOT 
									value = 100 
								} 
							} 
						}
						4570 = { 
							owner = { 
								has_opinion = { 
									who = ROOT 
									value = 100 
								} 
							} 
						}
						4420 = { 
							owner = { 
								has_opinion = { 
									who = ROOT 
									value = 100 
								} 
							} 
						}
						4380 = { 
							owner = { 
								has_opinion = { 
									who = ROOT 
									value = 100 
								} 
							} 
						}
						4367 = { 
							owner = { 
								has_opinion = { 
									who = ROOT 
									value = 100 
								} 
							} 
						}
						4362 = { 
							owner = { 
								has_opinion = { 
									who = ROOT 
									value = 100 
								} 
							} 
						}
						2913 = { 
							owner = { 
								has_opinion = { 
									who = ROOT 
									value = 100 
								} 
							} 
						}
					}
				}
			}
		}
		effect = {
			custom_tooltip = J33_expand_route_available_tooltip
			set_country_flag = treasure_route_expansion_available			
		}
	}

	J33_the_treasure_port = {
		icon = secure_the_republic
		required_missions = {
			J33_a_great_route_for_a_great_fleet
			J33_the_riches_of_the_fleet
		}
		position = 3

		provinces_to_highlight = {
			province_id = 5226
		}

		trigger = {
			5226 = {
				if = {
					limit = {
						has_dlc = "Dharma"
					}
					development = 40
					province_has_center_of_trade_of_level = 3
				}
				else = {
					development = 45
				}
				OR = {
					has_building = shipyard
					has_building = grand_shipyard
				}
				OR = {
					has_building = dock
					has_building = drydock
				}
				OR = {
					has_building = marketplace
					has_building = trade_depot
					has_building = stock_exchange
				}
			}
		}

		effect = {	
			5226 = {
				add_permanent_province_modifier = {
					name = the_great_port
					duration = -1
				}
			}
		}
	}

	J33_foreign_ships_in_a_foreign_land = {
		icon = mission_arabian_sea_trade
		required_missions = {
			J33_the_treasure_port
			}
		position = 4

		provinces_to_highlight = {
			province_id = 4990
		}

		trigger = {
			custom_trigger_tooltip = {
				tooltip = J33_treasure_fleet_level_1_tooltip
				has_country_flag = treasure_fleet_level_1
			} 
			calc_true_if = {
				all_province = {
						has_province_modifier = JY_LF_port
					}
				amount = 10
			}
			4990 = {
				owner = {
					tag = ROOT
				}
				if = {
					limit = {
						has_dlc = "Dharma"
					}
					province_has_center_of_trade_of_level = 2
				}
				development = 25
			}
		}

		effect = {
			add_country_modifier = {
				name = halessi_trade_boom
				duration = 18250
			}
		}
	}

	J33_an_overflow_of_trade = {
		icon = mission_african_gold
		required_missions = {
			J33_foreign_ships_in_a_foreign_land
			J33_developing_the_northern_route
		}
		position = 5

		provinces_to_highlight = {
			OR = {
				province_id = 5003
				province_id = 4990
			}
		}
		
		trigger = {			
			has_institution = global_trade
			has_global_modifier_value = {
				which = trade_steering
				value = 0.65
			}
			custom_trigger_tooltip = {
				tooltip = J33_treasure_fleet_level_2_tooltip
				has_country_flag = treasure_fleet_level_2
			}
			5003 = {
				trade_share = {
					country = ROOt
					share = 90
				}
			}
			4990 = {
				trade_share = {
					country = ROOT
					share = 90
				}
			}
		}

		effect = {
			5010 = {
				add_province_modifier = {
					name = trade_overflow
					duration = -1
				}
			}
			5226 = {
				add_province_modifier = {
					name = trade_overflow
					duration = -1
				}
			}
			4990 = {
				add_province_modifier = {
					name = trade_overflow
					duration = -1
				}
			}
		}
	}

	J33_trading_posts_of_the_lakes = {
		icon = mission_hanseatic_city
		required_missions = {
			J33_an_overflow_of_trade
		}
		position = 6

		provinces_to_highlight = {
			OR = {
				province_id = 5010
				province_id = 4990
				province_id = 5209
				province_id = 5321
			}
			
		}
		
		trigger = {
			5010 = {
				owner = {
					tag = ROOT
				}
				OR = {
					has_building = trade_depot
					has_building = stock_exchange
				}
				development = 20
				OR = {
					has_building = courthouse
					has_building = town_hall
				}
			}
			4990 = {
				owner = {
					tag = ROOT
				}
				OR = {
					has_building = trade_depot
					has_building = stock_exchange
				}
				development = 20
				OR = {
					has_building = courthouse
					has_building = town_hall
				}
			}
			5209 = {
				owner = {
					tag = ROOT
				}
				OR = {
					has_building = trade_depot
					has_building = stock_exchange
				}
				development = 20
				OR = {
					has_building = courthouse
					has_building = town_hall
				}
			}
			5321 = {
				owner = {
					tag = ROOT
				}
				OR = {
					has_building = trade_depot
					has_building = stock_exchange
				}
				development = 20
				OR = {
					has_building = courthouse
					has_building = town_hall
				}
			}
			treasury = 2500
			dip_power = 250			
		}

		effect = {
			add_treasury = -2500
			add_dip_power = -250
			5010 = {
				remove_province_modifier = trade_overflow
				if = {
					limit = {
						has_province_modifier = triunic_trading_post_naval
					}
					add_province_modifier = {
						name = triunic_trading_post_both
						duration = -1
					}
					remove_province_modifier = triunic_trading_post_naval
				}
				else = {
					add_province_modifier = {
						name = triunic_trading_post_trade
						duration = -1
					}
				}
			}
			5226 = {
				remove_province_modifier = trade_overflow
			}
			4990 = {
				remove_province_modifier = trade_overflow
				if = {
					limit = {
						has_province_modifier = triunic_trading_post_naval
					}
					add_province_modifier = {
						name = triunic_trading_post_both
						duration = -1
					}
					remove_province_modifier = triunic_trading_post_naval
				}
				else = {
					add_province_modifier = {
						name = triunic_trading_post_trade
						duration = -1
					}
				}
			}
			5209 = {
				if = {
					limit = {
						has_province_modifier = triunic_trading_post_naval
					}
					add_province_modifier = {
						name = triunic_trading_post_both
						duration = -1
					}
					remove_province_modifier = triunic_trading_post_naval
				}
				else = {
					add_province_modifier = {
						name = triunic_trading_post_trade
						duration = -1
					}
				}
				center_of_trade = 1
			}
			5321 = {
				if = {
					limit = {
						has_province_modifier = triunic_trading_post_naval
					}
					add_province_modifier = {
						name = triunic_trading_post_both
						duration = -1
					}
					remove_province_modifier = triunic_trading_post_naval
				}
				else = {
					add_province_modifier = {
						name = triunic_trading_post_trade
						duration = -1
					}
				}
				center_of_trade = 1
			}
		}
	}

	J33_center_of_halessi_trade = {
		icon = mission_rb_a_mighty_fleet
		required_missions = {
			J33_trading_posts_of_the_lakes
			J33_the_merchant_armada
		}
		position = 7

		provinces_to_highlight = {
			OR = {
				province_id = 5226
				province_id = 5010
				province_id = 4990
				province_id = 5209
				province_id = 5321
			}
		}
		
		trigger = {
			custom_trigger_tooltip = {
				tooltip = J33_treasure_fleet_level_3_tooltip
				has_country_flag = treasure_fleet_level_3
			}
			calc_true_if = {
				amount = 17
				all_province = {
					has_province_modifier = JY_LF_port
				}
			}
			has_global_modifier_value = {
				which = trade_efficiency
				value = 0.75
			}
			5226 = {
				if = {
					limit = {
						has_dlc = "Dharma"
					}
					development = 50
					province_has_center_of_trade_of_level = 3
				}
				else = {
					development = 55
				}
			}
			5010 = {
				if = {
					limit = {
						has_dlc = "Dharma"
					}
					development = 40
					province_has_center_of_trade_of_level = 3
				}
				else = {
					development = 45
				}
			}			
			4990 = {
				if = {
					limit = {
						has_dlc = "Dharma"
					}
					development = 40
					province_has_center_of_trade_of_level = 3
				}
				else = {
					development = 45
				}
			}
			5209 = {
				development = 30
				if = {
					limit = {
						has_dlc = "Dharma"
					}
					province_has_center_of_trade_of_level = 2
				}
			}
			5321 = {
				development = 30
				if = {
					limit = {
						has_dlc = "Dharma"
					}
					province_has_center_of_trade_of_level = 2
				}
			}
		}

		effect = {
			add_country_modifier = {
				name = halessi_trade_hegemony
				duration = -1
			}			
		}
	}
}

J33_5_TRADERS = {
	slot = 5
	generic = no
	ai = yes
	has_country_shield = yes
	potential = {
		tag = J33
		has_country_modifier = traders_of_the_lake
	}

	J33_a_pirate_dealing = {
		icon = challenge_spanish_power
		required_missions = {

		}
		position = 1

		provinces_to_highlight = {
			if = {
				limit = { exists = Y64 }
				is_capital_of = Y64
			}
			else = {
				province_id = 4701
			}
		}

		trigger = {
			if = {
				limit = { exists = Y64 }
				OR = {
					AND = {
						Y64 = {
							has_opinion = {
								who = ROOT
								value = 100
							}
						}
						treasury = 2500
					}
					1367 = {
						heavy_ships_in_province = 50
					}
				}
			}
			else = {
				4701 = {
					has_discovered = ROOT
				}
			}
		}

		effect = {
			custom_tooltip = J33_pirates_tooltip
			hidden_effect = {
				if = {
					limit = { 
						exists = Y64
						Y64 = {
							has_opinion = {
								who = ROOT
								value = 100
							}
						}
					}
					add_treasury = -2500
				}
				else_if = {
					limit = { exists = Y64 }
					1367 = {
						create_pirate = 1337
						create_pirate = 1337
						create_pirate = 1337
						create_pirate = 1337
						create_pirate = 1337
						create_pirate = 1337
						create_pirate = 1337
						create_pirate = 1337
						create_pirate = 1337
						create_pirate = 1337
						create_pirate = 1337
						create_pirate = 1337
						create_pirate = 1337
						create_pirate = 1337
						create_pirate = 1337
						create_pirate = 1337
						create_pirate = 1337
						create_pirate = 1337
						create_pirate = 1337
						create_pirate = 1337
						create_pirate = 1337
						create_pirate = 1337
						create_pirate = 1337
						create_pirate = 1337
						create_pirate = 1337
						create_pirate = 1337
						create_pirate = 1337
						create_pirate = 1337
						create_pirate = 1337
						create_pirate = 1337
						create_pirate = 1337
						create_pirate = 1337
						create_pirate = 1337
						create_pirate = 1337
						create_pirate = 1337
						create_pirate = 1337
						create_pirate = 1337
						create_pirate = 1337
						create_pirate = 1337
						create_pirate = 1337
						create_pirate = 1337
						create_pirate = 1337
						create_pirate = 1337
						create_pirate = 1337
						create_pirate = 1337
						create_pirate = 1337
						create_pirate = 1337
						create_pirate = 1337
						create_pirate = 1337
						create_pirate = 1337
						create_pirate = 1337
						create_pirate = 1337
						create_pirate = 1337
						create_pirate = 1337
						create_pirate = 1337
						create_pirate = 1337
						create_pirate = 1337
						create_pirate = 1337
						create_pirate = 1337
						create_pirate = 1337
						create_pirate = 1337
						create_pirate = 1337
						create_pirate = 1337
						create_pirate = 1337
						create_pirate = 1337
						create_pirate = 1337
						create_pirate = 1337
						create_pirate = 1337
						create_pirate = 1337
						create_pirate = 1337
						create_pirate = 1337
						create_pirate = 1337
						create_pirate = 1337
						create_pirate = 1337
						create_pirate = 1337
						create_pirate = 1337
						create_pirate = 1337
						create_pirate = 1337
						create_pirate = 1337
						create_pirate = 1337
					}
				}
			}
			custom_tooltip = J33_pirates_will_be_gone_tooltip
			set_country_flag = treasure_fleet_no_pirates		
		}
	}

	J33_the_riches_of_the_fleet = {
		icon = mission_jawal_silver_mine
		required_missions = {
			J33_mapping_a_continent
			J33_a_pirate_dealing
		}
		position = 2

		provinces_to_highlight = {
			province_id = 1367
		}
		
		trigger = {
			has_country_flag = haless_mapped
			1367 = {
				NOT = {
					units_in_province = PIR
				}
			}
			treasury = 4000
			adm_power = 100
			dip_power = 100
			has_global_modifier_value = {
				which = trade_efficiency
				value = 0.35
			}
		}

		effect = {
			custom_tooltip = J33_expand_fleet_available_tootlip
			set_country_flag = treasure_fleet_expansion_available
			5226 = {
				add_province_triggered_modifier = treasure_fleet_upgrade_timer			
			}
		}
	}

	J33_reaching_west = {
		icon = mission_rb_colonise_canada
		required_missions = {

		}
		position = 3

		provinces_to_highlight = {
			region = yyl_moista_region
			NOT = {
				country_or_non_sovereign_subject_holds = ROOT
			}
		}
		
		trigger = {
			yyl_moista_region = {
				type = all
				country_or_non_sovereign_subject_holds = ROOT
			}
			OR = {
				any_neighbor_country = {
					capital_scope = {
						continent = europe
					}
					OR = {
						has_opinion = {
							who = ROOT
							value = 100
						}
						AND = {
							is_enemy = ROOT
							has_spy_network_from = {
								who = ROOT
								value = 50
							}
						}
					}	
				}
				any_known_country = {
					capital_scope = {
						continent = europe
					}
					has_opinion = {
						who = ROOT
						value = 200
					}
				}
			}
		}

		effect = {
			if = {
				limit = {
					any_neighbor_country = {
						capital_scope = {
							continent = europe
						}
						is_enemy = ROOT
						has_spy_network_from = {
							who = ROOT
							value = 50
						}
					}
				}
				every_neighbor_country = {
					limit = {
						capital_scope = {
							continent = europe
						}
						is_enemy = ROOT
						has_spy_network_from = {
							who = ROOT
							value = 50
						}
					}
					add_spy_network_from = {
						who = ROOT
						value = -50
					}				
				}
			}
			add_country_modifier = {
				name = the_northern_route_1
				duration = -1
			}			
		}
	}

	J33_developing_the_northern_route = {
		icon = mission_colonial
		required_missions = {
			J33_reaching_west
		}
		position = 4

		provinces_to_highlight = {
			region = yyl_moista_region
		}
		
		trigger = {		
			yyl_moista_region = {
				type = all
				country_or_non_sovereign_subject_holds = ROOT
			}
			yyl_moista_region = {
				type = all
				development = 5
			}
			num_of_owned_provinces_with = {
				value = 10
				region = yyl_moista_region
				development = 10
			}
			5003 = {
				development = 25
				OR = {
					has_building = marketplace
					has_building = trade_depot
					has_building = stock_exchange
				}
			}
			5010 = {
				development = 25
				OR = {
					has_building = marketplace
					has_building = trade_depot
					has_building = stock_exchange
				}
			}
		}

		effect = {
			5003 = {
				add_center_of_trade_level = 1
			}
			5010 = {
				hidden_effect = {
					if = {
						limit = {
							OR ={
								province_has_center_of_trade_of_level = 1
								province_has_center_of_trade_of_level = 2
							}
						}
						add_center_of_trade_level = 1
					}
					else = {
						center_of_trade = 1
					}
				}
				tooltip = {
					add_center_of_trade_level = 1
				}
			}
			remove_country_modifier = the_northern_route_1
			add_country_modifier = {
				name = the_northern_route_2
				duration = -1
			}
		}
	}

	J33_a_light_in_the_north = {
		icon = mission_verdant_secret
		required_missions = {
			J33_developing_the_northern_route
		}
		position = 5

		provinces_to_highlight = {
			province_id = 5003
		}
		
		trigger = {
			5003 = {
				if = {
					limit = {
						has_dlc = "Dharma"
					}
					province_has_center_of_trade_of_level = 3
					development = 40
				}
				else = {
					development = 45
				}
				has_building = town_hall
				has_building = counting_house
				has_manufactory_trigger = yes
				has_building = stock_exchange
			}
			adm_power = 100
			treasury = 1000			
		}

		effect = {
			add_adm_power = -100
			add_treasury = -1000
			remove_country_modifier = the_northern_route_2
			add_country_modifier = {
				name = the_northern_route_3
				duration = -1
			}
			5003 = {
				add_permanent_province_modifier = {
					name = a_light_in_the_north
					duration = -1
				}
			}			
		}
	}

	J33_the_merchant_armada = {
		icon = mission_early_game_buildings
		required_missions = {
			J33_an_overflow_of_trade
		}
		position = 6

		provinces_to_highlight = {
			OR = {
				province_id = 5010
				province_id = 4990
				province_id = 5209
				province_id = 5321
			}
		}
		
		trigger = {
			5010 = {
				owner = {
					tag = ROOT
				}
				OR = {
					has_building = shipyard
					has_building = grand_shipyard
				}
				OR = {
					has_building = dock
					has_building = drydock
				}
			}
			4990 = {
				owner = {
					tag = ROOT
				}
				OR = {
					has_building = shipyard
					has_building = grand_shipyard
				}
				OR = {
					has_building = dock
					has_building = drydock
				}
			}
			5209 = {
				owner = {
					tag = ROOT
				}
				OR = {
					has_building = shipyard
					has_building = grand_shipyard
				}
				OR = {
					has_building = dock
					has_building = drydock
				}
			}
			5321 = {
				owner = {
					tag = ROOT
				}
				OR = {
					has_building = shipyard
					has_building = grand_shipyard
				}
				OR = {
					has_building = dock
					has_building = drydock
				}
			}
			treasury = 1500
			dip_power = 100			
		}

		effect = {
			add_treasury = -1500
			add_dip_power = -100
			5010 = {
				if = {
					limit = {
						has_province_modifier = triunic_trading_post_trade
					}
					add_province_modifier = {
						name = triunic_trading_post_both
						duration = -1
					}
					remove_province_modifier = triunic_trading_post_trade
				}
				else = {
					add_province_modifier = {
						name = triunic_trading_post_naval
						duration = -1
					}
				}
			}
			4990 = {
				if = {
					limit = {
						has_province_modifier = triunic_trading_post_trade
					}
					add_province_modifier = {
						name = triunic_trading_post_both
						duration = -1
					}
					remove_province_modifier = triunic_trading_post_trade
				}
				else = {
					add_province_modifier = {
						name = triunic_trading_post_naval
						duration = -1
					}
				}
			}
			5209 = {
				if = {
					limit = {
						has_province_modifier = triunic_trading_post_trade
					}
					add_province_modifier = {
						name = triunic_trading_post_both
						duration = -1
					}
					remove_province_modifier = triunic_trading_post_trade
				}
				else = {
					add_province_modifier = {
						name = triunic_trading_post_naval
						duration = -1
					}
				}
			}
			5321 = {
				if = {
					limit = {
						has_province_modifier = triunic_trading_post_trade
					}
					add_province_modifier = {
						name = triunic_trading_post_both
						duration = -1
					}
					remove_province_modifier = triunic_trading_post_trade
				}
				else = {
					add_province_modifier = {
						name = triunic_trading_post_naval
						duration = -1
					}
				}
			}			
		}
	}
}

J33_4_CITIZEN = {
	slot = 4
	generic = no
	ai = yes
	has_country_shield = yes
	potential = {
		tag = J33
		has_country_modifier = citizens_of_the_lake
	}
	
	J33_not_done_yet_citizen = {
		icon = spread_piety
		required_missions = { 
			
		}
		position = 1
		
		provinces_to_highlight = {
		}
		
		trigger = {
			always = yes
		}
		
		effect = {
			country_event = { id = lake.101 }
		}
	}
}