
G47_north = {
	slot = 1
	generic = no
	ai = yes
	potential = {
		tag = G47
	}
	has_country_shield = yes
	
	G47_replenish_the_army = {
		icon = mission_levantine_restoration
		required_missions = { }
		position = 1
		
		trigger = {
			army_size_percentage = 0.8
		}
		
		effect = {
			arpedifer_area = {
				limit = {
					NOT = { is_core = ROOT }
					NOT = { owned_by = ROOT }
				}
				add_permanent_claim = ROOT
			}
			kheinos_area = {
				limit = {
					NOT = { is_core = ROOT }
					NOT = { owned_by = ROOT }
				}
				add_permanent_claim = ROOT
			}
		}
	}
	
	G47_consolidate_the_north = {
		icon = mission_conquer_50_development
		required_missions = { G47_replenish_the_army }
		position = 2
		
		
		provinces_to_highlight = {
			OR = {
				area = arpedifer_area
			}
			NOT = {
				country_or_non_sovereign_subject_holds = ROOT
			}
		}
		
		trigger = {
			arpedifer_area = {
				type = all
				country_or_non_sovereign_subject_holds = ROOT
			}
		}
		effect = {
			mtelian_area = {
				limit = {
					NOT = { is_core = ROOT }
					NOT = { owned_by = ROOT }
				}
				add_permanent_claim = ROOT
			}
		}
	}
	
	G47_the_mountain_of_light = {
		icon = mission_entrepot_of_india
		required_missions = { G47_consolidate_the_north }
		position = 3
		
		provinces_to_highlight = {
			province_id = 2758
			OR = {
				NOT = { owned_by = ROOT }
				NOT = { base_production = 10 }
			}
		}
		
		trigger = {
			2758 = {
				owned_by = ROOT
				base_production = 10
			}
		}
		
		effect = {
			add_years_of_income = 6
			add_inflation = 20
		}
	}
	
	G47_a_job_well_done = {
		icon = mission_sweat_fealty
		required_missions = { G47_move_against_degakheion }
		position = 4
		
		trigger = {
			is_neighbor_of = G62
		}
		
		effect = {
			add_casus_belli = {
				target = G62
				type = cb_vassalize_mission
			}
		}
	}
}

G47_south = {
	slot = 2
	generic = no
	ai = yes
	potential = {
		tag = G47
	}
	has_country_shield = yes
	
	G47_finish_the_kimabhen = {
		icon = mission_mounted_battle
		required_missions = { G47_replenish_the_army }
		position = 2
		
		provinces_to_highlight = {
			OR = {
				area = kheinos_area
			}
			NOT = {
				country_or_non_sovereign_subject_holds = ROOT
			}
		}
		
		trigger = {
			kheinos_area = {
				type = all
				country_or_non_sovereign_subject_holds = ROOT
			}
		}
		
		effect = { 
			degakheion_area = {
				limit = {
					NOT = { is_core = ROOT }
					NOT = { owned_by = ROOT }
				}
				add_permanent_claim = ROOT
			}
		}
	}
	
	G47_move_against_degakheion = {
		icon = mission_steppe_warriors
		required_missions = { G47_finish_the_kimabhen }
		position = 3
		
		provinces_to_highlight = {
			area = degakheion_area
			NOT = { country_or_non_sovereign_subject_holds = ROOT }
		}
		
		trigger = {
			degakheion_area = {
				type = all
				country_or_non_sovereign_subject_holds = ROOT
			}
		}
		
		effect = {
			add_mil_power = 50
			add_prestige = 10
		}
	}
	
	G47_the_greater_city = {
		icon = imperial_capitals
		required_missions = { G47_move_against_degakheion }
		position = 4
		
		provinces_to_highlight = {
			province_id = 2736
			NOT = { owned_by = ROOT }
		}
		
		trigger = {
			2736 = {
				owned_by = ROOT
			}
			treasury = 100
		}
		
		effect = {
			add_treasury = -100
			2736 = {
				add_base_tax = -2
				add_base_production = -2
				add_base_manpower = -2
				add_devastation = 50
			}
			2731 = {
				add_base_tax = 2
				add_base_production = 2
				add_base_manpower = 2
			}
		}
	}
}

G47_south_2 = {
	slot = 3
	generic = no
	ai = yes
	potential = {
		tag = G47
	}
	has_country_shield = yes
	
	G47_integrate_our_new_lands = {
		icon = mission_writing_book
		required_missions = { }
		position = 2
		
		provinces_to_highlight = {
			OR = {
				province_id = 2732
				province_id = 2733
				province_id = 2734
			}
			NOT = { is_core = ROOT }
		}
		
		trigger = {
			2732 = { is_core = ROOT }
			2733 = { is_core = ROOT }
			2734 = { is_core = ROOT }
		}
		
		effect = {
			add_stability_or_adm_power = yes
			2732 = {
				add_prosperity = 10
			}
			2733 = {
				add_prosperity = 10
			}
			2734 = {
				add_prosperity = 10
			}	
		}
	}
	
	G47_the_kimabhen_people = {
		icon = friends_in_high_places
		required_missions = { G47_finish_the_kimabhen G47_integrate_our_new_lands }
		position = 3
		
		provinces_to_highlight = {
			province_id = 2732
			OR = {
				NOT = { owned_by = ROOT }
				NOT = { has_courthouse_building_trigger = yes }
			}
		}
		
		trigger = {
			dip_power = 25
			2732 = {
				owned_by = ROOT
				has_courthouse_building_trigger = yes
			}
		}
		
		effect = {
			add_dip_power = -25
			add_accepted_culture = kimabhen
		}
	}
	
	G47_the_silk_of_kimanis = {
		icon = mission_collect_yasak
		required_missions = { G47_the_kimabhen_people }
		position = 4
		
		provinces_to_highlight = {
			province_id = 2732
			OR = {
				NOT = { owned_by = ROOT }
				NOT = { development = 25 }
			}
		}
		
		trigger = {
			treasury = 100
			2732 = {
				owned_by = ROOT
				development = 25
			}
		}
		
		effect = {
			add_treasury = -100
			2732 = {
				add_province_modifier = {
					name = "oktikheion_silken_fields"
					duration = -1
				}
			}
		}
	}
}

G47_internal = {
	slot = 4
	generic = no
	ai = yes
	potential = {
		tag = G47
	}
	has_country_shield = yes
	
	G47_invest_in_the_capital = {
		icon = ansbach_succession
		required_missions = { }
		position = 1
		
		provinces_to_highlight = {
			province_id = 2731
			OR = {
				NOT = { owned_by = ROOT }
				NOT = { development = 20 }
			}
		}
		
		trigger = {
			2731 = {
				owned_by = ROOT
				development = 20
			}
		}
		
		effect = {
			add_country_modifier = {
				name = "oktikheion_invested_in_capital"
				duration = 9125 #25 years
			}
		}
	}
	
	G47_a_great_dockyard = {
		icon = mission_develop_nevas_port
		required_missions = { G47_invest_in_the_capital G47_strengthen_the_navy }
		position = 2
		
		provinces_to_highlight = {
			province_id = 2731
			OR = {
				NOT = { owned_by = ROOT }
				NOT = { has_dock_building_trigger = yes }
			}
		}
		
		trigger = {
			treasury = 50
			2731 = {
				owned_by = ROOT
				has_dock_building_trigger = yes
			}
		}
		
		effect = {
			add_treasury = -50
			2731 = {
				remove_building = dock
				add_building = drydock
				add_province_modifier = {
					name = "oktikheion_the_great_dockyard"
					duration = -1
				}
			}
		}
	}
	
	G47_mastery_of_shipbuilding = {
		icon = mission_fleet_arrival
		required_missions = { G47_a_great_dockyard }
		position = 3
		
		provinces_to_highlight = {
			owned_by = ROOT
			has_port = yes
			NOT = { has_shipyard_building_trigger = yes }
		}
		
		trigger = {
			num_of_owned_provinces_with = {
				value = 5
				has_shipyard_building_trigger = yes
			}
		}
		
		effect = {
			add_country_modifier = {
				name = "oktikheion_shipbuilding_mastery"
				duration = -1
			}	
		}
	}
	
	G47_found_the_oktikheioni_naval_school = {
		icon = imperial_navy
		required_missions = { G47_mastery_of_shipbuilding G47_secure_the_southern_isles }
		position = 4
		
		trigger = {
			treasury = 200
			num_of_heavy_ship = 20
		}
		
		effect = {
			add_treasury = -200
			add_country_modifier = {
				name = "oktikheion_naval_school"
				duration = -1
			}
		}
	}
}

G47_isles = {
	slot = 5
	generic = no
	ai = yes
	potential = {
		tag = G47
	}
	has_country_shield = yes
	
	G47_strengthen_the_navy = {
		icon = mission_corsairs_of_the_north_sea
		required_missions = { }
		position = 1
		
		trigger = {
			navy_size_percentage = 0.75
			num_of_admirals = 1
		}
		
		effect = {
			vothelisi_area = {
				limit = {
					NOT = { is_core = ROOT }
					NOT = { owned_by = ROOT }
				}
				add_permanent_claim = ROOT
			}
			arpenisi_area = {
				limit = {
					NOT = { is_core = ROOT }
					NOT = { owned_by = ROOT }
				}
				add_permanent_claim = ROOT
			}
			add_country_modifier = {
				name = "oktikheion_strengthened_the_navy"
				duration = 5475 #15 years
			}
		}
	}
	
	G47_secure_the_northern_isles = {
		icon = mission_claim_the_canaries
		required_missions = { G47_strengthen_the_navy }
		position = 2
		
		provinces_to_highlight = {
			OR = {
				area = vothelisi_area
				area = arpenisi_area
			}
			NOT = { country_or_non_sovereign_subject_holds = ROOT }
		}
		
		trigger = {
			vothelisi_area = {
				type = all
				country_or_non_sovereign_subject_holds = ROOT
			}
			arpenisi_area = {
				type = all
				country_or_non_sovereign_subject_holds = ROOT
			}
		}
		
		effect = { 
			anisikheion_area = {
				limit = {
					NOT = { is_core = ROOT }
					NOT = { owned_by = ROOT }
				}
				add_permanent_claim = ROOT
			}
			soreion_area = {
				limit = {
					NOT = { is_core = ROOT }
					NOT = { owned_by = ROOT }
				}
				add_permanent_claim = ROOT
			}
		}
	}
	
	G47_secure_the_southern_isles = {
		icon = mission_invade_island
		required_missions = { G47_secure_the_northern_isles }
		position = 3
		
		provinces_to_highlight = {
			OR = {
				area = anisikheion_area
				area = soreion_area
			}
			NOT = { country_or_non_sovereign_subject_holds = ROOT }
		}
		
		trigger = {
			anisikheion_area = {
				type = all
				country_or_non_sovereign_subject_holds = ROOT
			}
			soreion_area = {
				type = all
				country_or_non_sovereign_subject_holds = ROOT
			}
		}
		
		effect = {
			add_country_modifier = {
				name = "oktikheion_masters_of_the_cleaved_sea"
				duration = -1
			}
		}
	}
	
	G47_new_sugar_plantations = {
		icon = mission_potosi_silver
		required_missions = { G47_secure_the_southern_isles }
		position = 4
		
		provinces_to_highlight = {
			OR = {
				province_id = 2731
				province_id = 2763
			}
			OR = {
				NOT = { development = 30 }
				NOT = { has_production_building_trigger = yes }
			}
		}
		
		trigger = {
			treasury = 1000
			2731 = {
				development = 30
				has_production_building_trigger = yes
			}	
			2763 = {
				development = 20
				has_production_building_trigger = yes
			}
		}
		
		effect = {
			add_treasury = -1000
			random_owned_province = {
				limit = {
					OR = {
						area = arpenisi_area
						area = vothelisi_area
						area = anisikheion_area
					}	
					NOT = { trade_goods = sugar }
					NOT = { trade_goods = gems }
					NOT = { trade_goods = damestear }
				}
				change_trade_goods = sugar
			}
			random_owned_province = {
				limit = {
					OR = {
						area = arpenisi_area
						area = vothelisi_area
						area = anisikheion_area
					}	
					NOT = { trade_goods = sugar }
					NOT = { trade_goods = gems }
					NOT = { trade_goods = damestear }
				}
				change_trade_goods = sugar
			}
			random_owned_province = {
				limit = {
					OR = {
						area = arpenisi_area
						area = vothelisi_area
						area = anisikheion_area
					}	
					NOT = { trade_goods = sugar }
					NOT = { trade_goods = gems }
					NOT = { trade_goods = damestear }
				}
				change_trade_goods = sugar
			}
			random_owned_province = {
				limit = {
					OR = {
						area = arpenisi_area
						area = vothelisi_area
						area = anisikheion_area
					}	
					NOT = { trade_goods = sugar }
					NOT = { trade_goods = gems }
					NOT = { trade_goods = damestear }
				}
				change_trade_goods = sugar
			}
			random_owned_province = {
				limit = {
					OR = {
						area = arpenisi_area
						area = vothelisi_area
						area = anisikheion_area
					}	
					NOT = { trade_goods = sugar }
					NOT = { trade_goods = gems }
					NOT = { trade_goods = damestear }
				}
				change_trade_goods = sugar
			}
			random_owned_province = {
				limit = {
					OR = {
						area = arpenisi_area
						area = vothelisi_area
						area = anisikheion_area
					}	
					NOT = { trade_goods = sugar }
					NOT = { trade_goods = gems }
					NOT = { trade_goods = damestear }
				}
				change_trade_goods = sugar
			}
			random_owned_province = {
				limit = {
					OR = {
						area = arpenisi_area
						area = vothelisi_area
						area = anisikheion_area
					}	
					NOT = { trade_goods = sugar }
					NOT = { trade_goods = gems }
					NOT = { trade_goods = damestear }
				}
				change_trade_goods = sugar
			}
		}
	}
}