
g_truedagger_column_4 = {
	slot = 4
	generic = no
	ai = yes
	potential = {
		tag = H85
	}
	has_country_shield = yes
	
    g_a_clan_in_the_pass = {
		icon = mission_the_grand_trunk_road_bng
		position = 1
		required_missions = {
		}
		
		trigger = {
			prestige = 10
		}
		
		effect = {
			define_advisor = {
				type = inquisitor
				name = "Fazok Doomknife"
				skill = 1
				culture = cave_goblin
				religion = goblinic_shamanism
				discount = yes
			}
		}
	}
	
	g_making_nice = {
		icon = personal_diplomacy
		position = 2
		required_missions = {
			g_a_clan_in_the_pass
		}
		
		trigger = {
			dip_power = 200
			treasury = 200
			OR = { #railsulker
				reverse_has_opinion = {
					who = H75
					value = 100
				}
				H75 = { exists = no }
			}
			OR = { #shattered crown
				reverse_has_opinion = {
					who = H72
					value = 100
				}
				H72 = { exists = no }
			}
		}
		
		effect = {
			add_dip_power = -200
			add_treasury = -200
			H72 = { 
				country_event = { id = cavegoblinflavor.7 }
			}
			H75 = { 
				country_event = { id = cavegoblinflavor.7 }
			}
		}
	}
	
	g_bashing_blueshields_badly = { #i'm thinking of changing this one to something else, like maybe about colonization
		icon = mission_mayan_conquest
		position = 3
		required_missions = {
			g_making_nice
		}
		
		trigger = {
			is_subject = no
			OR = {
				knows_country = H70
				knows_country = I04
				knows_country = I01
				knows_country = I03
			}
		}
		
		effect = {
			#i'm sure there is a better way to do this
			if = {
				limit = { H70 = { exists = yes } }
				declare_war_with_cb = {
					who = H70
					casus_belli = cb_vassalize_mission
				}
			}
			else_if = {
				limit = { I04 = { exists = yes } }
				declare_war_with_cb = {
					who = I04
					casus_belli = cb_vassalize_mission
				}
			}
			else_if = {
				limit = { I01 = { exists = yes } }
				declare_war_with_cb = {
					who = I01
					casus_belli = cb_vassalize_mission
				}
			}
			else_if = {
				limit = { I03 = { exists = yes } }
				declare_war_with_cb = {
					who = I03
					casus_belli = cb_vassalize_mission
				}
			}
		}
	}
	
	g_stopping_the_krak = {
		icon = mission_jorgurem_the_frozen
		position = 4
		required_missions = {
			g_bashing_blueshields_badly
		}
		
		provinces_to_highlight = {
			is_core = I02
			NOT = { owned_by = ROOT }
		}
		
		trigger = {	
			I02 = { #crack dwarves
				all_core_province = {
					owner = {
						tag = ROOT
					}
				}
			}
		}
		
		effect = {
			2931 = {
				owner = {
					every_owned_province = {
						add_permanent_claim = FROM
					}
				}
			}
			4119 = {
				owner = {
					every_owned_province = {
						add_permanent_claim = FROM
					}
				}
			}
		}
	}
	
	g_top_10_dwarovar_betrayals = {
		icon = mission_assassination
		position = 5
		required_missions = {
			g_stopping_the_krak
		}
		
		provinces_to_highlight = {
			OR = {
				province_id = 2931
				province_id = 4119
				province_id = 4122
				province_id = 4149
				province_id = 4128
			}
			NOT = { owned_by = ROOT }
		}
		
		trigger = {
			owns = 2931
			owns = 4119
			owns = 4122
			owns = 4149
			owns = 4128
		}
		
		effect = {
			add_country_modifier = {
				name = cave_goblin_truedagger
				duration = -1
			}
			override_country_name = SVETKLAN # Holy Land
		}
	}
}
