# g_allclan_dominance1_column_1 = {
# 	slot = 1
# 	generic = no
# 	ai = yes
# 	potential = {
# 		tag = I98
# 	}
# 	has_country_shield = yes

# 	g_eliminating_the_old_clans = {
# 		icon = mission_beheading
# 		position = 1
# 		required_missions = {

# 		}
# 		trigger = {
# 			adm_power = 50
# 			dip_power = 50
# 			stability = 1
# 			is_at_war = no
# 			has_any_disaster = no
# 		}

# 		effect = {
# 			add_adm_power = -50
# 			add_dip_power = -50
# 			add_stability = 1
# 			custom_tooltip = removes_all_other_cave_goblin_cores_in_your_land_tt
# 			hidden_effect = {
# 				country_event = {
# 					id = allclan.1
# 				}
# 			}
# 			allclan_tension_bad = yes
# 		}
# 	}

# 	g_synthesizing_contraption_knowledge = {
# 		icon = found_the_vatican_library
# 		position = 3
# 		required_missions = {
# 			g_a_new_form_of_government
# 		}
# 		trigger = {
# 			if = {
# 				limit = {
# 					has_dlc = "Rule Britannia"
# 				}
# 				innovativeness = 50
# 			}
# 			else = {
# 				prestige = 99
# 			}
# 		}

# 		effect = {
# 			add_country_modifier = {
# 				name = allclan_synthesized_contraption_knowledge
# 			}
# 			change_estate_land_share = {
# 				estate = estate_artificers
# 				share = 7.5
# 			}
# 			allclan_tension_good_small = yes
# 			allclan_technocrat_boost = yes
# 			mission_reward_artifice_points_3 = yes
# 		}
# 	}

# 	g_excellence_in_invention = {
# 		icon = mission_artificier_experience
# 		position = 4
# 		required_missions = {
# 			g_synthesizing_contraption_knowledge
# 		}
# 		trigger = {
# 			estate_loyalty = {
# 				estate = estate_artificers
# 				loyalty = 60
# 			}
# 			mil = 6
# 		}

# 		effect = {
# 			add_mil_power = 50
# 			country_event = {
# 				id = allclan.2
# 			}
# 		}
# 	}
# }

# g_allclan_gov1_column_1 = {
# 	slot = 2
# 	generic = no
# 	ai = yes
# 	potential = {
# 		tag = I98
# 	}
# 	has_country_shield = yes

# 	g_breaking_the_longest_stalagtites = {
# 		icon = mission_hanged_tree
# 		position = 1
# 		required_missions = {

# 		}
# 		trigger = {
# 			is_at_war = no
# 			has_any_disaster = no
# 			OR = {
# 				crown_land_share = 40
# 				absolutism = 50
# 			}
# 		}

# 		effect = {
# 			add_stability = 1
# 			change_estate_land_share = {
# 				estate = estate_church
# 				share = -10
# 			}
# 			change_estate_land_share = {
# 				estate = estate_nobles
# 				share = -10
# 			}
# 			allclan_tension_bad_big = yes
# 		}
# 	}

# 	g_a_new_form_of_government = {
# 		icon = counter_reformation
# 		position = 2
# 		required_missions = {
# 			g_breaking_the_longest_stalagtites
# 			g_eliminating_the_old_clans
# 			g_proofs_of_concept
# 		}
# 		trigger = {
# 			stability = 3
# 			NOT = {		
# 				estate_territory = {
#    					estate = estate_nobles
# 					territory = 15
# 				}
# 				estate_territory = {
# 					estate = estate_church
# 					territory = 15
# 			 	}
# 			}
# 			is_at_war = no
# 			has_any_disaster = no
# 		}

# 		effect = {
# 			add_stability = -3
# 			hidden_effect = {
# 				set_country_flag = nezkaru_gov
# 			}
# 			if = {
# 				limit = {
# 					government = republic
# 				}
# 				add_government_reform = nezkaru_council_reform
# 				add_prestige = 10
# 				add_republican_tradition = 10
# 			}
# 			else = {
# 				change_government = republic
# 				add_government_reform = nezkaru_council_reform
# 				change_government_reform_progress = 200
# 				add_republican_tradition = 100
# 				allclan_tension_bad_big = yes
# 			}
# 			add_ruler_modifier = {
# 				name = allclan_reformist_ruler
# 				duration = -1
# 			}
# 			allclan_reformist_boost_big = yes
# 			allclan_tension_bad_big = yes
# 		}
# 	}

# 	g_consolidating_the_councils_rule = {
# 		icon = mission_noble_council
# 		position = 4
# 		required_missions = {
# 			g_a_new_form_of_government
# 		}
# 		trigger = {
# 			NOT = {
# 				average_autonomy = 20
# 			}
# 			adm = 6
# 		}

# 		effect = {
# 			add_adm_power = 50
# 			country_event = {
# 				id = allclan.3
# 			}
# 		}
# 	}

# 	g_forward_goblinkind = {
# 		icon = mission_dark_book
# 		position = 5
# 		required_missions = {
# 			g_charting_the_new_markets
# 			g_consolidating_the_councils_rule
# 			g_excellence_in_invention
# 		}
# 		trigger = {
# 			OR = {
# 				home_trade_node = {
# 					highest_value_trade_node = yes
# 				}
# 				AND = {
# 					innovativeness = 100
# 					any_known_country = {
# 						NOT = {
# 							tech_difference = 1
# 						}
# 					}
# 				}
# 				AND = {
# 					adm = 6
# 					dip = 6
# 					mil = 6
# 				}
# 			}
# 		}

# 		effect = {
# 			add_adm_power = 50
# 			add_dip_power = 50
# 			add_mil_power = 50
# 			#hidden_effect = {
# 			#	set_country_flag = allclan_missions_1
# 			#}
# 			#swap_non_generic_missions = yes
# 			allclan_tension_bad_big = yes
# 		}
# 	}
# }

# g_allclan_industry1_column_1 = {
# 	slot = 3
# 	generic = no
# 	ai = yes
# 	potential = {        
# 		tag = I98
# 	}
# 	has_country_shield = yes

# 	g_proofs_of_concept = {
# 		icon = mission_verdant_secret
# 		position = 1
# 		required_missions = {

# 		}
# 		provinces_to_highlight = {
# 			trade_goods = fungi
# 			NOT = { has_building = farm_estate }
# 			owned_by = FROM
# 		}
# 		trigger = {
# 			treasury = 10000
# 			is_at_war = no
# 			has_any_disaster = no
# 			NOT = {
# 				any_owned_province = {
# 					trade_goods = fungi
# 					NOT = { has_building = farm_estate }
# 				}
# 			}
# 		}

# 		effect = {
# 			add_treasury = -10000
# 			every_owned_province = {
# 				limit = {
# 					trade_goods = fungi
# 				}
# 				add_base_production = 1
# 			}
# 			allclan_tension_good_big = yes
# 		}
# 	}

# 	g_exploiting_the_fungus_boom = {
# 		icon = mission_industrialize_bengal
# 		position = 3
# 		required_missions = {
# 			g_a_new_form_of_government
# 		}
# 		trigger = {
# 			dip_power = 200
# 			production_leader = {
# 				trade_goods = fungi
# 			}
# 			is_at_war = no
# 			has_any_disaster = no
# 		}

# 		effect = {
# 			add_dip_power = -200
# 			add_country_modifier = {
# 				name = allclan_fungus_boom
# 				duration = 9125
# 			}
# 			change_estate_land_share = {
# 				estate = estate_burghers
# 				share = 7.5
# 			}
# 			allclan_cartel_boost = yes
# 		}
# 	}

# 	g_charting_the_new_markets = {
# 		icon = mission_market
# 		position = 4
# 		required_missions = {
# 			g_exploiting_the_fungus_boom
# 		}
# 		trigger = {
# 			current_income_balance = 600
# 			dip = 6
# 		}

# 		effect = {
# 			add_dip_power = 50
# 			country_event = {
# 				id = allclan.4
# 			}
# 		}
# 	}
# }

# g_allclan_base_column_4 = {
# 	slot = 4
# 	generic = no
# 	ai = yes
# 	potential = {        
# 		tag = I98
# 	}
# 	has_country_shield = yes

# 	g_the_place_of_dwarves = {
# 		icon = adjust_the_general_means
# 		position = 1
# 		required_missions = {

# 		}
# 		trigger = {
# 			is_at_war = no
# 			has_any_disaster = no
# 			OR = {
# 				high_tolerance_dwarven_race_trigger = yes
# 				has_country_modifier = racial_pop_dwarven_purge
# 				has_country_modifier = racial_pop_dwarven_expulsion
# 				custom_trigger_tooltip = {
# 					tooltip = own_15_provinces_with_dwarves_tt
# 					calc_true_if = {
# 						all_owned_province = {
# 							has_dwarven_minority_trigger = yes
# 						}
# 						all_owned_province = {
# 							has_dwarven_majority_trigger = yes
# 						}
# 						amount = 15
# 					}
# 				}
# 			}
# 		}

# 		effect = {
# 			country_event = {
# 				id = allclan.5
# 			}
# 		}
# 	}

# 	g_the_place_of_orcs = {
# 		icon = adjust_the_general_means
# 		position = 2
# 		required_missions = {
# 		}
# 		trigger = {
# 			is_at_war = no
# 			has_any_disaster = no
# 			OR = {
# 				high_tolerance_orcish_race_trigger = yes
# 				has_country_modifier = racial_pop_orcish_purge
# 				has_country_modifier = racial_pop_orcish_expulsion
# 				custom_trigger_tooltip = {
# 					tooltip = own_15_provinces_with_orcs_tt
# 					calc_true_if = {
# 						all_owned_province = {
# 							has_orcish_minority_trigger = yes
# 						}
# 						all_owned_province = {
# 							has_orcish_majority_trigger = yes
# 						}
# 						amount = 15
# 					}
# 				}
# 			}
# 		}

# 		effect = {
# 			country_event = {
# 				id = allclan.6
# 			}
# 		}
# 	}

# 	g_the_place_of_kobolds = {
# 		icon = adjust_the_general_means
# 		position = 3
# 		required_missions = {
# 		}
# 		trigger = {
# 			is_at_war = no
# 			has_any_disaster = no
# 			OR = {
# 				high_tolerance_kobold_race_trigger = yes
# 				has_country_modifier = racial_pop_kobold_purge
# 				has_country_modifier = racial_pop_kobold_expulsion
# 				custom_trigger_tooltip = {
# 					tooltip = own_15_provinces_with_kobolds_tt
# 					calc_true_if = {
# 						all_owned_province = {
# 							has_kobold_minority_trigger = yes
# 						}
# 						all_owned_province = {
# 							has_kobold_majority_trigger = yes
# 						}
# 						amount = 15
# 					}
# 				}
# 			}
# 		}

# 		effect = {
# 			country_event = {
# 				id = allclan.7
# 			}
# 		}
# 	}

# 	g_goblins_are_great = {
# 		icon = mission_empire
# 		position = 4
# 		required_missions = {

# 		}
# 		trigger = {
# 			NOT = { great_power_rank = 2 }
# 		}

# 		effect = {
# 			add_prestige = 10
# 			add_republican_tradition = 10
# 			allclan_tension_good_big = yes
# 		}
# 	}

# 	g_reinforcing_goblin_hegemony = {
# 		icon = balance_of_power
# 		position = 5
# 		required_missions = {
# 			g_serpentspine_diplomacy
# 			g_goblins_are_great
# 		}
# 		trigger = {
# 			custom_trigger_tooltip = {
# 				tooltip = made_a_decision_on_how_other_races_are_treated_in_the_allclan_tt
# 				mission_completed = g_the_place_of_dwarves
# 				mission_completed = g_the_place_of_kobolds
# 				mission_completed = g_the_place_of_orcs
# 			}
# 			NOT = {
# 				any_known_country = {
# 					same_continent = FROM
# 					OR = {
# 						total_development = FROM
# 						army_size = FROM
# 						monthly_income = FROM
# 					}
# 				}
# 			}
# 		}

# 		effect = {
# 			add_splendor = 200
# 			swap_non_generic_missions = yes
# 		}
# 	}
# }

# g_allclan_base_column_5 = {
# 	slot = 5
# 	generic = no
# 	ai = yes
# 	potential = {        
# 		tag = I98
# 	}
# 	has_country_shield = yes

# 	g_our_mountains = {
# 		icon = mission_junnagadh_fort
# 		position = 1
# 		required_missions = {

# 		}
# 		trigger = {
# 			capital_scope = {
# 				region_for_scope_province = {
# 					is_core = FROM
# 					owned_by = FROM
# 					type = all
# 				}
# 			}
# 		}

# 		effect = {
# 			add_prestige = 10
# 			serpentspine = {
# 				add_permanent_claim = FROM
# 			}
# 			allclan_tension_bad_big = yes
# 		}
# 	}

# 	g_the_expansive_underempire = {
# 		icon = mission_the_grand_trunk_road_bng
# 		position = 2
# 		required_missions = {
# 			g_our_mountains
# 		}
# 		trigger = {
# 			west_serpentspine_superregion = {
# 				is_core = FROM
# 				owned_by = FROM
# 				type = all
# 			}
# 		}

# 		effect = {
# 			add_prestige = 100
# 			add_splendor = 100
# 			add_adm_power = 200
# 			add_dip_power = 200
# 			add_mil_power = 200
# 			allclan_tension_bad_big = yes
# 		}
# 	}

# 	g_a_goblin_serpentspine = {
# 		icon = mission_treasure_room
# 		position = 3
# 		required_missions = {
# 			g_the_expansive_underempire
# 		}
# 		trigger = {
# 			serpentspine = {
# 				is_core = FROM
# 				owned_by = FROM
# 				type = all
# 			}
# 		}

# 		effect = {
# 			add_prestige = 200
# 			add_splendor = 500
# 			add_adm_power = 300
# 			add_dip_power = 300
# 			add_mil_power = 300
# 			allclan_tension_bad_big = yes
# 		}
# 	}

# 	#secure ourselves
# 	g_serpentspine_diplomacy = {
# 		icon = mission_missive
# 		position = 4
# 		required_missions = {
# 		}
# 		trigger = {
# 			is_at_war = no
# 			has_any_disaster = no
# 			OR = {
# 				any_ally = {
# 					same_continent = FROM
# 					OR = {
# 						primary_culture = cave_goblin
# 						AND = {
# 							FROM = { medium_tolerance_orcish_race_trigger = yes }
# 							primary_culture = black_orc
# 						}
# 						AND = {
# 							FROM = { medium_tolerance_dwarven_race_trigger = yes }
# 							culture_group = dwarven
# 						}
# 						AND = {
# 							FROM = { medium_tolerance_kobold_race_trigger = yes }
# 							culture_group = kobold
# 						}
# 					}
# 				}
# 				NOT = {
# 					any_known_country = {
# 						same_continent = FROM
# 						total_development = FROM
# 					}
# 				}
# 			}
# 		}

# 		effect = {
# 			add_stability = 1
# 			if = {
# 				limit = {
# 					NOT = {
# 						any_known_country = {
# 							same_continent = FROM
# 							total_development = FROM
# 						}
# 					}
# 				}
# 				add_prestige = 10
# 			}
# 			every_ally = {
# 				limit = {
# 					same_continent = FROM
# 					OR = {
# 						primary_culture = cave_goblin
# 						if = {
# 							limit = {
# 								medium_tolerance_orcish_race_trigger = yes
# 							}
# 							primary_culture = black_orc
# 						}
# 						if = {
# 							limit = {
# 								medium_tolerance_dwarven_race_trigger = yes
# 							}
# 							culture_group = dwarven
# 						}
# 						if = {
# 							limit = {
# 								medium_tolerance_kobold_race_trigger = yes
# 							}
# 							culture_group = kobold
# 						}
# 					}
# 				}
# 				add_spy_network_from = {
# 					who = FROM
# 					value = 100
# 				}
# 				add_trust = {
# 					who = FROM
# 					value = 10
# 					#mutual = yes
# 				}
# 			}
# 		}
# 	}
# }

# #new missions 1

# g_allclan_new_column_1 = {
# 	slot = 1
# 	generic = no
# 	ai = yes
# 	potential = {        
# 		tag = I98
# 		#has_country_flag = allclan_missions_1
# 	}
# 	has_country_shield = yes

# 	g_the_capital_of_goblinkind = {
# 		icon = mission_colonial
# 		position = 6
# 		required_missions = {
# 			g_forward_goblinkind
# 		}
# 		trigger = {
# 			is_at_war = no
# 			has_any_disaster = no
# 			allclan_not_pursuing_major_project = yes
# 			capital_scope = {
# 				development = 100
# 			}
# 		}

# 		effect = {
# 			country_event = {
# 				id = allclan.17
# 			}
# 			allclan_tension_bad_big = yes
# 		}
# 	}

# 	g_election_reform = {
# 		icon = reform_the_nomocanon
# 		position = 7
# 		required_missions = {
# 			g_the_capital_of_goblinkind
# 		}
# 		trigger = {
# 			is_at_war = no
# 			has_any_disaster = no
# 			republican_tradition = 100
# 			stability = 3
# 			OR = {
# 				has_reform = allclan_technocratic_exams_reform
# 				has_reform = allclan_reformists_exams_reform
# 				has_reform = allclan_bidding_for_offices_reform
# 			}
# 		}

# 		effect = {
# 			country_event = {
# 				id = allclan.21
# 			}
# 			add_republican_tradition = -20
# 			add_stability = -3
# 			allclan_tension_good_small = yes
# 		}
# 	}

# 	g_the_shape_of_our_society = {
# 		icon = immaculate_government
# 		position = 8
# 		required_missions = {
# 			g_election_reform
# 		}
# 		trigger = {
# 			is_at_war = no
# 			has_any_disaster = no
# 			government_reform_progress = 150
# 			custom_trigger_tooltip = {
# 				tooltip = has_not_had_a_council_disturbance_tt
# 				NOT = {
# 					has_country_flag = had_council_disturbance
# 				}
# 			}
# 			OR = {
# 				has_reform = allclan_technocrat_values
# 				has_reform = allclan_reformist_values
# 				has_reform = allclan_cartel_values
# 			}
# 		}

# 		effect = {
# 			if = {
# 				limit = {
# 					has_reform = allclan_technocrat_values
# 				}
# 				custom_tooltip = council_disturbance_resistance_tt
# 				add_country_modifier = {
# 					name = allclan_technocrat_society
# 					duration = -1
# 				}
# 			}
# 			if = {
# 				limit = {
# 					has_reform = allclan_reformist_values
# 				}
# 				custom_tooltip = council_disturbance_resistance_tt
# 				add_country_modifier = {
# 					name = allclan_reformist_society
# 					duration = -1
# 				}
# 			}
# 			if = {
# 				limit = {
# 					has_reform = allclan_cartel_values
# 				}
# 				custom_tooltip = council_disturbance_resistance_tt
# 				add_country_modifier = {
# 					name = allclan_cartel_society
# 					duration = -1
# 				}
# 			}
# 			allclan_tension_bad_big = yes
# 		}
# 	}
# }

# g_allclan_new_column_2 = {
# 	slot = 2
# 	generic = no
# 	ai = yes
# 	potential = {        
# 		tag = I98
# 		#has_country_flag = allclan_missions_1
# 	}
# 	has_country_shield = yes

# 	g_advancing_our_government = {
# 		icon = catholic_confraternity
# 		position = 6
# 		required_missions = {
# 			g_forward_goblinkind
# 		}
# 		trigger = {
# 			is_at_war = no
# 			has_any_disaster = no
# 			OR = {
# 				has_reform = allclan_technocratic_cabinet_reform
# 				has_reform = allclan_life_appointment_cabinet_reform
# 				has_reform = allclan_cartel_cabinet_reform
# 			}
# 		}

# 		effect = {
# 			add_stability = 1
# 			add_republican_tradition = 5
# 			allclan_tension_bad_small = yes
# 		}
# 	}

# 	g_a_proven_council = {
# 		icon = invade_poland
# 		position = 7
# 		required_missions = {
# 			g_advancing_our_government
# 		}
# 		trigger = {
# 			is_at_war = no
# 			has_any_disaster = no
# 			custom_trigger_tooltip = {
# 				tooltip = resolved_5_major_debates_tt
# 				check_variable = {
# 					which = allclan_debate_variable
# 					value = 5
# 				}
# 			}
# 		}

# 		effect = {
# 			add_splendor = 100
# 			add_republican_tradition = 10
# 			allclan_tension_good_big = yes
# 		}
# 	}

# 	g_a_goblin_success_story = {
# 		icon = all_bases_covered
# 		position = 8
# 		required_missions = {
# 			g_a_proven_council
# 		}
# 		trigger = {
# 			is_at_war = no
# 			has_any_disaster = no
# 			custom_trigger_tooltip = {
# 				tooltip = has_not_had_a_council_disturbance_tt
# 				NOT = {
# 					has_country_flag = had_council_disturbance
# 				}
# 			}
# 			custom_trigger_tooltip = {
# 				tooltip = resolved_15_major_debates_tt
# 				check_variable = {
# 					which = allclan_debate_variable
# 					value = 15
# 				}
# 			}
# 		}

# 		effect = {
# 			add_country_modifier = {
# 				name = allclan_effective_council
# 				duration = -1
# 			}
# 			allclan_tension_good_big = yes
# 		}
# 	}

# 	g_the_greatest_of_all_governments = {
# 		icon = imperial_ascendancy
# 		position = 9
# 		required_missions = {
# 			g_a_goblin_success_story
# 		}
# 		trigger = {
# 			is_at_war = no
# 			has_any_disaster = no
# 			custom_trigger_tooltip = {
# 				tooltip = has_not_had_a_council_distrubance_tt
# 				NOT = {
# 					has_country_flag = had_council_disturbance
# 				}
# 			}
# 			custom_trigger_tooltip = {
# 				tooltip = resolved_30_major_debates_tt
# 				check_variable = {
# 					which = allclan_debate_variable
# 					value = 30
# 				}
# 			}
# 		}

# 		effect = {
# 			add_country_modifier = {
# 				name = allclan_glory
# 				duration = -1
# 			}
# 			allclan_tension_good_big = yes
# 		}
# 	}
# }

# g_allclan_new_column_3 = {
# 	slot = 3
# 	generic = no
# 	ai = yes
# 	potential = {        
# 		tag = I98
# 		#has_country_flag = allclan_missions_1
# 	}
# 	has_country_shield = yes

# 	g_the_goblins_of_the_tree_of_stone = {
# 		icon = mission_diplomacy_missive
# 		position = 6
# 		required_missions = {
# 			g_reinforcing_goblin_hegemony
# 			g_forward_goblinkind
# 		}
# 		trigger = {
# 			is_at_war = no
# 			has_any_disaster = no
# 			OR = {
# 				reverse_has_opinion = {
# 					who = H88
# 					value = 100
# 				}
# 				reverse_has_opinion = {
# 					who = H92
# 					value = 100
# 				}
# 				reverse_has_opinion = {
# 					who = H93
# 					value = 100
# 				}
# 				reverse_has_opinion = {
# 					who = H74
# 					value = 100
# 				}
# 				reverse_has_opinion = {
# 					who = I99
# 					value = 100
# 				}
# 			}
# 		}

# 		effect = {
# 			#demand vassalage or tribute or cooperation
# 			country_event = {
# 				id = allclan.14
# 			}
# 		}
# 	}

# 	g_emissary_to_the_triarchy = {
# 		icon = mission_missive
# 		position = 7
# 		required_missions = {
# 		}
# 		trigger = {
# 			is_at_war = no
# 			has_any_disaster = no
# 			mission_completed = g_reinforcing_goblin_hegemony
# 			mission_completed = g_forward_goblinkind
# 			OR = {
# 				reverse_has_opinion = {
# 					who = H32
# 					value = 175
# 				}
# 				#reverse_has_opinion = {
# 				#	who = H32 #triarchy
# 				#	value = 100
# 				#}
# 			}
# 		}

# 		effect = {
# 			country_event = {
# 				id = allclan.15
# 			}
# 		}
# 	}

# 	g_the_goblins_of_the_deepwoods = {
# 		icon = mission_missive
# 		position = 8
# 		required_missions = {
# 		}
# 		trigger = {
# 			is_at_war = no
# 			has_any_disaster = no
# 			mission_completed = g_reinforcing_goblin_hegemony
# 			mission_completed = g_forward_goblinkind
# 			any_known_country = {
# 				culture_group = goblin
# 				capital_scope = {
# 					superregion = deepwoods_superregion
# 				}
# 				has_opinion = {
# 					who = FROM
# 					value = 175
# 				}
# 			}
# 		}

# 		effect = {
# 			country_event = {
# 				id = allclan.18
# 			}
# 		}
# 	}

# 	g_the_goblins_of_escann = {
# 		icon = mission_missive
# 		position = 9
# 		required_missions = {
# 		}
# 		trigger = {
# 			is_at_war = no
# 			has_any_disaster = no
# 			mission_completed = g_reinforcing_goblin_hegemony
# 			mission_completed = g_forward_goblinkind
# 			any_known_country = {
# 				culture_group = goblin
# 				capital_scope = {
# 					OR = {
# 						superregion = escann_superregion
# 						superregion = gerudia_superregion
# 					}
# 				}
# 				has_opinion = {
# 					who = FROM
# 					value = 175
# 				}
# 			}
# 		}

# 		effect = {
# 			country_event = {
# 				id = allclan.19
# 			}
# 		}
# 	}

# 	g_the_goblins_of_bulwar = {
# 		icon = mission_missive
# 		position = 10
# 		required_missions = {
# 		}
# 		trigger = {
# 			is_at_war = no
# 			has_any_disaster = no
# 			mission_completed = g_reinforcing_goblin_hegemony
# 			mission_completed = g_forward_goblinkind
# 			any_known_country = {
# 				culture_group = goblin
# 				capital_scope = {
# 					superregion = bulwar_superregion
# 				}
# 				has_opinion = {
# 					who = FROM
# 					value = 175
# 				}
# 			}
# 		}

# 		effect = {
# 			country_event = {
# 				id = allclan.20
# 			}
# 		}
# 	}
# }

# g_allclan_kobold_second_class_4 = {
# 	slot = 4
# 	generic = no
# 	ai = yes
# 	potential = {        
# 		tag = I98
# 		#has_country_flag = allclan_missions_1
# 		has_country_modifier = second_class_kobolds
# 	}
# 	has_country_shield = yes

# 	g_move_the_kobolds_to_live_alongside_us = {
# 		icon = mission_sio_european_trade 
# 		position = 6
# 		required_missions = {
# 		}
# 		trigger = {
# 			treasury = 5000
# 			dip_power = 200
# 			high_tolerance_kobold_race_trigger = yes
# 			is_at_war = no
# 			has_any_disaster = no
# 		}

# 		effect = {
# 			add_treasury = -5000
# 			add_dip_power = -200
# 			every_owned_province = {
# 				limit = {
# 					has_kobold_majority_trigger = yes
# 				}
# 				change_culture = cave_goblin
# 				change_religion = ROOT
# 				add_kobold_minority_size_effect = yes
# 			}
# 			every_owned_province = {
# 				limit = {
# 					has_terrain = dwarven_hold
# 					has_terrain = dwarven_hold_surface
# 				}
# 				add_kobold_minority_size_effect = yes
# 			}
# 			allclan_tension_bad = yes
# 		}
# 	}

# 	g_the_future_of_kobolds_within_ves_udzenklan = {
# 		icon = contracts_of_correspondence
# 		position = 7
# 		required_missions = {
# 			g_move_the_kobolds_to_live_alongside_us
# 		}
# 		trigger = {
# 			allclan_not_pursuing_major_project = yes
# 			high_tolerance_kobold_race_trigger = yes
# 			is_at_war = no
# 			has_any_disaster = no
# 		}

# 		effect = {
# 			country_event = {
# 				id = allclan.8
# 			}
# 		}
# 	}
# }

# g_allclan_orc_ghettos_4 = {
# 	slot = 4
# 	generic = no
# 	ai = yes
# 	potential = {        
# 		tag = I98
# 		#has_country_flag = allclan_missions_1
# 		has_country_modifier = ghettoized_orcs
# 	}
# 	has_country_shield = yes

# 	g_pacifying_the_orcs = {
# 		icon = mission_ghost_town
# 		position = 8
# 		required_missions = {
# 		}
# 		provinces_to_highlight = {
# 			OR = {
# 				has_orcish_majority_trigger = yes
# 				has_orcish_minority_trigger = yes
# 			}
# 			unrest = 1
# 			owned_by = ROOT
#         }
# 		trigger = {
# 			is_at_war = no
# 			has_any_disaster = no
# 			NOT = {
# 				num_of_rebel_armies = 1
# 				num_of_rebel_controlled_provinces = 1
# 			}
# 			custom_trigger_tooltip = {
# 				tooltip = no_orc_province_has_unrest_and_no_independent_orcs_tt
# 				NOT = {
# 					any_owned_province = {
# 						OR = {
# 							has_orcish_majority_trigger = yes
# 							has_orcish_minority_trigger = yes
# 						}
# 						unrest = 1
# 					}
# 					any_known_country = {
# 						same_continent = FROM
# 						primary_culture = black_orc
# 					}
# 				}
# 			}
# 		}

# 		effect = {
# 			add_mil_power = 25
# 		}
# 	}

# 	g_creating_farms_for_the_orcs = {
# 		icon = prosper_in_piedmont
# 		position = 9
# 		required_missions = {
# 			g_pacifying_the_orcs
# 		}
# 		trigger = {
# 			is_at_war = no
# 			has_any_disaster = no
# 			any_owned_province = {
# 				has_province_modifier = dwarovar_granary
# 			}
# 		}

# 		effect = {
# 			add_stability = 1
# 		}
# 	}

# 	g_getting_the_labor_to_the_farms = {
# 		icon = mission_expel_the_moriscos
# 		position = 10
# 		required_missions = {
# 			g_creating_farms_for_the_orcs
# 		}
# 		trigger = {
# 			has_reform = nezkaru_council_reform
# 			is_at_war = no
# 			has_any_disaster = no
# 		}

# 		effect = {
# 			country_event = {
# 				id = allclan.10
# 			}
# 		}
# 	}
# }

# g_allclan_dwarf_ghettos_4 = {
# 	slot = 5
# 	generic = no
# 	ai = yes
# 	potential = {        
# 		tag = I98
# 		#has_country_flag = allclan_missions_1
# 		has_country_modifier = ghettoized_dwarves
# 	}
# 	has_country_shield = yes

# 	g_rounding_up_the_dwarfs_in_our_holds = {
# 		icon = mission_smith
# 		position = 6
# 		required_missions = {
# 		}
# 		provinces_to_highlight = {
# 			OR = {
# 				has_terrain = dwarven_hold
# 				has_terrain = dwarven_hold_surface
# 			}
# 			OR = {
# 				has_dwarven_majority_trigger = yes
# 				has_dwarven_minority_trigger = yes
# 			}
# 			unrest = 1
# 			owned_by = ROOT
#         }
# 		trigger = {
# 			has_reform = nezkaru_council_reform
# 			is_at_war = no
# 			has_any_disaster = no
# 			OR = {
# 				custom_trigger_tooltip = {
# 					tooltip = no_dwarf_holds_with_dwarfs_have_unrest_or_rebels_tt
# 					NOT = {
# 						any_owned_province = {
# 							OR = {
# 								has_terrain = dwarven_hold
# 								has_terrain = dwarven_hold_surface
# 							}
# 							OR = {
# 								has_dwarven_majority_trigger = yes
# 								has_dwarven_minority_trigger = yes
# 							}
# 							unrest = 1
# 						}
# 						num_of_rebel_armies = 1
# 						num_of_rebel_controlled_provinces = 1
# 					}
# 				}
# 				NOT = {
# 					any_owned_province = {
# 						OR = {
# 							has_terrain = dwarven_hold
# 							has_terrain = dwarven_hold_surface
# 						}
# 						OR = {
# 							has_dwarven_majority_trigger = yes
# 							has_dwarven_minority_trigger = yes
# 						}
# 					}
# 				}
# 			}
# 		}

# 		effect = {
# 			custom_tooltip = we_will_begin_placing_dwarfs_in_holds_in_ghettos_tt
# 			hidden_effect = {
# 				set_country_flag = allclan_dwarf_ghetto_placement
# 			}
# 		}
# 	}

# 	g_making_the_dwarfs_a_minorty_everywhere = {
# 		icon = bavarian_cultural_dominance
# 		position = 7
# 		required_missions = {
# 			g_rounding_up_the_dwarfs_in_our_holds
# 		}
# 		trigger = {
# 			is_at_war = no
# 			has_any_disaster = no
# 			allclan_not_pursuing_major_project = yes
# 			NOT = {
# 				num_of_rebel_armies = 1
# 				num_of_rebel_controlled_provinces = 1
# 			}
# 			OR = {
# 				any_owned_province = {
# 					has_dwarven_majority_trigger = yes
# 					NOT = { unrest = 1 }
# 				}
# 				NOT = {
# 					any_owned_province = {
# 						has_dwarven_majority_trigger = yes
# 					}
# 				}
# 			}
# 		}

# 		effect = {
# 			country_event = {
# 				id = allclan.12
# 			}
# 		}
# 	}

# 	g_dominating_dwarves = {
# 		icon = mission_have_two_subjects
# 		position = 8
# 		required_missions = {
# 			g_making_the_dwarfs_a_minorty_everywhere
# 		}
# 		trigger = {
# 			is_at_war = no
# 			has_any_disaster = no
# 			#allclan_not_pursuing_major_project = yes
# 			NOT = {
# 				any_known_country = {
# 					same_continent = FROM
# 					culture_group = dwarven
# 					total_development = 100
# 				}
# 			}
# 		}

# 		effect = {
# 			every_owned_province = {
# 				limit = {
# 					OR = {
# 						has_dwarven_majority_trigger = yes
# 						has_dwarven_minority_trigger = yes
# 					}
# 				}
# 				add_province_modifier = {
# 					name = allclan_dwarves_demoralized #dwarves are not actually demoralized. they're just stayign quiet while they plan shit
# 					duration = 7300
# 				}
# 			}
# 			allclan_tension_good = yes
# 		}
# 	}
# }

# g_allclan_new_column_5 = {
# 	slot = 5
# 	generic = no
# 	ai = yes
# 	potential = {        
# 		tag = I98
# 		#has_country_flag = allclan_missions_1
# 	}
# 	has_country_shield = yes

# 	g_building_a_rocket_test_site = {
# 		icon = mission_se_medicine_wheel
# 		position = 9
# 		required_missions = {

# 		}
# 		trigger = {
# 			is_at_war = no
# 			has_any_disaster = no
# 			has_reform = nezkaru_council_reform
# 			OR = {
# 				owns = 4020
# 				owns = 4124
# 				owns = 2942
# 			}
# 		}

# 		effect = {
# 			#choice between observatory hold, shazstundihr, or hul seghdhir
# 			country_event = {
# 				id = allclan.27
# 				days = 1
# 			}
# 		}
# 	}

# 	g_the_first_test = {
# 		icon = mission_burning_man
# 		position = 10
# 		required_missions = {
# 			g_building_a_rocket_test_site
# 		}
# 		trigger = {
# 			is_at_war = no
# 			has_any_disaster = no
# 		}

# 		effect = {
# 			country_event = {
# 				id = allclan.28
# 				days = 50
# 				random = 500
# 			}
# 		}
# 	}

# 	g_rocketry_ambitions = {
# 		icon = mission_star_comet
# 		position = 11
# 		required_missions = {
# 			g_the_first_test
# 		}
# 		trigger = {
# 			is_at_war = no
# 			has_any_disaster = no
# 			has_country_flag = allclan_first_test
# 			adm_power = 100
# 			dip_power = 100
# 			mil_power = 100
# 		}

# 		effect = {
# 			#unlock decisions to do more rocket launches
# 			country_event = {
# 				id = allclan.29
# 				days = 0
# 			}
# 		}
# 	}

# 	g_rockets_on_the_rails = {
# 		icon = mission_rb_prospect_for_coal
# 		position = 12
# 		required_missions = {
# 			g_rocketry_ambitions
# 		}
# 		trigger = {
# 			is_at_war = no
# 			has_any_disaster = no
# 			years_of_income = 2
# 			any_owned_province = {
# 				has_province_modifier = advanced_rail
# 			}
# 		}

# 		effect = {
# 			add_years_of_income = -2
# 			set_country_flag = can_make_rocket_rails
# 			custom_tooltip = can_make_rocket_rails_tt
# 			#unlock the decision to to make rocket rails
# 			#probably with a council choice
# 		}
# 	}

# 	g_the_hub_of_the_dwarovar = {
# 		icon = mission_rb_central_belt_coal_mining
# 		position = 13
# 		required_missions = {
# 			g_rockets_on_the_rails
# 		}
# 		trigger = {
# 			is_at_war = no
# 			has_any_disaster = no
# 			#own er-natvir and have the rails in the area rocket railed
# 			owns = 2931
# 			owns = 2986
# 			2986 = {
# 				has_province_modifier = rocket_rail
# 			}
# 			owns = 2988
# 			2988 = {
# 				has_province_modifier = rocket_rail
# 			}
# 			owns = 2876
# 			2876 = {
# 				has_province_modifier = rocket_rail
# 			}
# 		}

# 		effect = {
# 			2931 = {
# 				add_permanent_province_modifier = {
# 					name = allclan_rocket_rail_junction
# 					duration = -1
# 				}
# 			}
# 		}
# 	}

# 	g_tomaz_the_rocket_train = {
# 		icon = mission_mechanical_mining
# 		position = 17
# 		required_missions = {
# 			g_the_hub_of_the_dwarovar
# 		}
# 		trigger = {
# 			is_at_war = no
# 			has_any_disaster = no
# 			#have all the provinces between er-natvir and the harpylen dam rocket railed
# 			custom_trigger_tooltip = {
# 				tooltip = all_roads_between_ernatvir_and_hul_jorkad_have_rails
# 				calc_true_if = {
# 					all_owned_province = {
# 						has_terrain = dwarven_road
# 						has_province_modifier = rocket_rail
# 						OR = {
# 							province_id = 2876
# 							province_id = 4104
# 							province_id = 2932
# 							province_id = 2877
# 							province_id = 2937
# 							province_id = 2878
# 							province_id = 2879
# 							province_id = 2931
# 							province_id = 2880
# 						}
# 					}
# 				}
# 			}
# 			owns = 2963
# 			#also have the dam
# 			owns = 676
# 			676 = { has_province_modifier = the_harpylen_dam }
# 		}

# 		effect = {
# 			custom_tooltip = allclan_harpylen_dam_transport_tt
# 			2963 = {
# 				add_province_triggered_modifier = allclan_harpylen_dam_transport
# 			}
# 		}
# 	}

# 	g_the_serpentspine_express = {
# 		icon = mission_pue_chaco_roads
# 		position = 18
# 		required_missions = {
# 			g_tomaz_the_rocket_train
# 		}
# 		trigger = {
# 			is_at_war = no
# 			has_any_disaster = no
# 			custom_trigger_tooltip = {
# 				tooltip = all_roads_have_rockets
# 				all_owned_province = {
# 					OR = {
# 						AND = {
# 							has_terrain = dwarven_road
# 							has_province_modifier = rocket_rail
# 						}
# 						NOT = {
# 							has_terrain = dwarven_road
# 						}
# 					}
# 				}
# 			}
# 		}

# 		effect = {
# 			add_country_modifier = {
# 				name = allclan_railway_transport_boom
# 				duration = 7300
# 			}
# 		}
# 	}
# }

# g_allclan_new_column_4 = {
# 	slot = 4
# 	generic = no
# 	ai = yes
# 	potential = {        
# 		tag = I98
# 		#has_country_flag = allclan_missions_1
# 	}
# 	has_country_shield = yes

# 	g_the_model_of_a_new_dwarovar = {
# 		icon = mission_industria_sedera
# 		position = 12
# 		required_missions = {
# 		}
# 		trigger = {
# 			is_at_war = no
# 			has_any_disaster = no
# 			has_reform = nezkaru_council_reform
# 			has_institution = enlightenment
# 			coal = 1
# 		}

# 		effect = {
# 			country_event = {
# 				id = allclan.32
# 			}
# 		}
# 	}

# 	g_factory_farms = {
# 		icon = mission_rb_build_furnaces
# 		position = 13
# 		required_missions = {
# 			g_the_model_of_a_new_dwarovar
# 		}
# 		trigger = {
# 			is_at_war = no
# 			has_any_disaster = no
# 			custom_trigger_tooltip = {
# 				tooltip = 30_rails_have_rockets
# 				calc_true_if = {
# 					all_owned_province = {
# 						has_terrain = dwarven_road
# 						has_province_modifier = rocket_rail
# 					}
# 					amount = 30
# 				}
# 			}
# 		}

# 		effect = {
# 			custom_tooltip = allclan_factory_farm_mission_tt
# 			set_country_flag = allclan_factory_farms
# 			allclan_tension_good_big = yes
# 		}
# 	}

# 	g_industrial_cavern_quarrying = {
# 		icon = mission_sw_torquoise_mining
# 		position = 14
# 		required_missions = {
# 			g_factory_farms
# 		}
# 		trigger = {
# 			is_at_war = no
# 			has_any_disaster = no
# 			custom_trigger_tooltip = {
# 				tooltip = 30_rails_have_factory_farms
# 				calc_true_if = {
# 					all_owned_province = {
# 						has_terrain = dwarven_road
# 						has_province_modifier = rocket_rail
# 						OR = {
# 							has_province_modifier = allclan_factory_farm_food
# 							has_province_modifier = allclan_factory_farm_cash_crops
# 							has_province_modifier = allclan_factory_farm_spidersilk
# 						}
# 					}
# 					amount = 30
# 				}
# 			}
# 		}

# 		effect = {
# 			custom_tooltip = allclan_industrial_cavern_mission_tt
# 			set_country_flag = allclan_industrial_cavern_quarrying
# 			allclan_tension_good = yes
# 		}
# 	}

# 	g_artifice_mining = {
# 		icon = mission_delighted_mage
# 		position = 15
# 		required_missions = {
# 			g_industrial_cavern_quarrying
# 		}
# 		trigger = {
# 			is_at_war = no
# 			has_any_disaster = no

# 			calc_true_if = {
# 				desc = 30_caverns_have_factory_farms.tooltip
# 				all_owned_province = {
# 					has_terrain = cavern
# 					has_province_modifier = allclan_quarried_cavern
# 					OR = {
# 						has_province_modifier = allclan_factory_farm_food
# 						has_province_modifier = allclan_factory_farm_cash_crops
# 						has_province_modifier = allclan_factory_farm_spidersilk
# 					}
# 				}
# 				amount = 30
# 			}
# 		}

# 		effect = {
# 			custom_tooltip = allclan_artifice_mining_mission_tt
# 			set_country_flag = allclan_artifice_mining
# 			allclan_tension_bad = yes
# 		}
# 	}

# 	#g_mass_spidersilk_production = { #not really vibing this one
# 	#	icon = mission_fortify_rajputana
# 	#	position = 16
# 	#	required_missions = {
# 	#		g_artifice_mining
# 	#	}
# 	#	trigger = {
# 	#		is_at_war = no
# 	#		has_any_disaster = no
# 	#		has_country_modifier = allclan_spidersilk_marketing
# 	#	}
# #
# 	#	effect = {
# 	#		set_country_flag = allclan_mass_spidersilk_production
# 	#		allclan_tension_bad_big = yes
# 	#	}
# 	#}

# 	g_hold_mega_industry = {
# 		icon = industrialized_rhineland
# 		position = 17
# 		required_missions = {
# 			g_artifice_mining
# 		}
# 		trigger = {
# 			is_at_war = no
# 			has_any_disaster = no

# 			calc_true_if = {
# 				desc = 80_caverns_have_industry.tooltip
# 				all_owned_province = {
# 					has_terrain = cavern
# 					has_province_modifier = allclan_quarried_cavern
# 					OR = {
# 						has_province_modifier = allclan_factory_farm_food
# 						has_province_modifier = allclan_factory_farm_cash_crops
# 						has_province_modifier = allclan_factory_farm_spidersilk
# 						#mining
# 						has_province_modifier = allclan_allclan_artifice_mining_industrial_material							
# 						has_province_modifier = allclan_artifice_mining_salt							
# 						has_province_modifier = allclan_artifice_mining_glass							
# 						has_province_modifier = allclan_artifice_mining_gems							
# 						has_province_modifier = allclan_artifice_mining_artifice_material							
# 						has_province_modifier = allclan_artifice_mining_mithril
# 						has_province_modifier = allclan_artifice_mining_gold
# 					}
# 				}
# 				amount = 80
# 			}

# 			calc_true_if = {
# 			desc = 80_roads_have_industry.tooltip
# 				all_owned_province = {
# 					has_terrain = dwarven_road
# 					has_province_modifier = rocket_rail
# 					OR = {
# 						has_province_modifier = allclan_factory_farm_food
# 						has_province_modifier = allclan_factory_farm_cash_crops
# 						has_province_modifier = allclan_factory_farm_spidersilk
# 						#mining
# 						has_province_modifier = allclan_allclan_artifice_mining_industrial_material							
# 						has_province_modifier = allclan_artifice_mining_salt							
# 						has_province_modifier = allclan_artifice_mining_glass							
# 						has_province_modifier = allclan_artifice_mining_gems							
# 						has_province_modifier = allclan_artifice_mining_artifice_material								
# 						has_province_modifier = allclan_artifice_mining_mithril
# 						has_province_modifier = allclan_artifice_mining_gold
# 					}
# 				}
# 				amount = 80
# 			}
# 		}

# 		effect = {
# 			custom_tooltip = allclan_hold_mega_industry_mission_tt
# 			set_country_flag = allclan_hold_mega_industry
# 			allclan_tension_bad_big = yes
# 		}
# 	}

# 	g_the_dwarovar_for_goblins_by_goblins = {
# 		icon = mission_have_manufactories
# 		position = 18
# 		required_missions = {
# 			g_tomaz_the_rocket_traing
# 			g_hold_mega_industry
# 		}
# 		trigger = {
# 			is_at_war = no
# 			has_any_disaster = no
# 			custom_trigger_tooltip = {
# 				tooltip = all_caverns_have_industry
# 				all_owned_province = {
# 					has_terrain = cavern
# 					has_province_modifier = allclan_quarried_cavern
# 					OR = {
# 						has_province_modifier = allclan_factory_farm_food
# 						has_province_modifier = allclan_factory_farm_cash_crops
# 						has_province_modifier = allclan_factory_farm_spidersilk
# 						#mining
# 						has_province_modifier = allclan_allclan_artifice_mining_industrial_material						
# 						has_province_modifier = allclan_artifice_mining_salt							
# 						has_province_modifier = allclan_artifice_mining_glass							
# 						has_province_modifier = allclan_artifice_mining_gems							
# 						has_province_modifier = allclan_artifice_mining_artifice_material							
# 						has_province_modifier = allclan_artifice_mining_mithril
# 						has_province_modifier = allclan_artifice_mining_gold
# 					}
# 				}
# 			}
# 			custom_trigger_tooltip = {
# 				tooltip = all_roads_have_industry
# 				all_owned_province = {
# 					has_terrain = dwarven_road
# 					has_province_modifier = rocket_rail
# 					OR = {
# 						has_province_modifier = allclan_factory_farm_food
# 						has_province_modifier = allclan_factory_farm_cash_crops
# 						has_province_modifier = allclan_factory_farm_spidersilk
# 						#mining
# 						has_province_modifier = allclan_allclan_artifice_mining_industrial_material													
# 						has_province_modifier = allclan_artifice_mining_salt							
# 						has_province_modifier = allclan_artifice_mining_glass							
# 						has_province_modifier = allclan_artifice_mining_gems							
# 						has_province_modifier = allclan_artifice_mining_artifice_material							
# 						has_province_modifier = allclan_artifice_mining_mithril
# 						has_province_modifier = allclan_artifice_mining_gold
# 					}
# 				}
# 			}
# 			custom_trigger_tooltip = {
# 				tooltip = all_holds_have_industry
# 				all_owned_province = {
# 					OR = {
# 						has_terrain = dwarven_hold
# 						has_terrain = dwarven_hold_surface
# 					}
# 					has_province_modifier = allclan_hold_mega_industry
# 					OR = {
# 						has_province_modifier = allclan_factory_farm_food
# 						has_province_modifier = allclan_factory_farm_cash_crops
# 						has_province_modifier = allclan_factory_farm_spidersilk
# 						#mining
# 						has_province_modifier = allclan_allclan_artifice_mining_industrial_material						
# 						has_province_modifier = allclan_artifice_mining_salt							
# 						has_province_modifier = allclan_artifice_mining_glass							
# 						has_province_modifier = allclan_artifice_mining_gems							
# 						has_province_modifier = allclan_artifice_mining_artifice_material							
# 						has_province_modifier = allclan_artifice_mining_mithril
# 						has_province_modifier = allclan_artifice_mining_gold
# 					}
# 				}
# 			}
# 		}

# 		effect = {
# 			set_country_flag = allclan_finished_industrialization
# 			allclan_tension_bad_big = yes
# 			hidden_effect = {
# 				allclan_tension_bad_big = yes
# 				allclan_tension_bad_big = yes
# 				allclan_tension_bad_big = yes
# 				allclan_tension_bad_big = yes
# 			}
# 		}
# 	}

# 	g_the_golden_age_of_artifice = {
# 		icon = mission_mnd_maj_end_disaster
# 		position = 19
# 		required_missions = {
# 			g_the_dwarovar_for_goblins_by_goblins
# 			g_the_serpentspine_express
# 		}
# 		trigger = {
# 			is_at_war = no
# 			has_any_disaster = no
# 			is_institution_enabled = industrialization
# 		}

# 		effect = {
# 			add_country_modifier = {
# 				name = allclan_golden_age_of_artifice
# 				duration = 18250
# 			}
# 			if = {
# 				limit = {
# 					any_owned_province = {
# 						is_institution_origin = industrialization
# 					}
# 				}
# 				add_splendor = 800
# 				allclan_tension_good_big = yes
# 				hidden_effect = {
# 					allclan_tension_good_big = yes
# 				}
# 				every_owned_province = {
# 					add_institution_embracement = {
# 						which = industrialization
# 						value = 100
# 					}
# 				}
# 			}
# 			else = {
# 				add_splendor = 200
# 				allclan_tension_good_big = yes
# 				hidden_effect = {
# 					allclan_tension_good_big = yes
# 				}
# 				capital_scope = {
# 					add_institution_embracement = {
# 						which = industrialization
# 						value = 100
# 					}
# 				}
# 			}
# 		}
# 	}
# }

# g_allclan_technocrat_column_1 = {
# 	slot = 1
# 	generic = no
# 	ai = yes
# 	potential = {        
# 		tag = I98
# 	}
# 	has_country_shield = yes

# 	#technocrat missions
# 	g_murdering_meddling_mages = {
# 		icon = mission_assassination
# 		position = 11
# 		required_missions = {
# 		}
# 		trigger = {
# 			has_reform = nezkaru_council_reform
# 			is_at_war = no
# 			has_any_disaster = no
# 			faction_in_power = allclan_technocrats
# 			OR = {
# 				NOT = { has_estate = estate_mages }
# 				NOT = {
# 					estate_territory = {
# 						estate = estate_mages
# 						territory = 5
# 					}
# 				}
# 			}
# 		}

# 		effect = {
# 			add_country_modifier = {
# 				name = allclan_got_rid_of_mages
# 				duration = -1
# 			}
# 			if = {
# 				limit = {
# 					NOT = {
# 						has_country_modifier = expelled_mages
# 					}
# 				}
# 				add_country_modifier = { 
# 					name = expelled_mages 
# 					duration = 7300
# 				}
# 				set_country_flag = banned_magic
# 				if = {
# 					limit = {
# 						exists = A85
# 						has_estate_privilege = estate_mages_organization_magisterium
# 					}
# 					A85 = {
# 						add_opinion = {
# 							who = ROOT
# 							modifier = expelled_the_magisterium
# 							years = 20
# 						}
# 					}
# 				}
# 			}
			
# 			#gets rid of all mages advisors and stuffs in your country
# 			if = {
# 				limit = {
# 					advisor = court_mage
# 				}
# 				kill_advisor = court_mage
# 			}
# 			if = {
# 				limit = {
# 					#has_leader_with = { # Can't be used to check traits
# 					#	trait = war_wizard_personality
# 					#}
# 					num_of_generals_with_traits = 1
# 				}
# 				kill_leader  = {
# 					type = general
# 				}
# 			}
# 			mission_reward_artifice_points_1 = yes
# 			allclan_technocrat_boost_big = yes
# 			allclan_tension_bad_big = yes
# 		}
# 	}

# 	g_putting_the_right_guns_in_the_field = {
# 		icon = mission_gunpowder_warfare
# 		position = 13
# 		required_missions = {
# 			g_murdering_meddling_mages
# 		}
# 		trigger = {
# 			has_reform = nezkaru_council_reform
# 			is_at_war = no
# 			has_any_disaster = no
# 			faction_in_power = allclan_technocrats
# 			allclan_not_pursuing_major_project = yes
# 		}

# 		effect = {
# 			country_event = {
# 				id = allclan.16
# 			}
# 			mission_reward_artifice_points_1 = yes
# 			allclan_technocrat_boost_big = yes
# 			allclan_tension_bad_big = yes
# 		}
# 	}

# 	g_how_far_can_we_go = {
# 		icon = mission_cannons_firing
# 		position = 15
# 		required_missions = {
# 			g_putting_the_right_guns_in_the_field
# 		}
# 		trigger = {
# 			has_reform = nezkaru_council_reform
# 			is_at_war = no
# 			has_any_disaster = no
# 			faction_in_power = allclan_technocrats
# 			allclan_not_pursuing_major_project = yes
# 			has_country_modifier = allclan_rocket_ready
# 			#has_country_modifier = allclan_rocket_success
# 		}

# 		effect = {
# 			country_event = {
# 				id = allclan.22
# 			}
# 			mission_reward_artifice_points_1 = yes
# 			allclan_technocrat_boost_big = yes
# 			allclan_tension_bad_big = yes
# 		}
# 	}

# 	g_they_called_us_mad = {
# 		icon = mission_ramsteel_gunpowder
# 		position = 17
# 		required_missions = {
# 			g_how_far_can_we_go
# 		}
# 		trigger = {
# 			has_reform = nezkaru_council_reform
# 			is_at_war = no
# 			has_any_disaster = no
# 			faction_in_power = allclan_technocrats
# 			allclan_not_pursuing_major_project = yes
# 			mil_power = 800
# 		}

# 		effect = {
# 			add_country_modifier = {
# 				name = allclan_technocrat_pinnacle
# 				duration = -1
# 			}
# 			country_event = {
# 				id = allclan.26 #make the ultimate weapon
# 			}
# 			mission_reward_artifice_points_1 = yes
# 			allclan_technocrat_boost_big = yes
# 			allclan_tension_bad_big = yes
# 		}
# 	}
# }

# g_allclan_reformist_column_2 = {
# 	slot = 2
# 	generic = no
# 	ai = yes
# 	potential = {
# 		tag = I98
# 	}
# 	has_country_shield = yes

# 	#reformist missions
# 	g_ensuring_effective_enforcement = {
# 		icon = mission_shady_encounter
# 		position = 11
# 		required_missions = {
# 		}
# 		trigger = {
# 			has_reform = nezkaru_council_reform
# 			is_at_war = no
# 			has_any_disaster = no
# 			faction_in_power = allclan_reformists
# 			adm = 6
# 			dip = 6
# 			mil = 6
# 			absolutism = 25
# 			stability = 3
# 			republican_tradition = 90
# 			#should be a project?
# 		}

# 		effect = {
# 			add_republican_tradition = -15
# 			add_country_modifier = {
# 				name = allclan_reformist_enforcement
# 				duration = -1
# 			}
# 			allclan_reformist_boost_big = yes
# 			allclan_tension_bad_big = yes
# 		}
# 	}

# 	g_it_would_be_a_shame_if_something_happened_to_those_weapons = {
# 		icon = mission_armoury
# 		position = 13
# 		required_missions = {
# 			g_ensuring_effective_enforcement
# 		}
# 		trigger = {
# 			has_reform = nezkaru_council_reform
# 			is_at_war = no
# 			has_any_disaster = no
# 			faction_in_power = allclan_reformists
# 			mil_power = 100
# 			adm = 6
# 			dip = 6
# 			mil = 6
# 			absolutism = 40
# 			republican_tradition = 90
# 			NOT = {
# 				faction_influence = {
# 					faction = allclan_technocrats
# 					influence = 20
# 				}
# 				estate_territory = {
# 					estate = estate_artificers
# 					territory = 10
# 				}
# 			}
# 		}

# 		effect = {
# 			add_republican_tradition = -15
# 			add_mil_power = -100
# 			add_stability_or_adm_power = yes
# 			add_country_modifier = {
# 				name = allclan_technocrats_cowed
# 				duration = -1
# 			}
# 			allclan_technocrat_loss_big = yes
# 			custom_tooltip = the_technocrats_will_pay_us_homag_in_elections_tt
# 			allclan_reformist_boost_big = yes
# 			allclan_tension_bad_big = yes
# 		}
# 	}

# 	g_whats_a_little_money_between_friends = {
# 		icon = dominant_economy
# 		position = 15
# 		required_missions = {
# 			g_it_would_be_a_shame_if_something_happened_to_those_weapons
# 		}
# 		trigger = {
# 			has_reform = nezkaru_council_reform
# 			is_at_war = no
# 			has_any_disaster = no
# 			faction_in_power = allclan_reformists
# 			dip_power = 100
# 			adm = 6
# 			dip = 6
# 			mil = 6
# 			absolutism = 40
# 			republican_tradition = 90
# 			NOT = {
# 				faction_influence = {
# 					faction = allclan_cartels
# 					influence = 20
# 				}
# 				estate_territory = {
# 					estate = estate_burghers
# 					territory = 10
# 				}
# 			}
# 		}

# 		effect = {
# 			add_republican_tradition = -15
# 			add_dip_power = -100
# 			add_stability_or_adm_power = yes
# 			add_country_modifier = {
# 				name = allclan_cartels_cowed
# 				duration = -1
# 			}
# 			allclan_cartel_loss_big = yes
# 			custom_tooltip = the_cartels_will_pay_us_homage_in_elections_tt
# 			allclan_reformist_boost_big = yes
# 			allclan_tension_bad_big = yes
# 		}
# 	}

# 	g_for_the_good_of_all_goblinkind_i_must_have_that = {
# 		icon = mission_african_gold
# 		position = 17
# 		required_missions = {
# 			g_whats_a_little_money_between_friends
# 		}
# 		trigger = {
# 			has_reform = nezkaru_council_reform
# 			is_at_war = no
# 			has_any_disaster = no
# 			faction_in_power = allclan_reformists
# 			adm = 6
# 			dip = 6
# 			mil = 6
# 			absolutism = 75
# 			republican_tradition = 90
# 		}

# 		effect = {
# 			add_country_modifier = {
# 				name = allclan_reformist_pinnacle
# 				duration = -1
# 			}
# 			#get event to do propaganda campaign. At the end you gain a special bonus you get when you have a reformist leader in power
# 			country_event = {
# 				id = allclan.62
# 			}
# 			allclan_reformist_boost_big = yes
# 			allclan_tension_bad_big = yes
# 		}
# 	}
# }

# g_allclan_cartel_column_3 = {
# 	slot = 3
# 	generic = no
# 	ai = yes
# 	potential = {
# 		tag = I98        
# 	}
# 	has_country_shield = yes

# 	#cartel missions
# 	g_multilevel_marketing = {
# 		icon = medici_bank_ledgers
# 		position = 11
# 		required_missions = {
# 		}
# 		trigger = {
# 			has_reform = nezkaru_council_reform
# 			is_at_war = no
# 			has_any_disaster = no
# 			faction_in_power = allclan_cartels
# 			num_of_loans = 30
# 			NOT = { inflation = 5 }
# 		}

# 		effect = {
# 			add_country_modifier = {
# 				name = allclan_multilevel_marketing
# 				duration = -1
# 			}
# 			add_years_of_income = 5
# 			allclan_cartel_boost_big = yes
# 			allclan_tension_bad_big = yes
# 		}
# 	}

# 	g_drugs_are_good_business = {
# 		icon = mission_rb_colonise_spice_islands
# 		position = 13
# 		required_missions = {
# 			g_multilevel_marketing
# 		}
# 		trigger = {
# 			has_reform = nezkaru_council_reform
# 			is_at_war = no
# 			has_any_disaster = no
# 			faction_in_power = allclan_cartels
# 			allclan_not_pursuing_major_project = yes
# 		}

# 		effect = {
# 			#event to build a drug lab of your choice
# 			country_event = {
# 				id = allclan.69
# 			}
# 			allclan_cartel_boost_big = yes
# 			allclan_tension_bad_big = yes
# 		}
# 	}

# 	g_securing_sufficient_sources_of_stimulants = {
# 		icon = mission_che_botanical_exports
# 		position = 15
# 		required_missions = {
# 			g_drugs_are_good_business
# 		}
# 		trigger = {
# 			has_reform = nezkaru_council_reform
# 			is_at_war = no
# 			has_any_disaster = no
# 			faction_in_power = allclan_cartels
# 			OR = {
# 				trading_bonus = {
# 					trade_goods = coffee
# 					value = yes
# 				}
# 				any_ally = {
# 					#trading_bonus = {
# 					#	trade_goods = coffee
# 					#	value = yes
# 					#}
# 					production_leader = {
# 						trade_goods = coffee
# 					}
# 				}
# 			}
# 		}

# 		effect = {
# 			add_country_modifier = {
# 				name = allclan_stimulant_satisfaction
# 				duration = 3650
# 			}
# 			random_owned_province = {
# 				limit = {
# 					OR = {
# 						has_terrain = dwarven_hold
# 						has_terrain = dwarven_hold_surface
# 					}
# 				}
# 				add_permanent_province_modifier = {
# 					name = allclan_stimulant_clearing_house
# 					duration = -1
# 				}
# 			}
# 			allclan_cartel_boost_big = yes
# 			allclan_tension_bad_big = yes
# 		}
# 	}

# 	g_the_greatest_crime_is_not_stealing_from_yourself = {
# 		icon = mission_frozen_star
# 		position = 17
# 		required_missions = {
# 			g_securing_sufficient_sources_of_stimulants
# 		}
# 		trigger = {
# 			has_reform = nezkaru_council_reform
# 			is_at_war = no
# 			has_any_disaster = no
# 			faction_in_power = allclan_cartels
# 			allclan_not_pursuing_major_project = yes
# 			num_of_loans = 60
# 			NOT = { inflation = 10 }
# 			estate_loyalty = {
# 				estate = estate_burghers
# 				loyalty = 80
# 			}
# 		}

# 		effect = {
# 			add_country_modifier = {
# 				name = allclan_cartel_pinnacle
# 				duration = -1
# 			}
# 			#event to get a bunch of corruption and lose money, but you get a triggered province modifier giving you a major interest reduction
# 			country_event = {
# 				id = allclan.74
# 			}
# 			allclan_cartel_boost_big = yes
# 			allclan_tension_bad_big = yes
# 		}
# 	}
# }

# #emergency missions
# #orc uprising
# g_allclan_emergency_column_1 = {
# 	slot = 1
# 	generic = no
# 	ai = yes
# 	potential = {        
# 		has_any_disaster = yes
# 		has_country_modifier = allclan_orc_uprising_food_shortage
# 	}
# 	has_country_shield = yes

# 	g_emergency_food_supplies = {
# 		icon = mission_iroquois_food_surplus
# 		position = 9
# 		required_missions = {
# 		}
# 		trigger = {
# 			years_of_income = 2
# 			dip_power = 200
# 		}

# 		effect = {
# 			add_years_of_income = -2
# 			add_dip_power = -200

# 			every_owned_province = {
# 				add_nationalism = -2.5
# 			}
# 		}
# 	}

# 	g_reclaiming_the_vale_farms = {
# 		icon = mission_pue_irrigation_cannals
# 		position = 10
# 		required_missions = {
# 		}
# 		trigger = {
# 			NOT = {
# 				has_spawned_rebels = allclan_orc_insurgents_rebels
# 			}
# 			serpents_vale_region = {
# 				controlled_by = FROM
# 				type = all
# 			}
# 		}

# 		effect = {
# 			remove_country_modifier = allclan_orc_uprising_food_shortage
# 			add_stability = 1
# 		}
# 	}
# }

# #dwarf uprising
# g_allclan_emergency_column_2 = {
# 	slot = 2
# 	generic = no
# 	ai = yes
# 	potential = {        
# 		has_any_disaster = yes
# 		has_country_flag = dwarf_intifada
# 	}
# 	has_country_shield = yes

# 	g_flush_out_the_dwarves = {
# 		icon = mission_fire_judgement
# 		position = 9
# 		required_missions = {
# 		}
# 		trigger = {
# 			mil_power = 200
# 			any_owned_province = {
# 				has_province_modifier = allclan_dwarven_uprising
# 			}
# 		}

# 		effect = {
# 			add_mil_power = -200
# 			custom_tooltip = we_will_begin_flushing_out_the_dwarf_rebels_beware_their_numbers_tt #beware their stack size
# 			set_country_flag = allclan_flush_dwarves
# 		}
# 	}

# 	g_supressing_the_dwarven_revolt = {
# 		icon = mission_mounted_battle
# 		position = 10
# 		required_missions = {
# 		}
# 		trigger = {
# 			NOT = {
# 				has_spawned_rebels = allclan_dwarf_insurgents_rebels
# 			}
# 			all_owned_province = {
# 				NOT = {
# 					has_province_modifier = allclan_dwarven_uprising
# 				}
# 			}
# 		}

# 		effect = {
# 			add_stability = 1
# 			custom_tooltip = end_the_dwarven_uprisings_tt
# 			clr_country_flag = dwarf_intifada
# 		}
# 	}
# }

# #civil war missions
# g_allclan_kinstrife_column_1 = {
# 	slot = 1
# 	generic = no
# 	ai = yes
# 	potential = {        
# 		tag = I98
# 		has_disaster = great_kinstrife
# 	}
# 	has_country_shield = yes

# 	g_deploy_terror_weapons = {
# 		icon = mission_torch_fire
# 		position = 19
# 		required_missions = {
# 		}
# 		trigger = {
# 			mil_tech = 30
# 			mil_power = 200
# 			NOT = {
# 				has_country_modifier = allclan_military_disarray
# 			}
# 		}

# 		effect = {
# 			add_mil_power = -200
# 			custom_tooltip = we_will_be_able_to_deploy_gas_as_a_weapon_tt
# 			set_country_flag = allclan_gas_deployment
# 		}
# 	}

# 	g_reorganize_the_military = {
# 		icon = mission_assemble_an_army
# 		position = 20
# 		required_missions = {

# 		}
# 		trigger = {
# 			had_country_flag = {
# 				flag = allclan_kinstrife_started
# 				days = 1825
# 			}
# 			OR = {
# 				AND = {
# 					has_country_modifier = allclan_military_disarray
# 					mil_power = 800
# 					years_of_income = 3
# 					stability = 0
# 					NOT = {
# 						average_unrest = 10
# 					}
# 					custom_trigger_tooltip = {
# 						tooltip = allclan_not_solving_other_issue_tt
# 						NOT = {
# 							has_country_flag = allclan_solving_other_issue
# 						}
# 					}
# 				}
# 				NOT = {
# 					has_country_modifier = allclan_military_disarray
# 				}
# 			}
# 		}
		
# 		effect = {
# 			add_mil_power = -800
# 			add_years_of_income = -3
# 			custom_tooltip = we_will_begin_solving_the_military_issue_tt
# 			hidden_effect = {
# 				if = {
# 					limit = {
# 						check_variable = {
# 							which = AllclanTensionVariable
# 							value = 500
# 						}
# 					}
# 					country_event = {
# 						id = allclan.898
# 						days = 1460
# 						random = 730
# 					}
# 				}
# 				else_if = {
# 					limit = {
# 						check_variable = {
# 							which = AllclanTensionVariable
# 							value = 300
# 						}
# 					}
# 					country_event = {
# 						id = allclan.898
# 						days = 1095
# 						random = 730
# 					}
# 				}
# 				else = {
# 					country_event = {
# 						id = allclan.898
# 						days = 730
# 						random = 730
# 					}
# 				}
# 				set_country_flag = allclan_solving_other_issue
# 			}
# 		}
# 	}
# }

# g_allclan_kinstrife_column_2 = {
# 	slot = 2
# 	generic = no
# 	ai = yes
# 	potential = {        
# 		tag = I98
# 		has_disaster = great_kinstrife
# 	}
# 	has_country_shield = yes

# 	g_sieze_emergency_powers = {
# 		icon = empower_the_junkers
# 		position = 19
# 		required_missions = {

# 		}
# 		trigger = {
# 			NOT = {
# 				num_of_rebel_controlled_provinces = 1
# 				num_of_rebel_armies = 1
# 			}
# 		}
		
# 		effect = {
# 			country_event = {
# 				id = allclan.804
# 				days = 14
# 			}
# 		}
# 	}

# 	g_calm_the_bureaucrats = {
# 		icon = hand-picked_bureaucrats
# 		position = 20
# 		required_missions = {

# 		}
# 		trigger = {
# 			had_country_flag = {
# 				flag = allclan_kinstrife_started
# 				days = 1825
# 			}
# 			OR = {
# 				AND = {
# 					has_country_modifier = allclan_looting_bureaucrats
# 					adm_power = 800
# 					years_of_income = 3
# 					stability = 0
# 					NOT = {
# 						average_unrest = 10
# 					}
# 					custom_trigger_tooltip = {
# 						tooltip = allclan_not_solving_other_issue_tt
# 						NOT = {
# 							has_country_flag = allclan_solving_other_issue
# 						}
# 					}
# 				}
# 				NOT = {
# 					has_country_modifier = allclan_looting_bureaucrats
# 				}
# 			}
# 		}
		
# 		effect = {
# 			add_adm_power = -800
# 			add_years_of_income = -3
# 			custom_tooltip = we_will_begin_solving_the_bureaucrats_issue_tt
# 			hidden_effect = {
# 				if = {
# 					limit = {
# 						check_variable = {
# 							which = AllclanTensionVariable
# 							value = 500
# 						}
# 					}
# 					country_event = {
# 						id = allclan.897
# 						days = 1460
# 						random = 730
# 					}
# 				}
# 				else_if = {
# 					limit = {
# 						check_variable = {
# 							which = AllclanTensionVariable
# 							value = 300
# 						}
# 					}
# 					country_event = {
# 						id = allclan.897
# 						days = 1095
# 						random = 730
# 					}
# 				}
# 				else = {
# 					country_event = {
# 						id = allclan.897
# 						days = 730
# 						random = 730
# 					}
# 				}
# 				set_country_flag = allclan_solving_other_issue
# 			}
# 		}
# 	}

# 	g_one_clan_indivisible = {
# 		icon = kingdom_of_lombardy
# 		position = 21
# 		required_missions = {
# 			g_reorganize_the_military
# 			g_calm_the_bureaucrats
# 			g_restore_the_economy
# 		}
# 		trigger = {
# 			is_at_war = no
# 			NOT = {
# 				num_of_rebel_controlled_provinces = 1
# 				num_of_rebel_armies = 1
# 			}
# 			custom_trigger_tooltip = {
# 				tooltip = allclan_no_splinter_states_tt
# 				all_known_country = {
# 					NOT = {
# 						has_country_modifier = allclan_defeat_the_allclan
# 					}
# 				}
# 			}
# 		}
		
# 		effect = {
# 			remove_country_modifier = allclan_split
# 		}
# 	}

# 	g_the_final_victory = {
# 		icon = mission_impaled_soldies
# 		position = 22
# 		required_missions = {
# 			g_one_clan_indivisible
# 		}
# 		trigger = {
# 			NOT = {
# 				num_of_rebel_controlled_provinces = 1
# 				num_of_rebel_armies = 1
# 				average_unrest = 5
# 				custom_trigger_tooltip = {
# 					tooltip = allclan_has_unsolved_crisis_tt
# 					has_country_flag = dwarf_intifada
# 					has_country_modifier = allclan_orc_uprising_food_shortage
# 					has_country_flag = allclan_glf_rebels
# 					has_disaster = glf_uprising
# 				}
# 			}
# 			custom_trigger_tooltip = {
# 				tooltip = allclan_no_seperatism_no_splinter_states_tt
# 				all_owned_province = {
# 					NOT = {
# 						nationalism = 1
# 					}
# 				}
# 				all_known_country = {
# 					NOT = {
# 						has_country_modifier = allclan_defeat_the_allclan
# 					}
# 				}
# 			}
# 		}
		
# 		effect = {
# 			custom_tooltip = we_have_won_the_great_kinstrife_tt
# 			set_country_flag = ended_the_great_kinstrife
# 		}
# 	}
# }

# g_allclan_kinstrife_column_3 = {
# 	slot = 3
# 	generic = no
# 	ai = yes
# 	potential = {        
# 		tag = I98
# 		has_disaster = great_kinstrife
# 	}
# 	has_country_shield = yes

# 	g_emergency_treasury_measures = {
# 		icon = mission_entrepot_of_india
# 		position = 19
# 		required_missions = {
# 		}
# 		trigger = {
# 			dip_tech = 30
# 			dip_power = 200
# 			NOT = {
# 				has_country_modifier = allclan_economic_crisis
# 			}
# 		}

# 		effect = {
# 			add_dip_power = -200
# 			add_disaster_modifier = {
# 				name = allclan_emergency_taxes
# 				duration = -1
# 				disaster = great_kinstrife
# 			}
# 			add_loan = {
# 				interest_modifier = -1
# 				duration = 120
# 			}
# 			add_loan = {
# 				interest_modifier = 1
# 				duration = 120
# 			}
# 			add_loan = {
# 				interest_modifier = 1
# 				duration = 120
# 			}
# 		}
# 	}

# 	g_restore_the_economy = {
# 		icon = mission_establish_mint_towns
# 		position = 20
# 		required_missions = {

# 		}
# 		trigger = {
# 			had_country_flag = {
# 				flag = allclan_kinstrife_started
# 				days = 1825
# 			}
# 			OR = {
# 				AND = {
# 					has_country_modifier = allclan_economic_crisis
# 					dip_power = 800
# 					years_of_income = 3
# 					stability = 0
# 					NOT = {
# 						average_unrest = 10
# 					}
# 					custom_trigger_tooltip = {
# 						tooltip = allclan_not_solving_other_issue_tt
# 						NOT = {
# 							has_country_flag = allclan_solving_other_issue
# 						}
# 					}
# 				}
# 				NOT = {
# 					has_country_modifier = allclan_economic_crisis
# 				}
# 			}
# 		}
		
# 		effect = {
# 			add_dip_power = -800
# 			add_years_of_income = -3
# 			custom_tooltip = we_will_begin_solving_the_bureaucrats_issue_tt
# 			hidden_effect = {
# 				if = {
# 					limit = {
# 						check_variable = {
# 							which = AllclanTensionVariable
# 							value = 500
# 						}
# 					}
# 					country_event = {
# 						id = allclan.896
# 						days = 1460
# 						random = 730
# 					}
# 				}
# 				else_if = {
# 					limit = {
# 						check_variable = {
# 							which = AllclanTensionVariable
# 							value = 300
# 						}
# 					}
# 					country_event = {
# 						id = allclan.896
# 						days = 1095
# 						random = 730
# 					}
# 				}
# 				else = {
# 					country_event = {
# 						id = allclan.896
# 						days = 730
# 						random = 730
# 					}
# 				}
# 				set_country_flag = allclan_solving_other_issue
# 			}
# 		}
# 	}
# }