
country_decisions = {
	
	push_thunderfist_clan = {
		potential = {
			tag = R62
			exists = R63
		}
		allow = {
			is_at_war = no
			if = {
				limit = { ai = yes }
				NOT = {
					has_country_modifier = hobgoblin_thunderfist_enforcers
				}
			}
			dip_power = 150
			R63 = {
				is_subject_of = ROOT
				is_subject_of_type = slave_state
			}
			hidden_trigger = {
				NOT = { has_country_flag = command_move_menu_open_flag }
			}
		}
		effect = {
			country_event = { id = the_command.100 days = 0 }
			custom_tooltip = command_moving_slave_states_costs_dip_tt
		}
		ai_will_do = {
			factor = 1
		}
	}
	
	push_bloodsong_clan = {
		potential = {
			tag = R62
			exists = R64
		}
		allow = {
			is_at_war = no
			if = {
				limit = { ai = yes }
				NOT = {
					has_country_modifier = hobgoblin_bloodsong_advance_guard
				}
			}
			dip_power = 150
			R64 = {
				is_subject_of = ROOT
				is_subject_of_type = slave_state
			}
			hidden_trigger = {
				NOT = { has_country_flag = command_move_menu_open_flag }
			}
		}
		effect = {
			country_event = { id = the_command.101 days = 0 }
			custom_tooltip = command_moving_slave_states_costs_dip_tt
		}
		ai_will_do = {
			factor = 1
		}
	}

	command_implementing_the_10_reforms = {
		potential = {
			tag = R62
			has_country_flag = command_the_ten_reforms_flag
		}
		
		allow = {
			government_reform_progress = 25
			hidden_trigger = {
				NOT = { has_country_flag = command_the_ten_reforms_menu_open_flag }
			}
		}
	
		effect = {
			country_event = { id = the_command.41 }
		}
		
		ai_will_do = {
			factor = 1
		}
	}
	
	command_changing_the_curriculum = {
		potential = {
			tag = R62
			has_country_flag = command_school_curriculums_flag
		}
		
		allow = {
			adm_power = 50
			hidden_trigger = {
				NOT = { has_country_flag = command_school_curriculums_menu_open_flag }
			}
		}
		
		effect = {
			add_adm_power = -50
			country_event = { id = the_command.35 }
		}
		
		ai_will_do = {
			factor = 1
			modifier = {
				factor = 0
				always = yes
			} 
		}
	}
	
	command_army_powers = {
		potential = {
			tag = R62
			has_country_flag = R62_supply_the_kikunin_flag
		}
		
		allow = {
			hidden_trigger = {
				NOT = { has_country_flag = command_armies_menu_open }
			}
		}
		
		effect = {
			country_event = { id = the_command.310 }
		}
		
		ai_will_do = {
			factor = 1
			modifier = {
				factor = 0
				always = yes
			} 
		}
	}
	
	command_direct_the_chained_shamans = {
		potential = {
			tag = R62
			has_estate_privilege = artifice_invention_korashi_tuners
		}
		
		allow = {
			NOT = { has_country_modifier = magic_cooldown }
		}
		
		effect = {
			custom_tooltip = opens_magic_estate_menu_tt
			hidden_effect = {
				country_event = { id = magic_estate.1 }
				clr_country_flag = revoke_mage_estate_spells # Just in case
			}
		}
		
		ai_will_do = {
			factor = 1
			modifier = {
				factor = 0
				always = yes
			} 
		}
	}
	
	
	
	command_establish_new_chain_workshops = {
		potential = {
			tag = R62
			mission_completed = R62_extract_oni_secrets
			NOT = { has_country_flag = command_establish_new_chain_workshops_flag }
		}
		
		allow = {
			custom_trigger_tooltip = {
				tooltip = command_mastered_the_korashi_process_tt
				has_country_flag = command_mastered_the_korashi_process
			}
			faction_in_power = hob_boar_command
			num_of_provinces_owned_or_owned_by_non_sovereign_subjects_with = {
				value = 8
				OR = {
					region = demon_hills_region
					area = pharata_area
					area = sir_area
					trade_goods = damestear
				}
				has_production_building_trigger = yes
				has_building = mage_tower
			}
			4811 = {
				owned_by = ROOT
				base_production = 12
			}
		}
		
		effect = {
			command_change_korashi_supply = { increase = yes }
			set_country_flag = command_establish_new_chain_workshops_flag
		}
		
		ai_will_do = {
			factor = 1
		}
	}
	
	command_the_links_of_pikohyun = {
		potential = {
			tag = R62
			mission_completed = R62_extract_oni_secrets
			NOT = { has_country_flag = command_the_links_of_pikohyun_flag }
		}
		
		allow = {
			custom_trigger_tooltip = {
				tooltip = command_mastered_the_korashi_process_tt
				has_country_flag = command_mastered_the_korashi_process
			}
			faction_in_power = hob_lion_command
			natural_scientist = 3
			custom_trigger_tooltip = {
				tooltip = command_the_links_of_pikohyun_tt
				had_country_flag = {
					flag = command_mastered_the_korashi_process
					days = 3650
				}
			}
		}
		
		effect = {
			command_change_korashi_supply = { increase = yes }
			set_country_flag = command_the_links_of_pikohyun_flag
		}
		
		ai_will_do = {
			factor = 1
		}
	}
	
	command_the_office_for_the_regulation_of_volatile_resources = {
		potential = {
			tag = R62
			mission_completed = R62_extract_oni_secrets
			NOT = { has_country_flag = command_the_office_for_the_regulation_of_volatile_resources_flag }
		}
		
		allow = {
			custom_trigger_tooltip = {
				tooltip = command_mastered_the_korashi_process_tt
				has_country_flag = command_mastered_the_korashi_process
			}
			faction_in_power = hob_wolf_command
			adm_power = 100
			num_of_owned_provinces_with = {
				value = 30
				has_courthouse_building_trigger = yes
			}
			OR = {
				inquisitor = 2
				spymaster = 2
			}
			current_income_balance = 5
		}
		
		effect = {
			add_adm_power = -100
			command_change_korashi_supply = { increase = yes }
			set_country_flag = command_the_office_for_the_regulation_of_volatile_resources_flag
		}
		
		ai_will_do = {
			factor = 1
		}
	}

	command_insubordination_encircle_capital = {
		major = yes
		potential = {
			has_country_flag = insubordination_active_flag
			ai = no
			OR = {
				R67 = { capital_scope = { NOT = { has_province_flag = command_encircled_flag } } }
				R68 = { capital_scope = { NOT = { has_province_flag = command_encircled_flag } } }
				R69 = { capital_scope = { NOT = { has_province_flag = command_encircled_flag } } }
			}
		}
		provinces_to_highlight = {
			OR = {
				is_capital_of = R67
				is_capital_of = R68
				is_capital_of = R69
				any_neighbor_province = {
					OR = {
						is_capital_of = R67
						is_capital_of = R68
						is_capital_of = R69
					}
				}
			}
			NOT = { has_province_flag = command_encircled_flag }
			owner = {
				OR = {
					tag = R62
					tag = R67
					tag = R68
					tag = R69
				}
			}
		}
		allow = {
			custom_trigger_tooltip = {
				tooltip = command_encirclement_trigger_tt
				OR = {
					event_target:tiger_command_capital = {
						all_neighbor_province = {
							OR = {
								controlled_by = R62
								NOT = {
									OR = {
										owned_by = R62
										owned_by = R67
										owned_by = R68
										owned_by = R69 
									}
								}
							}
						}
						NOT = { has_province_flag = command_encircled_flag }
					}
					event_target:elephant_command_capital = {
						all_neighbor_province = {
							OR = {
								controlled_by = R62
								NOT = {
									OR = {
										owned_by = R62
										owned_by = R67
										owned_by = R68
										owned_by = R69 
									}
								}
							}
						}
						NOT = { has_province_flag = command_encircled_flag }
					}
					event_target:dragon_command_capital = {
						all_neighbor_province = {
							OR = {
								controlled_by = R62
								NOT = {
									OR = {
										owned_by = R62
										owned_by = R67
										owned_by = R68
										owned_by = R69 
									}
								}
							}
						}
						NOT = { has_province_flag = command_encircled_flag }
					}
				}
			}
			mil_power = 50
		}
		effect = {
			if = {
				limit = {
					event_target:tiger_command_capital = {
						all_neighbor_province = {
							OR = {
								controlled_by = R62
								NOT = {
									OR = {
										owned_by = R62
										owned_by = R67
										owned_by = R68
										owned_by = R69 
									}
								}
							}
						}
						NOT = { has_province_flag = command_encircled_flag }
					}
				}
				R67 = { command_weaken_capital = yes capital_scope = { set_province_flag = command_encircled_flag } }
				add_mil_power = -50
			}
			if = {
				limit = {
					event_target:elephant_command_capital = {
						all_neighbor_province = {
							OR = {
								controlled_by = R62
								NOT = {
									OR = {
										owned_by = R62
										owned_by = R67
										owned_by = R68
										owned_by = R69 
									}
								}
							}
						}
						NOT = { has_province_flag = command_encircled_flag }
					}
				}
				R68 = { command_weaken_capital = yes capital_scope = { set_province_flag = command_encircled_flag } }
				add_mil_power = -50
			}
			if = {
				limit = {
					event_target:dragon_command_capital = {
						all_neighbor_province = {
							OR = {
								controlled_by = R62
								NOT = {
									OR = {
										owned_by = R62
										owned_by = R67
										owned_by = R68
										owned_by = R69 
									}
								}
							}
						}
						NOT = { has_province_flag = command_encircled_flag }
					}
				}
				R69 = { command_weaken_capital = yes capital_scope = { set_province_flag = command_encircled_flag } }
				add_mil_power = -50
			}
		}
	}

	command_insubordination_river_bombard = {
		major = yes
		potential = {
			has_country_flag = insubordination_active_flag
			ai = no
			OR = {
				R67 = { capital_scope = { has_terrain = city_terrain } }
				R68 = {
					capital_scope = {
						OR = {
							has_terrain = city_terrain
							province_id = 4565
							province_id = 4559
						}
					}
				}
				R69 = { capital_scope = { has_terrain = city_terrain } }
			}
		}
		provinces_to_highlight = {
			OR = {
				province_id = event_target:tiger_command_upstream
				province_id = event_target:elephant_command_upstream
				province_id = event_target:dragon_command_upstream
			}
		}
		allow = {
			custom_trigger_tooltip = {
				tooltip = command_river_trigger_tt
				OR = {
					AND = {
						event_target:tiger_command_capital = { has_province_flag = command_encircled_flag NOT = { has_province_flag = command_destroyed_logistics_flag } }
						event_target:tiger_command_upstream = {
							controller = {
								OR = {
									tag = R62
									is_subject_of = R62
									NOT = {
										war_with = R62
									}
								}
							}
						}
					}
					AND = {
						event_target:elephant_command_capital = { has_province_flag = command_encircled_flag NOT = { has_province_flag = command_destroyed_logistics_flag } }
						event_target:elephant_command_upstream = {
							controller = {
								OR = {
									tag = R62
									is_subject_of = R62
									NOT = {
										war_with = R62
									}
								}
							}
						}
					}
					AND = {
						event_target:dragon_command_capital = { has_province_flag = command_encircled_flag NOT = { has_province_flag = command_destroyed_logistics_flag } }
						event_target:dragon_command_upstream = {
							controller = {
								OR = {
									tag = R62
									is_subject_of = R62
									NOT = {
										war_with = R62
									}
								}
							}
						}
					}
				}
			}
			mil_power = 50
		}
		effect = {
			if = {
				limit = {
					event_target:tiger_command_capital = { has_province_flag = command_encircled_flag NOT = { has_province_flag = command_destroyed_logistics_flag } }
					event_target:tiger_command_upstream = {
						controller = {
							OR = {
								tag = R62
								is_subject_of = R62
								NOT = {
									war_with = R62
								}
							}
						}
					}
				}
				R67 = { command_weaken_capital = yes }
				event_target:tiger_command_capital = { set_province_flag = command_destroyed_logistics_flag }
				add_mil_power = -50
			}
			if = {
				limit = {
					event_target:elephant_command_capital = { has_province_flag = command_encircled_flag NOT = { has_province_flag = command_destroyed_logistics_flag } }
					event_target:elephant_command_upstream = {
						controller = {
							OR = {
								tag = R62
								is_subject_of = R62
								NOT = {
									war_with = R62
								}
							}
						}
					}
				}
				R68 = { command_weaken_capital = yes }
				event_target:elephant_command_capital = { set_province_flag = command_destroyed_logistics_flag }
				add_mil_power = -50
			}
			if = {
				limit = {
					event_target:dragon_command_capital = { has_province_flag = command_encircled_flag NOT = { has_province_flag = command_destroyed_logistics_flag } }
					event_target:dragon_command_upstream = {
						controller = {
							OR = {
								tag = R62
								is_subject_of = R62
								NOT = {
									war_with = R62
								}
							}
						}
					}
				}
				R69 = { command_weaken_capital = yes }
				event_target:dragon_command_capital = { set_province_flag = command_destroyed_logistics_flag }
				add_mil_power = -50
			}
		}
	}

	command_insubordination_concentrated_barrage = {
		major = yes
		potential = {
			has_country_flag = insubordination_active_flag
			ai = no
			NOT = { has_country_flag = R62_tiger_subdued }
			NOT = { has_country_flag = R62_concentrated_barrage }
		}
		provinces_to_highlight = {
			province_id = event_target:tiger_command_capital
		}
		allow = {
			custom_trigger_tooltip = {
				tooltip = command_barrage_trigger_tt
				event_target:tiger_command_capital = { artillery_in_province = 30 artillery_in_province = R62 }
			}
			mil_power = 100
		}
		effect = {
			R67 = { command_weaken_capital = yes }
			set_country_flag = R62_concentrated_barrage
			add_mil_power = -100
		}
	}

	command_insubordination_dwarven_siege = {
		major = yes
		potential = {
			has_country_flag = insubordination_active_flag
			ai = no
			NOT = { has_country_flag = R62_elephant_subdued }
			NOT = { has_country_flag = R62_dwarven_siege_weapons }
		}
		provinces_to_highlight = {
			province_id = 5424
		}
		allow = {
			OR = {
				5424 = { controlled_by = R62 }
				custom_trigger_tooltip = {
					tooltip = command_dwaf_trigger_tt
					has_country_flag = R62_dwarves_cooperated
				}
			}
		}
		effect = {
			R68 = { command_weaken_capital = yes }
			set_country_flag = R62_dwarven_siege_weapons
		}
	}

	command_insubordination_disturb_copper = {
		major = yes
		potential = {
			has_country_flag = insubordination_active_flag
			ai = no
			NOT = { has_country_flag = R62_dragon_subdued }
			NOT = { has_country_flag = R62_cut_copper_supply }
		}
		provinces_to_highlight = {
			AND = {
				owned_by = R69
				controlled_by = R69
				OR = {
					trade_goods = copper
					trade_goods = iron
				}
				NOT = { province_id = 4837 }
			}
		}
		allow = {
			custom_trigger_tooltip = {
				tooltip = command_metal_trigger_tt
				R69 = {
					all_owned_province = {
						OR = {
							AND = {
								NOT = { trade_goods = copper }
								NOT = { trade_goods = iron }
							}
							province_id = 4837
							controlled_by = R62
						}
					}
				}
			}
		}
		effect = {
			R69 = { command_weaken_capital = yes }
			set_country_flag = R62_cut_copper_supply
		}
	}

	command_insubordination_request_dwarven_siege_equipment = {
		potential = {
			has_country_flag = insubordination_active_flag
			NOT = { has_country_flag = R62_dwarves_cooperated }
			NOT = { has_country_flag = R62_elephant_subdued }
			NOT = { has_country_flag = R62_dwarven_siege_weapons }
			5424 = { NOT = { owned_by = R68 } NOT = { owned_by = R62 } }
			ai = no
		}
		allow = {
			5424 = { owner = { has_opinion = { who = R62 value = 50 } NOT = { war_with = R62 } } }
			treasury = 250
			dip_power = 250
		}
		effect = {
			custom_tooltip = command_dwaf_tt
			add_treasury = -250
			add_dip_power = -250
			set_country_flag = R62_dwarves_cooperated
		}
	}
	
	command_ease_jade_mines_tension = {
		potential = {
			tag = R62
			NOT = { has_country_flag = command_jade_rivalry_ended }
			4311 = {
				check_variable = {
					which = command_jade_mines_tension
					value = 1
				}
			}
		}
		
		allow = {
			dip_power = 100
			NOT = { has_country_modifier = command_eased_jade_mines_tension }
		}
		
		effect = {
			add_dip_power = -100
			4311 = {
				change_variable = {
					which = command_jade_mines_tension
					value = -2
				}
			}
			add_country_modifier = {
				name = command_eased_jade_mines_tension
				duration = 1825
			}
		}
		
		ai_will_do = {
			factor = 1
		}
	}
}