namespace = aw_zombies

#The Adventurers Wanted uses a strict ID system to make the system easier to author content for
#The IDs below 100 are core utility systems that are usually straight copies or modifications of how the AW system works, such as monsters being able to migrate and be defeated by adventurers.
#The IDs above 100 are more unique situations for the specific encounter, but they should correlate with the numbers from above: if ID 10s deal with migration, then ID 110s should be the unique events to do with migration - for example bribing a Thieves Guild to GTFO your country
#Crazy and more uniques ones that dont conform to the utilities should be ID 200

#USE THE anb_aw_zombies TO SEE A SIMPLE COPY-PASTABLE FORMAT IN ADDITION TO STUFF LIKE MIGRATION STYLES ETC
#Search for CHANGEABLE for the criteria you should change in that file and this one

#################################################################
# Welcome to the master file for the Adventurers Wanted System. In the comments below you'll see copy-pastable events for you to choose, different migration styles as well as prebuilt events to handle stuff like spawning rebellions
#################################################################

#0 - spawn in province
province_event = {
    id = aw_zombies.0
    title = aw_zombies.0.t
    desc = aw_zombies.0.d
    picture = COMET_SIGHTED_eventPicture
    goto = ROOT
    
    is_triggered_only = yes
    #hidden = yes
    
    #yup thats happening
    option = {
        name = aw_basic.0.a
        ai_chance = { 
            factor = 1 
        }
        add_permanent_province_modifier  = {
            name = aw_zombies_1
            duration = -1  
        }

        custom_tooltip = aw_how_to_get_more_adventurer_removal_chance_tooltip
    }
}


#1 - event manager, called by on_actions. This happens ONCE per pulse. If you have 7 of these, it still only fires the manager once
country_event = {
    id = aw_zombies.1
    title = aw_zombies.1.t
    desc = aw_zombies.1.d
    picture = COMET_SIGHTED_eventPicture
    
    hidden = yes
    is_triggered_only = yes
   
    trigger = {
        any_owned_province = {
            OR = { 
                has_province_modifier = aw_zombies_1
                has_province_modifier = aw_zombies_2
                has_province_modifier = aw_zombies_3
            }
        }
    }    

    mean_time_to_happen = {
        days = 1
        modifier = {
            factor = 2
            num_of_owned_provinces_with = {
                value = 3
                OR = { 
                    has_province_modifier = aw_zombies_1
                    has_province_modifier = aw_zombies_2
                    has_province_modifier = aw_zombies_3
                }
            }
        }
    }

    immediate = {
        random_owned_province = {
            limit = {
                OR = { 
                    has_province_modifier = aw_zombies_1
                    has_province_modifier = aw_zombies_2
                    has_province_modifier = aw_zombies_3
                }
            }
            save_event_target_as = aw_zombes_target
        }
    }
    
	
	option = {
        event_target:aw_zombes_target = {
            random_list = {
  
                #13 - Base propagation
                5 = {
                    modifier = {
                        #only want this to ever be part of the equation if you are monstrous
                        factor = 1.5
                        has_province_modifier = aw_zombies_2
                    }
                    modifier = {
                        #only want this to ever be part of the equation if you are monstrous
                        factor = 2
                        has_province_modifier = aw_zombies_3
                    }
                    province_event = { id = aw_zombies.13 }
                }

                #21 - adventurer removal
                15 = {
                    #Base modifiers

                    #more likely if generous quest rewards/adverturer nation
                    modifier = {
                        factor = 2
                        OR = {
                            owner = { has_estate_privilege = estate_adventurers_generous_quest_rewards }
                            owner = { has_adventurer_reform = yes }
                        }
                    }

                    #more likely if loyal
                    modifier = {
                        factor = 2
                        owner = {
                            estate_loyalty = {
                                estate = estate_adventurers
                                loyalty = 60
                            }
                        }
                    }

                    #more likely if high influence
                    modifier = {
                        factor = 2
                        owner = {
                            estate_influence = {
                                estate = estate_adventurers
                                influence = 60
                            }
                        }
                    }
                    #small influence boost at 30
                    modifier = {
                        factor = 1.5
                        owner = {
                            estate_influence = {
                                estate = estate_adventurers
                                influence = 30
                            }
                        }
                    }
                    #adventurer type sponsorships
                    modifier = {
                        factor = 2
                        owner = {
                            has_estate_privilege = estate_adventurers_sponsor_holy_paladins
                        }
                    }
                    province_event = { id = aw_zombies.21 }
                }

                #22 - natural tier down
                10 = {
                    province_event = { id = aw_zombies.22 } 
                }

                #23 - adventurer tier down
                20 = {
                    #Base modifiers

                    #more likely if generous quest rewards/adverturer nation
                    modifier = {
                        factor = 2
                        OR = {
                            owner = { has_estate_privilege = estate_adventurers_generous_quest_rewards }
                            owner = { has_adventurer_reform = yes }
                        }
                    }

                    #more likely if loyal
                    modifier = {
                        factor = 2
                        owner = {
                            estate_loyalty = {
                                estate = estate_adventurers
                                loyalty = 60
                            }
                        }
                    }

                    #more likely if high influence
                    modifier = {
                        factor = 2
                        owner = {
                            estate_influence = {
                                estate = estate_adventurers
                                influence = 60
                            }
                        }
                    }
                    #small influence boost at 30
                    modifier = {
                        factor = 1.5
                        owner = {
                            estate_influence = {
                                estate = estate_adventurers
                                influence = 30
                            }
                        }
                    }
                    #adventurer type sponsorships
                    modifier = {
                        factor = 2
                        owner = {
                            has_estate_privilege = estate_adventurers_sponsor_holy_paladins
                        }
                    }
                    province_event = { id = aw_zombies.23 }
                }

                #25 - monstrous natural tier down.
                50 = {
                    #Base modifiers
                    modifier = {
                        #only want this to ever be part of the equation if you are monstrous
                        factor = 0
                        NOT = { owner = { has_country_modifier = monstrous_nation } }
                    }
                    province_event = { id = aw_zombies.25 }   
                }

                #30 - natural tier up
                20 = {
                    province_event = { id = aw_zombies.30 }   
                }

                #110 - adventurer hides bite
                5 = {
                    #must have adventurers
                    modifier = {
                        factor = 0
                        NOT = {
                            OR = {
                                owner = { has_estate = estate_adventurers }
                                owner = { has_adventurer_reform = yes }
                            }
                        }
                    }
                    #less likely if loyal/adventurer nation
                    modifier = {
                        factor = 0.5
                        OR = {
                            owner = {
                                estate_loyalty = {
                                    estate = estate_adventurers
                                    loyalty = 60
                                }
                            }
                            owner = { has_adventurer_reform = yes }
                        }
                    }
                    #more likely if high influence
                    modifier = {
                        factor = 2
                        owner = {
                            estate_influence = {
                                estate = estate_adventurers
                                influence = 50
                            }
                        }
                    }
                }

                #120 - zombie nightmare swarm
                10 = {
                    modifier = {
                        factor = 0
						owner = {
							NOT = {
								num_of_owned_provinces_with = {
									value = 4
									OR = {
										has_province_modifier = aw_zombies_2
										has_province_modifier = aw_zombies_3
									}
								}
							}
						}
                    }
                    modifier = {
                        factor = 2
						owner = {
							num_of_owned_provinces_with = {
								value = 6
								OR = {
									has_province_modifier = aw_zombies_2
									has_province_modifier = aw_zombies_3
								}
							}
						}
                    }
                    modifier = {
                        factor = 2
						owner = {
							num_of_owned_provinces_with = {
								value = 8
								OR = {
									has_province_modifier = aw_zombies_2
									has_province_modifier = aw_zombies_3
								}
							}
						}
                    }
                    owner = { country_event = { id = aw_zombies.120 } }
                }

                #130 - sudden bite outbreak
                5 = {
                    modifier = {
                        factor = 2
                        OR = {
                            has_terrain = city_terrain
                            has_terrain = dwarven_hold
                            has_terrain = dwarven_hold_surface
                        }
                    }
                    modifier = {
                        factor = 2
                        development = 20
                        NOT = { development = 30 }
                    }
                    modifier = {
                        factor = 3
                        development = 30
                    }
                    modifier = {
                        factor = 0.33
                        OR = {
                            has_province_modifier = elven_majority_oppressed
                            has_province_modifier = elven_majority_coexisting
                            has_province_modifier = elven_majority_integrated
                            has_province_modifier = elven_majority_primary
                        }
                    }
                    province_event = { id = aw_zombies.130 }  
                }
            }
        }
	}   
}


#2 - notification of advanturers wanted spawning

############## 10s - Migration and Propagation ###################

#10 - Base migration - nah


#11 - migration target notification if it goes to other country - nah


#13 - Base propagation
province_event = {
    id = aw_zombies.13
    title = aw_zombies.13.t
    desc = aw_zombies.13.d
    picture = COMET_SIGHTED_eventPicture
    goto = ROOT
    
    hidden = no
    is_triggered_only = yes
    
    trigger = {
        OR = {
            has_province_modifier = aw_zombies_2
            has_province_modifier = aw_zombies_3
        }

        #MAKE SURE TO ADD A any_neighbor_province or relevant check - aka make sure that the immediate = { } effects can even occur before doing the event!
        any_neighbor_province = {
            is_city = yes
            owner = { NOT = { has_country_modifier = monstrous_nation } }

            NOT = { has_province_modifier = aw_zombies_1 }
            NOT = { has_province_modifier = aw_zombies_2 }
            NOT = { has_province_modifier = aw_zombies_3 }
        }
    }
    
    immediate = {
        hidden_effect = {

            #See .10 for full copy-pastable examples

            #CHANGEABLE - MIGRATION TYPE - Any adjacent province
            random_neighbor_province = {
                limit = {
                    #Base Conditions
                    is_city = yes

                    NOT = { has_province_modifier = aw_zombies_1 }
                    NOT = { has_province_modifier = aw_zombies_2 }
                    NOT = { has_province_modifier = aw_zombies_3 }


                    #Specific Conditions
                   
                }
                save_event_target_as = aw_zombies_migration_target
            }
        }
    }

    #If migration is within country
    option = {  
        name = aw_zombies.13.a
        ai_chance = { factor = 100 }
        goto = aw_zombies_migration_target
        trigger = {
            event_target:aw_zombies_migration_target = {
                owned_by = ROOT
            }
        }


        event_target:aw_zombies_migration_target = {
            if = {
                limit = {
                    owned_by = ROOT
                }

                #CHANGEABLE - SPREAD TYPE: Tier propagates Tier of the same at target
                if = {
                    limit = {
                        FROM = { has_province_modifier = aw_zombies_1 }
                    }
                    add_permanent_province_modifier = { 
                        name = aw_zombies_1
                        duration = -1
                    }
                }
                else_if = {
                    limit = {
                        FROM = { has_province_modifier = aw_zombies_2 }
                    }
                    add_permanent_province_modifier = { 
                        name = aw_zombies_1
                        duration = -1
                    }
                }
                else_if = {
                    limit = {
                        FROM = { has_province_modifier = aw_zombies_3 }
                    }
                    add_permanent_province_modifier = { 
                        name = aw_zombies_1
                        duration = -1
                    }
                }
            }
        }
    }

    #If migration is sent to OTHER country
    option = {  
        name = aw_zombies.13.b
        ai_chance = { factor = 100 }
        goto = aw_zombies_migration_target
        trigger = {
            event_target:aw_zombies_migration_target = {
                NOT = { owned_by = ROOT }   #if the target isnt in your country, then send an event to them that notifies + adds it on their end
            }
        }
		
		custom_tooltip = aw_zombies_migrate_to_other_country_tt
		hidden_effect = {
			event_target:aw_zombies_migration_target = {
				province_event = {
					id = aw_zombies.14
				}
			}
		}
    }
}

#14 - propagation target notification
province_event = {
    id = aw_zombies.14
    title = aw_zombies.14.t
    desc = aw_zombies.14.d
    picture = COMET_SIGHTED_eventPicture
    goto = ROOT
    
    hidden = no
    is_triggered_only = yes
    
    option = {
        # deal with it ourselves
        name = aw_basic.0.a
        ai_chance = { 
            factor = 20 
        }

        custom_tooltip = aw_how_to_get_more_adventurer_removal_chance_tooltip

        owner = {
            add_opinion = {
                who = FROM
                modifier = aw_crossed_border
            }
        }

        #CHANGEABLE - SPREAD TYPE: Tier makes Tier of the same at target (NOTE: THIS USUALLY SHOULD BE THE SAME AS id.10 above)
        if = {
            limit = {
                FROM = { has_province_modifier = aw_zombies_1 }
            }
            add_permanent_province_modifier = { 
                name = aw_zombies_1
                duration = -1
            }
        }
        else_if = {
            limit = {
                FROM = { has_province_modifier = aw_zombies_2 }
            }
            add_permanent_province_modifier = { 
                name = aw_zombies_1
                duration = -1
            }
        }
        else_if = {
            limit = {
                FROM = { has_province_modifier = aw_zombies_3 }
            }
            add_permanent_province_modifier = { 
                name = aw_zombies_1
                duration = -1
            }
        }

    }

}

#15 - Migrate to non monstrous if monstrous nation is owner (if its applicable to monsters, like wyverns etc, then this is fine to remove, else keep) - nah


############## 20s - Removal/Tier Down ###################


#21 - adventurer removal
province_event = {
    id = aw_zombies.21
    title = aw_zombies.21.t
    desc = aw_zombies.21.d
    picture = COMET_SIGHTED_eventPicture
    goto = ROOT
    
    hidden = no
    is_triggered_only = yes
    
    trigger = {
        owner = { OR = { has_estate = estate_adventurers has_adventurer_reform = yes  } }
        OR = {
            has_province_modifier = aw_zombies_1
            has_province_modifier = aw_zombies_2
            has_province_modifier = aw_zombies_3
        }
    }
    
    option = {
        # oh, thank goodness
        name = aw_zombies.21.a
        ai_chance = { factor = 100 }

        remove_province_modifier = aw_zombies_1
        remove_province_modifier = aw_zombies_2
        remove_province_modifier = aw_zombies_3

        owner = {
            add_estate_influence_modifier = {
                estate = estate_adventurers
                desc = EST_VAL_AW_RESOLVED_ADVENTURERS_WANTED_ENCOUNTER
                duration = 3650
                influence = 5
            }
        }

        owner = { add_prestige_excess_to_splendour_effect = { VAL=10} }   #10 for hard, 5 for medium, 3 for weak

    }
}

#22 - natural tier down
province_event = {
    id = aw_zombies.22
    title = aw_zombies.22.t
    desc = aw_zombies.22.d
    picture = COMET_SIGHTED_eventPicture
    goto = ROOT
    
    hidden = no
    is_triggered_only = yes
    
    trigger = {
        OR = { 
            has_province_modifier = aw_zombies_1 
            has_province_modifier = aw_zombies_2
            #has_province_modifier = aw_zombies_3
        }
    }
    option = {
        name = aw_zombies.22.a
        ai_chance = { factor = 100 }
        if = {
            limit = { 
                has_province_modifier = aw_zombies_3 
            }
            remove_province_modifier = aw_zombies_3
            add_permanent_province_modifier  = {
                name = aw_zombies_2
                duration = -1  
            }
        }
        else_if = {
            limit = { 
                has_province_modifier = aw_zombies_2
            }
            remove_province_modifier = aw_zombies_2
            add_permanent_province_modifier  = {
                name = aw_zombies_1
                duration = -1  
            }
        }
        else_if = {
            limit = { 
                has_province_modifier = aw_zombies_1
            }
            remove_province_modifier = aw_zombies_1
        }
    }
}

#23 - adventurer tier down
province_event = {
    id = aw_zombies.23
    title = aw_zombies.23.t
    desc = aw_zombies.23.d
    picture = COMET_SIGHTED_eventPicture
    goto = ROOT
    
    hidden = no
    is_triggered_only = yes
    
    trigger = {
        owner = { OR = { has_estate = estate_adventurers has_adventurer_reform = yes  } }
        OR = { 
            has_province_modifier = aw_zombies_1 
            has_province_modifier = aw_zombies_2
            has_province_modifier = aw_zombies_3
        }
    }
    option = {
        name = aw_zombies.23.a
        ai_chance = { factor = 100 }
        if = {
            limit = { 
                has_province_modifier = aw_zombies_3 
            }
            remove_province_modifier = aw_zombies_3
            add_permanent_province_modifier  = {
                name = aw_zombies_2
                duration = -1  
            }
        }
        else_if = {
            limit = { 
                has_province_modifier = aw_zombies_2
            }
            remove_province_modifier = aw_zombies_2
            add_permanent_province_modifier  = {
                name = aw_zombies_1
                duration = -1  
            }
        }
        else_if = {
            limit = { 
                has_province_modifier = aw_zombies_1
            }
            remove_province_modifier = aw_zombies_1
            owner = { add_prestige_excess_to_splendour_effect = { VAL=10} }   #10 for hard, 5 for medium, 3 for weak
        }

        owner = {
            add_estate_influence_modifier = {
                estate = estate_adventurers
                desc = EST_VAL_AW_RESOLVED_ADVENTURERS_WANTED_ENCOUNTER
                duration = 3650
                influence = 5
            }
        }
    }
}


#25 - monstrous natural tier down. keep if you want, or just rely on removal
province_event = {
    id = aw_zombies.25
    title = aw_zombies.25.t
    desc = aw_zombies.25.d
    picture = COMET_SIGHTED_eventPicture
    goto = ROOT
    
    hidden = no
    is_triggered_only = yes
    
    trigger = {
        owner = { has_country_modifier = monstrous_nation }

        OR = { 
            has_province_modifier = aw_zombies_1 
            has_province_modifier = aw_zombies_2
            has_province_modifier = aw_zombies_3
        }
    }
    option = {
        name = aw_zombies.25.a
        ai_chance = { factor = 100 }
        if = {
            limit = { 
                has_province_modifier = aw_zombies_3 
            }
            remove_province_modifier = aw_zombies_3
            add_permanent_province_modifier  = {
                name = aw_zombies_2
                duration = -1  
            }
        }
        else_if = {
            limit = { 
                has_province_modifier = aw_zombies_2
            }
            remove_province_modifier = aw_zombies_2
            add_permanent_province_modifier  = {
                name = aw_zombies_1
                duration = -1  
            }
        }
        else_if = {
            limit = { 
                has_province_modifier = aw_zombies_1
            }
            remove_province_modifier = aw_zombies_1
            owner = { add_prestige_excess_to_splendour_effect = { VAL=10} }   #10 for hard, 5 for medium, 3 for weak
        }
    }
}

############## 30s - Tier Up ###################

#30 - natural tier up
province_event = {
    id = aw_zombies.30
    title = aw_zombies.30.t
    desc = aw_zombies.30.d
    picture = COMET_SIGHTED_eventPicture
    goto = ROOT
    
    hidden = no
    is_triggered_only = yes
    
    trigger = {
        OR = { 
            has_province_modifier = aw_zombies_1 
            has_province_modifier = aw_zombies_2
        }
    }
    option = {
        name = aw_zombies.30.a
        ai_chance = { factor = 100 }
        if = {
            limit = { 
                has_province_modifier = aw_zombies_1
            }
            remove_province_modifier = aw_zombies_1
            add_permanent_province_modifier  = {
                name = aw_zombies_2
                duration = -1  
            }
        }
        else_if = {
            limit = { 
                has_province_modifier = aw_zombies_2
            }
            remove_province_modifier = aw_zombies_2
            add_permanent_province_modifier  = {
                name = aw_zombies_3
                duration = -1  
            }
        }

        custom_tooltip = aw_how_to_get_more_adventurer_removal_chance_tooltip   #should be added for each increase of level
    }
}

############## 40s - Other Utility ###################

#40 - convert to pop if tolerating - none


#41 - convert to pop, monstrous subjugation - none

############# 100 - Special Spawn ########################

#100 - Battle with undead army leaves zombies behind
country_event = {
    id = aw_zombies.100
    title = aw_zombies.100.t
    desc = aw_zombies.100.d
    picture = EP_MAORI_HAKA_eventPicture
    is_triggered_only = yes

    trigger = {
        has_country_modifier = undead_military
        army_size = 1 # So you can get an event target
		any_province = {
			units_in_province = ROOT
			owner = {
				OR = {
					tag = ROOT
					war_with = ROOT
				}
			}
			NOT = { has_province_modifier = aw_zombies_1 }
			NOT = { has_province_modifier = aw_zombies_2 }
			NOT = { has_province_modifier = aw_zombies_3 }
		}
		NOT = { FROM = { OR = { tag = REB tag = NAT } } }
        NOT = { stability = 1 }
    }

    immediate = {
        random_province = {
            limit = { 
                units_in_province = ROOT
                owner = {
                    OR = {
                        tag = ROOT
                        war_with = ROOT
                    }
                }
                NOT = { has_province_modifier = aw_zombies_1 }
                NOT = { has_province_modifier = aw_zombies_2 }
                NOT = { has_province_modifier = aw_zombies_3 }
            }
            save_event_target_as = aw_zombies_target
        }
        
    }
    
    option = {
        name = aw_zombies.100.a
        ai_chance = { 
            factor = 1 
        }
        goto = aw_zombies_target
        trigger = {
            event_target:aw_zombies_target = {
                owned_by = ROOT
            }
        }
        event_target:aw_zombies_target = {
            add_permanent_province_modifier  = {
                name = aw_zombies_1
                duration = -1  
            }
        }
    }

    #If migration is sent to OTHER country
    option = {  
        name = aw_zombies.100.b
        ai_chance = { factor = 100 }
        goto = aw_zombies_target
        trigger = {
            event_target:aw_zombies_target = {
                NOT = { owned_by = ROOT }   #if the target isnt in your country, then send an event to them that notifies + adds it on their end
            }
        }

        custom_tooltip = aw_zombies_migrate_to_other_country_tt
		hidden_effect = {
			event_target:aw_zombies_target = {
				province_event = {
					id = aw_zombies.101
				}
			}
		}
    }

    #Max necro says no
    option = {  
        name = aw_zombies.100.c
        ai_chance = { factor = 1000 }
        trigger = { 
            is_necromancy_3 = yes 
            mil_power = 20
        }
        highlight = yes
    
        add_mil_power = -20

        custom_tooltip = is_necromancy_3_tt
    }
}

#101 - propagation target notification
province_event = {
    id = aw_zombies.101
    title = aw_zombies.101.t
    desc = aw_zombies.101.d
    picture = EP_MAORI_HAKA_eventPicture
    goto = ROOT
    
    hidden = no
    is_triggered_only = yes
    
    option = {
        # deal with it ourselves
        name = aw_basic.0.a
        ai_chance = { 
            factor = 20 
        }

        custom_tooltip = aw_how_to_get_more_adventurer_removal_chance_tooltip

        owner = {
            add_opinion = {
                who = FROM
                modifier = aw_crossed_border
            }
        }

        add_permanent_province_modifier = { 
            name = aw_zombies_1
            duration = -1
        }

    }

}


############## 110s - Special Migration & Propagation ###################

#110 - adventurer hides bite but tiers down province. spreads within any province in region
province_event = {
    id = aw_zombies.110
    title = aw_zombies.110.t
    desc = aw_zombies.110.d
    picture = EP_MAORI_HAKA_eventPicture
    goto = ROOT
    
    hidden = no
    is_triggered_only = yes
    
    trigger = {
        OR = {
            has_province_modifier = aw_zombies_1
            has_province_modifier = aw_zombies_2
            has_province_modifier = aw_zombies_3
        }

        #MAKE SURE TO ADD A any_neighbor_province or relevant check - aka make sure that the immediate = { } effects can even occur before doing the event!
		region_for_scope_province = {
			NOT = { province_id = ROOT }

			is_city = yes
            owner = { NOT = { has_country_modifier = monstrous_nation } }

			NOT = { has_province_modifier = aw_zombies_1 }
			NOT = { has_province_modifier = aw_zombies_2 }
			NOT = { has_province_modifier = aw_zombies_3 }

			#Specific Conditions
		}
    }
    
    immediate = {
        hidden_effect = {

            ######################################################################
            #Here's a list of all migration types for you to copy and paste
            #Note: you may need to add something in the trigger = { } above, for example for random_neighbour_province, as you might want to check if this valid province even has a neighbour you can migrate to!
            ######################################################################


            #CHANGEABLE - MIGRATION TYPE - Any province within REGION
            random_province = {
                limit = {
                    region = ROOT
                    NOT = { province_id = ROOT }

                    is_city = yes
                    owner = { NOT = { has_country_modifier = monstrous_nation } }

                    NOT = { has_province_modifier = aw_test_1 }
                    NOT = { has_province_modifier = aw_test_2 }
                    NOT = { has_province_modifier = aw_test_3 }

                }
                save_event_target_as = aw_test_migration_target
            }
        }
    }

    #If migration is within country
    option = {  
        name = aw_zombies.110.a
        ai_chance = { factor = 100 }
        goto = aw_zombies_migration_target
        trigger = {
            event_target:aw_zombies_migration_target = {
                 owned_by = ROOT
            }
        }

        #It's migration, so remove modifier from previous province
        tooltip = { #this is fake. the real one happens below
            remove_province_modifier = aw_zombies_1
            remove_province_modifier = aw_zombies_2
            remove_province_modifier = aw_zombies_3
        }

        event_target:aw_zombies_migration_target = {
            if = {
                limit = {
                    owned_by = ROOT #you need this as this is only for provinces you own. option 10.b is for others
                }

                


                #CHANGEABLE - SPREAD TYPE: Tier makes Tier of the same at target
                if = {
                    limit = {
                        FROM = { has_province_modifier = aw_zombies_1 }
                    }
                    add_permanent_province_modifier = { 
                        name = aw_zombies_1
                        duration = -1
                    }
                }
                else_if = {
                    limit = {
                        FROM = { has_province_modifier = aw_zombies_2 }
                    }
                    add_permanent_province_modifier = { 
                        name = aw_zombies_2
                        duration = -1
                    }
                }
                else_if = {
                    limit = {
                        FROM = { has_province_modifier = aw_zombies_3 }
                    }
                    add_permanent_province_modifier = { 
                        name = aw_zombies_3
                        duration = -1
                    }
                }
                FROM = {
                #real removal. the other real one is in the called event in the else
                    remove_province_modifier = aw_zombies_1
                    remove_province_modifier = aw_zombies_2
                    remove_province_modifier = aw_zombies_3
                }
            }
        }
    }

    #If migration is sent to OTHER country
    option = {  
        name = aw_zombies.110.b
        ai_chance = { factor = 100 }
        goto = aw_zombies_migration_target
        trigger = {
            event_target:aw_zombies_migration_target = {
                NOT = { owned_by = ROOT }   #if the target isnt in your country, then send an event to them that notifies + adds it on their end
            }
        }

        #It's migration, so remove modifier from previous province
        tooltip = { #this is fake. the real one happens via the event
            remove_province_modifier = aw_zombies_1
            remove_province_modifier = aw_zombies_2
            remove_province_modifier = aw_zombies_3
        }

        custom_tooltip = aw_zombies_migrate_to_other_country_tt
		hidden_effect = {
			event_target:aw_zombies_migration_target = {
				province_event = {
					id = aw_zombies.111
				}
			}
		}
    }
}

#111 - bitten adventurers propagation - migration target notification if it goes to other country
province_event = {
    id = aw_zombies.111
    title = aw_zombies.111.t
    desc = aw_zombies.111.d
    picture = SCOTTISH_MERCENARIES_eventPicture
    goto = ROOT
    
    hidden = no
    is_triggered_only = yes
    
    option = {
        # deal with it ourselves
        name = aw_basic.111.a
        ai_chance = { 
            factor = 20 
        }

        custom_tooltip = aw_how_to_get_more_adventurer_removal_chance_tooltip

        owner = {
            add_opinion = {
                who = FROM
                modifier = aw_crossed_border
            }
        }

        #CHANGEABLE - SPREAD TYPE: Tier makes Tier of the same at target ---(NOTE: THIS USUALLY SHOULD BE THE SAME AS id.10 above)----
        if = {
            limit = {
                FROM = { has_province_modifier = aw_zombies_1 }
            }
            add_permanent_province_modifier = { 
                name = aw_zombies_1
                duration = -1
            }
        }
        else_if = {
            limit = {
                FROM = { has_province_modifier = aw_zombies_2 }
            }
            add_permanent_province_modifier = { 
                name = aw_zombies_1
                duration = -1
            }
        }
        else_if = {
            limit = {
                FROM = { has_province_modifier = aw_zombies_3 }
            }
            add_permanent_province_modifier = { 
                name = aw_zombies_1
                duration = -1
            }
        }

    }

    after = {
        FROM = {    #cleanup event to remove the modifiers from the original province
            remove_province_modifier = aw_zombies_1
            remove_province_modifier = aw_zombies_2
            remove_province_modifier = aw_zombies_3
        }
    }
}

############## 120s - Special Removal/Tier Down ###################

#120 - zombie nightmare swarm
country_event = {
    id = aw_zombies.120
    title = aw_zombies.120.t
    desc = aw_zombies.120.d
    picture = EP_MAORI_HAKA_eventPicture
   
    
    hidden = no
    is_triggered_only = yes
    
    trigger = {
        NOT = { stability = 3 }
    }

    option = {
        name = aw_zombies.120.a
        ai_chance = { factor = 100 }

        every_owned_province = { 
            limit = {
                OR = {
                    has_province_modifier = aw_zombies_2
                    has_province_modifier = aw_zombies_3
                }
            }
            
            spawn_rebels = {
                type = aw_zombies_rebels
                size = 1
            }
            remove_province_modifier = aw_zombies_1
            remove_province_modifier = aw_zombies_2
            remove_province_modifier = aw_zombies_3
        }
    }
}

#121 - local militias fight undead. minus mil but chance to kill
province_event = {
    id = aw_zombies.121
    title = aw_zombies.121.t
    desc = aw_zombies.121.d
    picture = SIEGE_PRAGUE_CASTLE_eventPicture
    goto = ROOT
    
    hidden = no
    is_triggered_only = yes
    
    trigger = {
        OR = {
            has_province_modifier = aw_zombies_1
            has_province_modifier = aw_zombies_2
            has_province_modifier = aw_zombies_3
        }

        development = 6
    }

    option = {
        name = aw_zombies.121.a
        ai_chance = { factor = 100 }

        add_base_manpower = -1

        random = {
            chance = 33
            if = {
                limit = { 
                    has_province_modifier = aw_zombies_3 
                }
                remove_province_modifier = aw_zombies_3
                add_permanent_province_modifier  = {
                    name = aw_zombies_2
                    duration = -1  
                }
            }
            else_if = {
                limit = { 
                    has_province_modifier = aw_zombies_2
                }
                remove_province_modifier = aw_zombies_2
                add_permanent_province_modifier  = {
                    name = aw_zombies_1
                    duration = -1  
                }
            }
            else_if = {
                limit = { 
                    has_province_modifier = aw_zombies_1
                }
                remove_province_modifier = aw_zombies_1
            }
        }
    }
}

#122 - Mages offer to try and get control
province_event = {
    id = aw_zombies.122
    title = aw_zombies.122.t
    desc = aw_zombies.122.d
    picture = ADVISOR_eventPicture
    goto = ROOT
    
    hidden = no
    is_triggered_only = yes
    
    trigger = {
        OR = {
            has_province_modifier = aw_zombies_1
            has_province_modifier = aw_zombies_2
            has_province_modifier = aw_zombies_3
        }

        owner = { has_estate = estate_mages }

        owner = {
            NOT = {
                has_estate_influence_modifier = {
                    estate = estate_mages
                    modifier = EST_VAL_AW_STATE_OWES_FAVOURS
                }
            }
        }

    }

    option = {
        name = aw_zombies.122.a
        ai_chance = { factor = 100 }

        owner = {
            add_estate_influence_modifier = {
                estate = estate_mages
                desc = EST_VAL_AW_STATE_OWES_FAVOURS
                influence = 10
                duration = 3650
            }
        }

        if = {
            limit = { 
                has_province_modifier = aw_zombies_3 
            }
            remove_province_modifier = aw_zombies_3
            add_permanent_province_modifier  = {
                name = aw_zombies_2
                duration = -1  
            }
        }
        else_if = {
            limit = { 
                has_province_modifier = aw_zombies_2
            }
            remove_province_modifier = aw_zombies_2
            add_permanent_province_modifier  = {
                name = aw_zombies_1
                duration = -1  
            }
        }
        else_if = {
            limit = { 
                has_province_modifier = aw_zombies_1
            }
            remove_province_modifier = aw_zombies_1
        }
    }

    #witch king option. you do it to serve me
    option = {
        name = aw_zombies.122.b
        ai_chance = { 
            factor = 1000
        }
		trigger = {
			owner = { has_ruler_modifier = witch_king_modifier }
		}
        highlight = yes
        custom_tooltip = tooltip_witch_king

        owner = { add_mil_power = -10 }

        if = {
            limit = { 
                has_province_modifier = aw_zombies_3 
            }
            remove_province_modifier = aw_zombies_3
            add_permanent_province_modifier  = {
                name = aw_zombies_2
                duration = -1  
            }
        }
        else_if = {
            limit = { 
                has_province_modifier = aw_zombies_2
            }
            remove_province_modifier = aw_zombies_2
            add_permanent_province_modifier  = {
                name = aw_zombies_1
                duration = -1  
            }
        }
        else_if = {
            limit = { 
                has_province_modifier = aw_zombies_1
            }
            remove_province_modifier = aw_zombies_1
        }
    }
}



############## 130s - Special Tier Up ###################

#130 - sudden bite outbreak spreads FAAAST for high dev or cities only
province_event = {
    id = aw_zombies.130
    title = aw_zombies.130.t
    desc = aw_zombies.130.d
    picture = EP_MAORI_HAKA_eventPicture
    goto = ROOT
    
    hidden = no
    is_triggered_only = yes
    
    trigger = {
        has_province_modifier = aw_zombies_1

        NOT = { devastation = 50 }

        OR = {
            development = 20
            has_terrain = city_terrain
        }
    }

    option = {
        name = aw_zombies.130.a
        ai_chance = { factor = 100 }
        trigger = { has_province_modifier = aw_zombies_1 }

        remove_province_modifier = aw_zombies_1
        add_permanent_province_modifier  = {
            name = aw_zombies_3
            duration = -1  
        }

        add_devastation = 50
    }
}



############## 140s - Other Special Utility ###################

#140 - Zombies overrun Fort
province_event = {
    id = aw_zombies.140
    title = aw_zombies.140.t
    desc = aw_zombies.140.d
    picture = SIEGE_eventPicture
    goto = ROOT
    
    hidden = no
    is_triggered_only = yes
    
    trigger = {
        OR = {
            has_province_modifier = aw_zombies_2
            has_province_modifier = aw_zombies_3
        }

        has_fort_building_trigger = yes
    }

    option = {
        name = aw_zombies.140.a
        ai_chance = { factor = 100 }

        remove_fortifications = yes

        add_devastation = 25
    }
}

#141 - Singular Horde rises
province_event = {
    id = aw_zombies.141
    title = aw_zombies.141.t
    desc = aw_zombies.141.d
    picture = EP_MAORI_HAKA_eventPicture
    goto = ROOT
    
    hidden = no
    is_triggered_only = yes
    
    trigger = {
        OR = {
            has_province_modifier = aw_zombies_2
            has_province_modifier = aw_zombies_3
        }
    }

    option = {
        name = aw_zombies.141.a
        ai_chance = { factor = 100 }

            
        spawn_rebels = {
            type = aw_zombies_rebels
            size = 1
        }

        if = {
            limit = { 
                has_province_modifier = aw_zombies_3 
            }
            remove_province_modifier = aw_zombies_3
            add_permanent_province_modifier  = {
                name = aw_zombies_2
                duration = -1  
            }
        }
        else_if = {
            limit = { 
                has_province_modifier = aw_zombies_2
            }
            remove_province_modifier = aw_zombies_2
            add_permanent_province_modifier  = {
                name = aw_zombies_1
                duration = -1  
            }
        }
    }
}


############## 200s - Special Flavour ###################

#200 - State of Decay, level 3 only, decay of infrastructure aka lose dev
province_event = {
    id = aw_zombies.200
    title = aw_zombies.200.t
    desc = aw_zombies.200.d
    picture = EP_MAORI_HAKA_eventPicture
    goto = ROOT
    
    hidden = no
    is_triggered_only = yes
    
    trigger = {
        OR = {
            has_province_modifier = aw_zombies_2
            has_province_modifier = aw_zombies_3
        }

        development = 6
    }

    option = {
        name = aw_zombies.200.a
        ai_chance = { factor = 100 }

        random_list = {
            33 = {
                add_base_tax = -1
            }
            33 = {
                add_base_production = -1
            }
            33 = {
                add_base_manpower = -1
            }
        }
    }
}

#201 - Exploding zombies aka boomers
province_event = {
    id = aw_zombies.201
    title = aw_zombies.201.t
    desc = aw_zombies.201.d
    picture = EP_MAORI_HAKA_eventPicture
    goto = ROOT
    
    hidden = no
    is_triggered_only = yes
    
    trigger = {
        OR = {
            has_province_modifier = aw_zombies_2
            has_province_modifier = aw_zombies_3
        }

        NOT = { devastation = 75 }

        development = 6
    }

    option = {
        name = aw_zombies.201.a
        ai_chance = { factor = 100 }

        random = {
            chance = 50
            add_base_tax = -1
        }

        add_devastation = 25
    }
}

#202 - Strong zombies aka tanks
province_event = {
    id = aw_zombies.202
    title = aw_zombies.202.t
    desc = aw_zombies.202.d
    picture = EP_MAORI_HAKA_eventPicture
    goto = ROOT
    
    hidden = no
    is_triggered_only = yes
    
    trigger = {
        OR = {
            has_province_modifier = aw_zombies_2
            has_province_modifier = aw_zombies_3
        }

        NOT = { devastation = 75 }

        development = 6
    }

    option = {
        name = aw_zombies.202.a
        ai_chance = { factor = 100 }

        random = {
            chance = 50
            add_base_manpower = -1
        }

        add_devastation = 25
    }
}

#203 - survivor communities turning on each other
province_event = {
    id = aw_zombies.203
    title = aw_zombies.203.t
    desc = aw_zombies.203.d
    picture = BORDER_TENSION_eventPicture
    goto = ROOT
    
    hidden = no
    is_triggered_only = yes
    
    trigger = {
        has_province_modifier = aw_zombies_3

        NOT = { devastation = 75 }

    }

    option = {
        name = aw_zombies.203.a
        ai_chance = { factor = 100 }

        add_devastation = 50

        random_list = {
            33 = {
                add_base_tax = -1
            }
            33 = {
                add_base_production = -1
            }
            33 = {
                add_base_manpower = -1
            }
        }
    }
}

#204 - Too many zombies worries country
province_event = {
    id = aw_zombies.204
    title = aw_zombies.204.t
    desc = aw_zombies.204.d
    picture = EP_MAORI_HAKA_eventPicture
    goto = ROOT
    
    hidden = no
    is_triggered_only = yes
    
    trigger = {

        owner = {
            num_of_owned_provinces_with = {
                value = 10
                OR = {
                    has_province_modifier = aw_zombies_1
                    has_province_modifier = aw_zombies_2
                    has_province_modifier = aw_zombies_3
                }
            }
        }

    }

    option = {
        name = aw_zombies.204.a
        ai_chance = { factor = 100 }

        owner = { add_stability = -1 }
    }
}