namespace = gommo_expansion_events

country_event = { #Gnomish settlers
	id = gommo_expansion_events.1
	title = gommo_expansion_events.1.t
	desc = gommo_expansion_events.1.d
	picture = EUROPEAN_REFUGEES_eventPicture

	trigger = {
		any_owned_province = {
			is_core = ROOT
			trade_goods = precursor_relics
			development = 30
			NOT = {
				has_any_gnomish_pop_trigger = yes
			}
		}
		NOT = { culture_group = gnomish }
		has_institution = global_trade
	}
	
	is_triggered_only = yes
	
	option = { #Welcome them
		name = "gommo_expansion_events.1.a"
		largest_increase_of_gnomish_tolerance_effect = yes
		random_owned_province = {
			limit = {
				trade_goods = precursor_relics
				development = 30
				NOT = {
					has_any_gnomish_pop_trigger = yes
				}
			}
			add_gnomish_minority_size_effect = yes
		}
		
		ai_chance = {
			factor = 75
			modifier = {
				factor = 0
				wants_to_decrease_tolerance_gnomish = yes
			}
		}
	}

	option = { #Refuse them
		name = "gommo_expansion_events.1.b"
		
		medium_decrease_of_gnomish_tolerance_effect = yes
		add_adm_power = 35
		
		ai_chance = {
			factor = 25
			modifier = {
				factor = 0
				wants_to_increase_tolerance_gnomish = yes
			}
		}
	}
}

country_event = { #Gommo Institute
	id = gommo_expansion_events.2
	title = gommo_expansion_events.2.t
	desc = gommo_expansion_events.2.d
	picture = CITY_DEVELOPMENT_eventPicture
	
	 trigger = {
        NOT = { culture_group = gnomish }
        has_institution = global_trade
        any_owned_province = {
			is_core = ROOT
            trade_goods = precursor_relics
            development = 30
			OR = {        
                has_integrated_gnomish_pop_trigger = yes
                has_coexisting_gnomish_pop_trigger = yes
            }
			NOT = { has_province_modifier = gnomish_institute_gommo }
        }
    }
	
	is_triggered_only = yes
	
	option = { #Grant them charter
		name = "gommo_expansion_events.2.a"
		
		largest_increase_of_gnomish_tolerance_effect = yes
		
		random_owned_province = {
			limit = {
                trade_goods = precursor_relics
				development = 30
                OR = {        
                    has_integrated_gnomish_pop_trigger = yes
                    has_coexisting_gnomish_pop_trigger = yes
                }
				NOT = { has_province_modifier = gnomish_institute_gommo }
            }
			add_permanent_province_modifier = {
				name = gnomish_institute_gommo 
				duration = -1
			}
			add_gnomish_minority_size_effect = yes
		}
		
		hidden_effect = {
            random = {
                chance = 50
                country_event = { id = gommo_expansion_events.4 days = 60 random = 60 }
            }
            random = {
                chance = 50
                country_event = { id = gommo_expansion_events.5 days = 90 random = 60 }
            }
			random = {
                chance = 50
                country_event = { id = gommo_expansion_events.6 days = 120 random = 60 }
            }
			random = {
                chance = 50
                country_event = { id = gommo_expansion_events.7 days = 120 random = 90 }
            }
			random = {
                chance = 50
                country_event = { id = gommo_expansion_events.8 days = 120 random = 120 }
            }
			random = {
                chance = 50
                country_event = { id = gommo_expansion_events.9 days = 90 random = 120 }
            }
        }
		
		ai_chance = {
			factor = 75
			modifier = {
				factor = 0
				wants_to_decrease_tolerance_gnomish = yes
			}
		}
	}
	
	option = { #Refuse the petition
		name = "gommo_expansion_events.2.b"
	
		medium_decrease_of_gnomish_tolerance_effect = yes
		add_mil_power = 50
		
		ai_chance = {
			factor = 25
			modifier = {
				factor = 0
				wants_to_increase_tolerance_gnomish = yes
			}
		}
	}
}

province_event = { #Gommo Institute in special cities
	id = gommo_expansion_events.3
	title = gommo_expansion_events.3.t
	desc = gommo_expansion_events.3.d
	picture = CITY_DEVELOPMENT_eventPicture
	goto = ROOT
	
	trigger = {
		
		owner = {
			NOT = { culture_group = gnomish }
			has_institution = global_trade
			NOT = { has_country_flag = gommo_petition_refused_gommo }
			is_core = ROOT
		}
		
		OR = {		
			has_integrated_gnomish_pop_trigger = yes
			has_coexisting_gnomish_pop_trigger = yes
		}
		
		NOT = { has_province_modifier = gnomish_institute_gommo }
		NOT = { has_province_flag = special_gnomish_quarter_gommo }
		
		OR = {	
			province_id = 536 #Aqatbar
			province_id = 4435 #Rayavhashapal
			province_id = 365 #Port Jaher
			province_id = 4879 #Feiten
			province_id = 2773 #Kherka
			province_id = 4701 #Cay Cam Sinh
			province_id = 4963 #Arawkelin
			province_id = 4871 #Tianlou
			province_id = 4500 #Sarisung
			province_id = 4936 #Mao Ji
		}	
	}
	
	is_triggered_only = yes
	
	option = { #Grant them charter
		name = "gommo_expansion_events.2.a"
		
		owner = { largest_increase_of_gnomish_tolerance_effect = yes }
		add_gnomish_minority_size_effect = yes
		
		add_permanent_province_modifier = {
			name = gnomish_institute_gommo 
			duration = -1
		}
		
		hidden_effect = {
			owner = {
				random = {
					chance = 50
					country_event = { id = gommo_expansion_events.4 days = 60 random = 60 }
				}
				random = {
					chance = 50
					country_event = { id = gommo_expansion_events.5 days = 90 random = 60 }
				}
				random = {
					chance = 50
					country_event = { id = gommo_expansion_events.6 days = 120 random = 60 }
				}
				random = {
					chance = 50
					country_event = { id = gommo_expansion_events.7 days = 120 random = 90 }
				}
				random = {
					chance = 50
					country_event = { id = gommo_expansion_events.8 days = 120 random = 120 }
				}
				random = {
					chance = 50
					country_event = { id = gommo_expansion_events.9 days = 90 random = 120 }
				}
			}
        }
		
		ai_chance = {
			factor = 75
			modifier = {
				factor = 0
				owner = { wants_to_decrease_tolerance_gnomish = yes }
			}
		}
	}
	
	option = { #Refuse the petition
		name = "gommo_expansion_events.3.b"
	
		owner = { medium_decrease_of_gnomish_tolerance_effect = yes }
		
		ai_chance = {
			factor = 20
			modifier = {
				factor = 0
				owner = { wants_to_increase_tolerance_gnomish = yes }
			}
		}
	}
	
	option = {
		name = "gommo_expansion_events.3.c"
		
		owner = { 
			large_decrease_of_gnomish_tolerance_effect = yes 
			set_country_flag = gommo_petition_refused_gommo
		}
		
		ai_chance = {
			factor = 5
			modifier = {
				factor = 0
				owner = { wants_to_increase_tolerance_gnomish = yes }
			}
		}
	}
}

country_event = { #Gnome Patrol
	id = gommo_expansion_events.4
	title = gommo_expansion_events.4.t
	desc = gommo_expansion_events.4.d
	picture = CITY_DEVELOPMENT_eventPicture
	
	trigger = {
		any_owned_province = {
			has_province_modifier = gnomish_institute_gommo 
		}
		NOT = {
			has_country_flag = gommo_branch_4
		}
	}
	
	is_triggered_only = yes
	
	immediate = {
		set_country_flag = gommo_branch_4
	}
	
	option = {
		name = "gommo_expansion_events.4.a"
	
		medium_increase_of_gnomish_tolerance_effect = yes
		add_dip_power = 15
		
		ai_chance = {
			factor = 75
			modifier = {
				factor = 0
				wants_to_decrease_tolerance_gnomish = yes
			}
		}
	}
	
	option = {
		name = "gommo_expansion_events.4.b"
	
		medium_decrease_of_gnomish_tolerance_effect = yes
		add_mil_power = 35
		
		ai_chance = {
			factor = 25
			modifier = {
				factor = 0
				wants_to_increase_tolerance_gnomish = yes
			}
		}
	}
}

country_event = { #Gnomish Street names?
	id = gommo_expansion_events.5
	title = gommo_expansion_events.5.t
	desc = gommo_expansion_events.5.d
	picture = CITY_DEVELOPMENT_eventPicture
	
	trigger = {
		any_owned_province = {
			has_province_modifier = gnomish_institute_gommo 
		}
		NOT = {
			has_country_flag = gommo_branch_3
		}
	}
	
	is_triggered_only = yes
	
	immediate = {
		set_country_flag = gommo_branch_3
	}
	
	option = {
		name = "gommo_expansion_events.5.a"
	
		medium_increase_of_gnomish_tolerance_effect = yes
		add_dip_power = 15
		
		ai_chance = {
			factor = 75
			modifier = {
				factor = 0
				wants_to_decrease_tolerance_gnomish = yes
			}
		}
	}
	
	option = {
		name = "gommo_expansion_events.5.b"
	
		medium_decrease_of_gnomish_tolerance_effect = yes
		add_adm_power = 35
		
		ai_chance = {
			factor = 25
			modifier = {
				factor = 0
				wants_to_increase_tolerance_gnomish = yes
			}
		}
	}
}

country_event = { #Noise protection ordinance
	id = gommo_expansion_events.6
	title = gommo_expansion_events.6.t
	desc = gommo_expansion_events.6.d
	picture = CITY_DEVELOPMENT_eventPicture
	
	trigger = {
		any_owned_province = {
			has_province_modifier = gnomish_institute_gommo 
		}
		NOT = {
			has_country_flag = gommo_branch_2
		}
	}
	
	is_triggered_only = yes
	
	immediate = {
		set_country_flag = gommo_branch_2
	}
	
	option = {
		name = "gommo_expansion_events.6.a"
	
		medium_increase_of_gnomish_tolerance_effect = yes
		add_adm_power = 25
		
		ai_chance = {
			factor = 75
			modifier = {
				factor = 0
				wants_to_decrease_tolerance_gnomish = yes
			}
		}
	}
	
	option = {
		name = "gommo_expansion_events.6.b"
	
		medium_decrease_of_gnomish_tolerance_effect = yes
		add_adm_power = 15
		add_mil_power = 15
		
		ai_chance = {
			factor = 25
			modifier = {
				factor = 0
				wants_to_increase_tolerance_gnomish = yes
			}
		}
	}
}

country_event = { #Steam explosion
	id = gommo_expansion_events.7
	title = gommo_expansion_events.7.t
	desc = gommo_expansion_events.7.d
	picture = CITY_DEVELOPMENT_eventPicture
	
	trigger = {
		any_owned_province = {
			has_province_modifier = gnomish_institute_gommo 
		}
		NOT = {
			has_country_flag = gommo_branch_1
		}
	}
	
	is_triggered_only = yes
	
	immediate = {
		set_country_flag = gommo_branch_1
	}

	option = {
		name = "gommo_expansion_events.7.a"
	
		add_mil_power = -35
		add_adm_power = -35
		
		ai_chance = {
			factor = 35
			modifier = {
				factor = 0
				wants_to_decrease_tolerance_gnomish = yes
			}
		}
	}
	
	option = {
		name = "gommo_expansion_events.7.b"
	
		medium_decrease_of_gnomish_tolerance_effect = yes
		add_adm_power = -10
		
		ai_chance = {
			factor = 65
			modifier = {
				factor = 0
				wants_to_increase_tolerance_gnomish = yes
			}
		}
	}
}

country_event = { #Dye crisis red hats
	id = gommo_expansion_events.8
	title = gommo_expansion_events.8.t
	desc = gommo_expansion_events.8.d
	picture = CITY_DEVELOPMENT_eventPicture
	
	trigger = {
		any_owned_province = {
			has_province_modifier = gnomish_institute_gommo 
		}
		NOT = {
			has_country_flag = gommo_branch_5
		}
	}
	
	is_triggered_only = yes
	
	immediate = {
		set_country_flag = gommo_branch_5
	}

	option = {
		name = "gommo_expansion_events.8.a"
	
		medium_increase_of_gnomish_tolerance_effect = yes
		
		ai_chance = {
			factor = 75
			modifier = {
				factor = 0
				wants_to_decrease_tolerance_gnomish = yes
			}
		}
	}
	
	option = {
		name = "gommo_expansion_events.8.b"
	
		medium_decrease_of_gnomish_tolerance_effect = yes
		add_dip_power = 25
		
		ai_chance = {
			factor = 25
			modifier = {
				factor = 0
				wants_to_increase_tolerance_gnomish = yes
			}
		}
	}
}

country_event = { #Artifice?
	id = gommo_expansion_events.9
	title = gommo_expansion_events.9.t
	desc = gommo_expansion_events.9.d
	picture = CITY_DEVELOPMENT_eventPicture
	
	trigger = {
		has_estate = estate_mages
		any_owned_province = {
			has_province_modifier = gnomish_institute_gommo 
		}
		NOT = {
			has_country_flag = gommo_branch_6
		}
	}
	
	is_triggered_only = yes
	
	immediate = {
		set_country_flag = gommo_branch_6
	}

	option = {
		name = "gommo_expansion_events.9.a"
	
		medium_increase_of_gnomish_tolerance_effect = yes
		add_adm_power = 25
		add_dip_power = 25
		add_mil_power = 25
		add_estate_loyalty = {
			estate = estate_mages
			loyalty = -10
		}
		
		ai_chance = {
			factor = 75
			modifier = {
				factor = 0
				wants_to_decrease_tolerance_gnomish = yes
			}
		}
	}
	
	option = {
		name = "gommo_expansion_events.9.b"
	
		medium_decrease_of_gnomish_tolerance_effect = yes
		add_estate_loyalty = {
			estate = estate_mages
			loyalty = 10
		}
		
		ai_chance = {
			factor = 25
			modifier = {
				factor = 0
				wants_to_increase_tolerance_gnomish = yes
			}
		}
	}
}

country_event = { #Special quarter in Aqatbar
	id = gommo_expansion_events.10
	title = gommo_expansion_events.10.t
	desc = gommo_expansion_events.10.d
	picture = HOUSE_OF_TRADE_eventPicture
	
	trigger = {	
		536 = {
			owned_by = ROOT
			is_core = ROOT
			has_province_modifier = gnomish_institute_gommo 
			has_integrated_gnomish_pop_trigger = yes
		}
		NOT = { has_country_flag = gommo_petition_refused_gommo1 }
	}
	
	is_triggered_only = yes
	
	option = {
		name = "gommo_expansion_events.10.a"
		536 = {
			remove_province_modifier = gnomish_institute_gommo 
			set_province_flag = special_gnomish_quarter_gommo
			add_permanent_province_modifier = {
				name = aqatbar_gnome_quarter
				duration = -1
			}
		}
		
		ai_chance = {
			factor = 85
			modifier = {
				factor = 0
				wants_to_decrease_tolerance_gnomish = yes
			}
		}
	}
	
	option = { #We don't want them.
		name = "gommo_expansion_events.10.b"
		
		medium_decrease_of_gnomish_tolerance_effect = yes
		536 = {
			remove_province_modifier = gnomish_institute_gommo 
		}
		
		set_country_flag = gommo_petition_refused_gommo1
		
		ai_chance = {
			factor = 15
			modifier = {
				factor = 0
				wants_to_increase_tolerance_gnomish = yes
			}
		}
	}
}

country_event = { #Special quarter in Port Jaher
	id = gommo_expansion_events.11
	title = gommo_expansion_events.11.t
	desc = gommo_expansion_events.11.d
	picture = HOUSE_OF_TRADE_eventPicture
	
	trigger = {	
		tag = A29
		religion = ravelian
		365 = {
			owned_by = ROOT
			is_core = ROOT
			has_province_modifier = gnomish_institute_gommo 
			has_integrated_gnomish_pop_trigger = yes
		}
		NOT = { has_country_flag = gommo_petition_refused_gommo2 }
	}
	
	is_triggered_only = yes
	
	option = {
		name = "gommo_expansion_events.10.a"
		365 = {
			remove_province_modifier = gnomish_institute_gommo 
			set_province_flag = special_gnomish_quarter_gommo
			add_permanent_province_modifier = {
				name = port_jaher_gnome_quarter
				duration = -1
			}
		}
		
		ai_chance = {
			factor = 85
			modifier = {
				factor = 0
				wants_to_decrease_tolerance_gnomish = yes
			}
		}
	}
	
	option = { #We don't want them.
		name = "gommo_expansion_events.10.b"
		
		medium_decrease_of_gnomish_tolerance_effect = yes
		365 = {
			remove_province_modifier = gnomish_institute_gommo 
		}
		
		set_country_flag = gommo_petition_refused_gommo2
		
		ai_chance = {
			factor = 15
			modifier = {
				factor = 0
				wants_to_increase_tolerance_gnomish = yes
			}
		}
	}
}

country_event = { #Special quarter in Rayavhashapal
	id = gommo_expansion_events.12
	title = gommo_expansion_events.12.t
	desc = gommo_expansion_events.12.d
	picture = HOUSE_OF_TRADE_eventPicture
	
	trigger = {	
		4435 = {
			owned_by = ROOT
			is_core = ROOT
			has_province_modifier = gnomish_institute_gommo 
			has_integrated_gnomish_pop_trigger = yes
		}
		NOT = { has_country_flag = gommo_petition_refused_gommo3 }
	}
	
	is_triggered_only = yes
	
	option = {
		name = "gommo_expansion_events.10.a"
		4435 = {
			remove_province_modifier = gnomish_institute_gommo 
			set_province_flag = special_gnomish_quarter_gommo
			add_permanent_province_modifier = {
				name = rayavhashapal_gnome_quarter
				duration = -1
			}
		}
		
		ai_chance = {
			factor = 85
			modifier = {
				factor = 0
				wants_to_decrease_tolerance_gnomish = yes
			}
		}
	}
	
	option = { #We don't want them.
		name = "gommo_expansion_events.10.b"
		
		medium_decrease_of_gnomish_tolerance_effect = yes
		4435 = {
			remove_province_modifier = gnomish_institute_gommo 
		}
		
		set_country_flag = gommo_petition_refused_gommo3
		
		ai_chance = {
			factor = 15
			modifier = {
				factor = 0
				wants_to_increase_tolerance_gnomish = yes
			}
		}
	}
}

country_event = { #Special quarter in Feiten
	id = gommo_expansion_events.13
	title = gommo_expansion_events.13.t
	desc = gommo_expansion_events.13.d
	picture = HOUSE_OF_TRADE_eventPicture
	
	trigger = {	
		4879 = {
			owned_by = ROOT
			is_core = ROOT
			has_province_modifier = gnomish_institute_gommo 
			has_integrated_gnomish_pop_trigger = yes
		}
		NOT = { has_country_flag = gommo_petition_refused_gommo4 }
		has_institution = industrialization
	}
	
	is_triggered_only = yes
	
	option = {
		name = "gommo_expansion_events.10.a"
		4879 = {
			remove_province_modifier = gnomish_institute_gommo 
			set_province_flag = special_gnomish_quarter_gommo
			add_permanent_province_modifier = {
				name = feiten_gnome_quarter
				duration = -1
			}
		}
		
		ai_chance = {
			factor = 85
			modifier = {
				factor = 0
				wants_to_decrease_tolerance_gnomish = yes
			}
		}
	}
	
	option = { #We don't want them.
		name = "gommo_expansion_events.10.b"
		
		medium_decrease_of_gnomish_tolerance_effect = yes
		4879 = {
			remove_province_modifier = gnomish_institute_gommo 
		}
		
		set_country_flag = gommo_petition_refused_gommo4
		
		ai_chance = {
			factor = 15
			modifier = {
				factor = 0
				wants_to_increase_tolerance_gnomish = yes
			}
		}
	}
}

country_event = { #Special quarter in Kherka
	id = gommo_expansion_events.14
	title = gommo_expansion_events.14.t
	desc = gommo_expansion_events.14.d
	picture = HOUSE_OF_TRADE_eventPicture
	
	trigger = {	
		2773 = {
			owned_by = ROOT
			is_core = ROOT
			has_province_modifier = gnomish_institute_gommo 
			has_integrated_gnomish_pop_trigger = yes
		}
		NOT = { has_country_flag = gommo_petition_refused_gommo5 }
		has_institution = manufactories
	}
	
	is_triggered_only = yes
	
	option = {
		name = "gommo_expansion_events.10.a"
		2773 = {
			remove_province_modifier = gnomish_institute_gommo 
			set_province_flag = special_gnomish_quarter_gommo
			add_permanent_province_modifier = {
				name = kherka_gnome_quarter
				duration = -1
			}
		}
		
		ai_chance = {
			factor = 85
			modifier = {
				factor = 0
				wants_to_decrease_tolerance_gnomish = yes
			}
		}
	}
	
	option = { #We don't want them.
		name = "gommo_expansion_events.10.b"
		
		medium_decrease_of_gnomish_tolerance_effect = yes
		2773 = {
			remove_province_modifier = gnomish_institute_gommo 
		}
		
		set_country_flag = gommo_petition_refused_gommo5
		
		ai_chance = {
			factor = 15
			modifier = {
				factor = 0
				wants_to_increase_tolerance_gnomish = yes
			}
		}
	}
}

country_event = { #Special quarter in Cay Cam Sinh
	id = gommo_expansion_events.15
	title = gommo_expansion_events.15.t
	desc = gommo_expansion_events.15.d
	picture = HOUSE_OF_TRADE_eventPicture
	
	trigger = {	
		4701 = {
			owned_by = ROOT
			is_core = ROOT
			has_province_modifier = gnomish_institute_gommo 
			has_integrated_gnomish_pop_trigger = yes
		}
		NOT = { has_country_flag = gommo_petition_refused_gommo6 }
		has_institution = manufactories
	}
	
	is_triggered_only = yes
	
	option = {
		name = "gommo_expansion_events.10.a"
		4701 = {
			remove_province_modifier = gnomish_institute_gommo 
			set_province_flag = special_gnomish_quarter_gommo
			add_permanent_province_modifier = {
				name = camsinh_gnome_quarter
				duration = -1
			}
		}
		
		ai_chance = {
			factor = 85
			modifier = {
				factor = 0
				wants_to_decrease_tolerance_gnomish = yes
			}
		}
	}
	
	option = { #We don't want them.
		name = "gommo_expansion_events.10.b"
		
		medium_decrease_of_gnomish_tolerance_effect = yes
		4701 = {
			remove_province_modifier = gnomish_institute_gommo 
		}
		
		set_country_flag = gommo_petition_refused_gommo6
		
		ai_chance = {
			factor = 15
			modifier = {
				factor = 0
				wants_to_increase_tolerance_gnomish = yes
			}
		}
	}
}

country_event = { #Special quarter in Arawkelin
	id = gommo_expansion_events.16
	title = gommo_expansion_events.16.t
	desc = gommo_expansion_events.16.d
	picture = HOUSE_OF_TRADE_eventPicture
	
	trigger = {	
		4963 = {
			owned_by = ROOT
			is_core = ROOT
			has_province_modifier = gnomish_institute_gommo 
			has_integrated_gnomish_pop_trigger = yes
		}
		NOT = { has_country_flag = gommo_petition_refused_gommo7 }
	}
	
	is_triggered_only = yes
	
	option = {
		name = "gommo_expansion_events.10.a"
		4963 = {
			remove_province_modifier = gnomish_institute_gommo 
			set_province_flag = special_gnomish_quarter_gommo
			add_permanent_province_modifier = {
				name = arawkelin_gnome_quarter
				duration = -1
			}
		}
		
		ai_chance = {
			factor = 85
			modifier = {
				factor = 0
				wants_to_decrease_tolerance_gnomish = yes
			}
		}
	}
	
	option = { #We don't want them.
		name = "gommo_expansion_events.10.b"
		
		medium_decrease_of_gnomish_tolerance_effect = yes
		4963 = {
			remove_province_modifier = gnomish_institute_gommo 
		}
		
		set_country_flag = gommo_petition_refused_gommo7
		
		ai_chance = {
			factor = 15
			modifier = {
				factor = 0
				wants_to_increase_tolerance_gnomish = yes
			}
		}
	}
}

country_event = { #Special quarter in Tianlou
	id = gommo_expansion_events.17
	title = gommo_expansion_events.17.t
	desc = gommo_expansion_events.17.d
	picture = HOUSE_OF_TRADE_eventPicture
	
	trigger = {	
		4871 = {
			owned_by = ROOT
			is_core = ROOT
			has_province_modifier = gnomish_institute_gommo 
			has_integrated_gnomish_pop_trigger = yes
		}
		NOT = { has_country_flag = gommo_petition_refused_gommo8 }
	}
	
	is_triggered_only = yes
	
	option = {
		name = "gommo_expansion_events.10.a"
		4871 = {
			remove_province_modifier = gnomish_institute_gommo 
			set_province_flag = special_gnomish_quarter_gommo
			add_permanent_province_modifier = {
				name = tianlou_gnome_quarter
				duration = -1
			}
		}
		
		ai_chance = {
			factor = 85
			modifier = {
				factor = 0
				wants_to_decrease_tolerance_gnomish = yes
			}
		}
	}
	
	option = { #We don't want them.
		name = "gommo_expansion_events.10.b"
		
		medium_decrease_of_gnomish_tolerance_effect = yes
		4871 = {
			remove_province_modifier = gnomish_institute_gommo 
		}
		
		set_country_flag = gommo_petition_refused_gommo8
		
		ai_chance = {
			factor = 15
			modifier = {
				factor = 0
				wants_to_increase_tolerance_gnomish = yes
			}
		}
	}
}

country_event = { #Special quarter in Sarisung
	id = gommo_expansion_events.18
	title = gommo_expansion_events.18.t
	desc = gommo_expansion_events.18.d
	picture = HOUSE_OF_TRADE_eventPicture
	
	trigger = {	
		4500 = {
			owned_by = ROOT
			is_core = ROOT
			has_province_modifier = gnomish_institute_gommo 
			has_integrated_gnomish_pop_trigger = yes
		}
		NOT = { has_country_flag = gommo_petition_refused_gommo9 }
		has_institution = manufactories
	}
	
	is_triggered_only = yes
	
	option = {
		name = "gommo_expansion_events.10.a"
		4500 = {
			remove_province_modifier = gnomish_institute_gommo 
			set_province_flag = special_gnomish_quarter_gommo
			add_permanent_province_modifier = {
				name = sarisung_gnome_quarter
				duration = -1
			}
		}
		
		ai_chance = {
			factor = 85
			modifier = {
				factor = 0
				wants_to_decrease_tolerance_gnomish = yes
			}
		}
	}
	
	option = { #We don't want them.
		name = "gommo_expansion_events.10.b"
		
		medium_decrease_of_gnomish_tolerance_effect = yes
		4500 = {
			remove_province_modifier = gnomish_institute_gommo 
		}
		
		set_country_flag = gommo_petition_refused_gommo9
		
		ai_chance = {
			factor = 15
			modifier = {
				factor = 0
				wants_to_increase_tolerance_gnomish = yes
			}
		}
	}
}

country_event = { #Special quarter in Mao Ji
	id = gommo_expansion_events.19
	title = gommo_expansion_events.19.t
	desc = gommo_expansion_events.19.d
	picture = HOUSE_OF_TRADE_eventPicture
	
	trigger = {	
		4936 = {
			owned_by = ROOT
			is_core = ROOT
			has_province_modifier = gnomish_institute_gommo 
			has_integrated_gnomish_pop_trigger = yes
		}
		NOT = { has_country_flag = gommo_petition_refused_gommo10 }
		has_institution = manufactories
	}
	
	is_triggered_only = yes
	
	option = {
		name = "gommo_expansion_events.10.a"
		4936 = {
			remove_province_modifier = gnomish_institute_gommo 
			set_province_flag = special_gnomish_quarter_gommo
			add_permanent_province_modifier = {
				name = maoji_gnome_quarter
				duration = -1
			}
		}
		
		ai_chance = {
			factor = 85
			modifier = {
				factor = 0
				wants_to_decrease_tolerance_gnomish = yes
			}
		}
	}
	
	option = { #We don't want them.
		name = "gommo_expansion_events.10.b"
		
		medium_decrease_of_gnomish_tolerance_effect = yes
		4936 = {
			remove_province_modifier = gnomish_institute_gommo 
		}
		
		set_country_flag = gommo_petition_refused_gommo10
		
		ai_chance = {
			factor = 15
			modifier = {
				factor = 0
				wants_to_increase_tolerance_gnomish = yes
			}
		}
	}
}

province_event = { #Aqatbar immigration
	id = gommo_expansion_events.20
	title = gommo_expansion_events.20.t
	desc = gommo_expansion_events.20.d
	picture = EUROPEAN_REFUGEES_eventPicture

	trigger = {
		province_id = 536
		NOT = {
			has_any_gnomish_pop_trigger = yes
		}
		
		owner = {
			NOT = { culture_group = gnomish }
			has_institution = global_trade
			NOT = { has_country_flag = gnomes_refused_gommo1 }
			is_core = ROOT
		}
	}
	
	is_triggered_only = yes
	
	option = { #Welcome them
		name = "gommo_expansion_events.1.a"
		
		owner = { largest_increase_of_gnomish_tolerance_effect = yes }
		536 = { add_gnomish_minority_size_effect = yes }
		
		ai_chance = {
			factor = 75
			modifier = {
				factor = 0
				owner = { wants_to_decrease_tolerance_gnomish = yes }
			}
		}
	}

	option = { #Refuse them
		name = "gommo_expansion_events.1.b"
		
		owner = {
			set_country_flag = gnomes_refused_gommo1
			add_adm_power = 35
		}
		
		ai_chance = {
			factor = 25
			modifier = {
				factor = 0
				owner = { wants_to_increase_tolerance_gnomish = yes }
			}
		}
	}
}

province_event = { #Port Jaher immigration
	id = gommo_expansion_events.21
	title = gommo_expansion_events.21.t
	desc = gommo_expansion_events.21.d
	picture = EUROPEAN_REFUGEES_eventPicture

	trigger = {
		province_id = 365
		NOT = {
			has_any_gnomish_pop_trigger = yes
		}
		
		owner = {
			tag = A29
			religion = ravelian
			NOT = { culture_group = gnomish }
			has_institution = global_trade
			NOT = { has_country_flag = gnomes_refused_gommo2 }
			is_core = ROOT
		}
	}
	
	is_triggered_only = yes
	
	option = { #Welcome them
		name = "gommo_expansion_events.1.a"
		owner = { largest_increase_of_gnomish_tolerance_effect = yes }
		365 = { add_gnomish_minority_size_effect = yes }
		
		ai_chance = {
			factor = 75
			modifier = {
				factor = 0
				owner = { wants_to_decrease_tolerance_gnomish = yes }
			}
		}
	}

	option = { #Refuse them
		name = "gommo_expansion_events.1.b"
		
		
		
		owner = {
			set_country_flag = gnomes_refused_gommo2
			add_adm_power = 35
		}
		
		ai_chance = {
			factor = 25
			modifier = {
				factor = 0
				owner = { wants_to_increase_tolerance_gnomish = yes }
			}
		}
	}
}

province_event = { #Rayavhashapal immigration
	id = gommo_expansion_events.22
	title = gommo_expansion_events.22.t
	desc = gommo_expansion_events.22.d
	picture = EUROPEAN_REFUGEES_eventPicture

	trigger = {
		province_id = 4435
		NOT = {
			has_any_gnomish_pop_trigger = yes
		}
		
		owner = {
			NOT = { culture_group = gnomish }
			has_institution = global_trade
			NOT = { has_country_flag = gnomes_refused_gommo3 }
			is_core = ROOT
		}
	}
	
	is_triggered_only = yes
	
	option = { #Welcome them
		name = "gommo_expansion_events.1.a"
		owner = { largest_increase_of_gnomish_tolerance_effect = yes }
		4435 = { add_gnomish_minority_size_effect = yes }
		
		ai_chance = {
			factor = 75
			modifier = {
				factor = 0
				owner = { wants_to_decrease_tolerance_gnomish = yes }
			}
		}
	}

	option = { #Refuse them
		name = "gommo_expansion_events.1.b"
		
		owner = {
			set_country_flag = gnomes_refused_gommo3
			add_adm_power = 35
		}
		
		ai_chance = {
			factor = 25
			modifier = {
				factor = 0
				owner = { wants_to_increase_tolerance_gnomish = yes }
			}
		}
	}
}

province_event = { #Feiten immigration
	id = gommo_expansion_events.23
	title = gommo_expansion_events.23.t
	desc = gommo_expansion_events.23.d
	picture = EUROPEAN_REFUGEES_eventPicture

	trigger = {
		province_id = 4879
		NOT = {
			has_any_gnomish_pop_trigger = yes
		}
		
		owner = {
			NOT = { culture_group = gnomish }
			has_institution = industrialization
			NOT = { has_country_flag = gnomes_refused_gommo4 }
			is_core = ROOT
		}
	}
	
	is_triggered_only = yes
	
	option = { #Welcome them
		name = "gommo_expansion_events.1.a"
		
		owner = { largest_increase_of_gnomish_tolerance_effect = yes }
		4879 = { add_gnomish_minority_size_effect = yes }
		
		ai_chance = {
			factor = 75
			modifier = {
				factor = 0
				owner = { wants_to_decrease_tolerance_gnomish = yes }
			}
		}
	}

	option = { #Refuse them
		name = "gommo_expansion_events.1.b"
		
		owner = {
			set_country_flag = gnomes_refused_gommo4
			add_adm_power = 35
		}
		
		ai_chance = {
			factor = 25
			modifier = {
				factor = 0
				owner = { wants_to_increase_tolerance_gnomish = yes }
			}
		}
	}
}

province_event = { #Kherka immigration
	id = gommo_expansion_events.24
	title = gommo_expansion_events.24.t
	desc = gommo_expansion_events.24.d
	picture = EUROPEAN_REFUGEES_eventPicture

	trigger = {
		province_id = 2773
		NOT = {
			has_any_gnomish_pop_trigger = yes
		}
		
		owner = {
			NOT = { culture_group = gnomish }
			has_institution = manufactories
			NOT = { has_country_flag = gnomes_refused_gommo5 }
			is_core = ROOT
		}
	}
	
	is_triggered_only = yes
	
	option = { #Welcome them
		name = "gommo_expansion_events.1.a"
		owner = { largest_increase_of_gnomish_tolerance_effect = yes }
		2773 = { add_gnomish_minority_size_effect = yes }
		
		ai_chance = {
			factor = 75
			modifier = {
				factor = 0
				owner = { wants_to_increase_tolerance_gnomish = yes }
			}
		}
	}

	option = { #Refuse them
		name = "gommo_expansion_events.1.b"
		
		owner = {
			set_country_flag = gnomes_refused_gommo5
			add_adm_power = 35
		}
		
		ai_chance = {
			factor = 25
			modifier = {
				factor = 0
				owner = { wants_to_increase_tolerance_gnomish = yes }
			}
		}
	}
}

province_event = { #Cay Cam Sinh immigration
	id = gommo_expansion_events.25
	title = gommo_expansion_events.25.t
	desc = gommo_expansion_events.25.d
	picture = EUROPEAN_REFUGEES_eventPicture

	trigger = {
		province_id = 4701
		NOT = {
			has_any_gnomish_pop_trigger = yes
		}
		
		owner = {
			NOT = { culture_group = gnomish }
			has_institution = manufactories
			NOT = { has_country_flag = gnomes_refused_gommo6 }
			is_core = ROOT
		}
	}
	
	is_triggered_only = yes
	
	option = { #Welcome them
		name = "gommo_expansion_events.1.a"
		owner = { largest_increase_of_gnomish_tolerance_effect = yes }
		4701 = { add_gnomish_minority_size_effect = yes }
		
		ai_chance = {
			factor = 75
			modifier = {
				factor = 0
				owner = { wants_to_decrease_tolerance_gnomish = yes }
			}
		}
	}

	option = { #Refuse them
		name = "gommo_expansion_events.1.b"
		
		owner = {
			set_country_flag = gnomes_refused_gommo6
			add_adm_power = 35
		}
		
		ai_chance = {
			factor = 25
			modifier = {
				factor = 0
				owner = { wants_to_increase_tolerance_gnomish = yes }
			}
		}
	}
}

province_event = { #Arawkelin immigration
	id = gommo_expansion_events.26
	title = gommo_expansion_events.26.t
	desc = gommo_expansion_events.26.d
	picture = EUROPEAN_REFUGEES_eventPicture

	trigger = {
		province_id = 4963
		NOT = {
			has_any_gnomish_pop_trigger = yes
		}
		
		owner = {
			NOT = { culture_group = gnomish }
			has_institution = global_trade
			NOT = { has_country_flag = gnomes_refused_gommo7 }
			is_core = ROOT
		}
	}
	
	is_triggered_only = yes
	
	option = { #Welcome them
		name = "gommo_expansion_events.1.a"
		owner = { largest_increase_of_gnomish_tolerance_effect = yes }
		4963 = { add_gnomish_minority_size_effect = yes }
		
		ai_chance = {
			factor = 75
			modifier = {
				factor = 0
				owner = { wants_to_decrease_tolerance_gnomish = yes }
			}
		}
	}

	option = { #Refuse them
		name = "gommo_expansion_events.1.b"

		owner = {
			set_country_flag = gnomes_refused_gommo7
			add_adm_power = 35
		}
		
		ai_chance = {
			factor = 25
			modifier = {
				factor = 0
				owner = { wants_to_increase_tolerance_gnomish = yes }
			}
		}
	}
}

province_event = { #Tianlou immigration
	id = gommo_expansion_events.27
	title = gommo_expansion_events.27.t
	desc = gommo_expansion_events.27.d
	picture = EUROPEAN_REFUGEES_eventPicture

	trigger = {
		province_id = 4871
		NOT = {
			has_any_gnomish_pop_trigger = yes
		}
		
		owner = {
			NOT = { culture_group = gnomish }
			has_institution = global_trade
			NOT = { has_country_flag = gnomes_refused_gommo8 }
			is_core = ROOT
		}
	}
	
	is_triggered_only = yes
	
	option = { #Welcome them
		name = "gommo_expansion_events.1.a"
		owner = { largest_increase_of_gnomish_tolerance_effect = yes }
		4871 = { add_gnomish_minority_size_effect = yes }
		
		ai_chance = {
			factor = 75
			modifier = {
				factor = 0
				owner = { wants_to_decrease_tolerance_gnomish = yes }
			}
		}
	}

	option = { #Refuse them
		name = "gommo_expansion_events.1.b"
		
		owner = {
			set_country_flag = gnomes_refused_gommo8
			add_adm_power = 35
		}
		
		ai_chance = {
			factor = 25
			modifier = {
				factor = 0
				owner = { wants_to_increase_tolerance_gnomish = yes }
			}
		}
	}
}

province_event = { #Sarisung immigration
	id = gommo_expansion_events.28
	title = gommo_expansion_events.28.t
	desc = gommo_expansion_events.28.d
	picture = EUROPEAN_REFUGEES_eventPicture

	trigger = {
		province_id = 4500
		NOT = {
			has_any_gnomish_pop_trigger = yes
		}
		
		owner = {
			NOT = { culture_group = gnomish }
			has_institution = manufactories
			NOT = { has_country_flag = gnomes_refused_gommo9 }
			is_core = ROOT
		}
	}
	
	is_triggered_only = yes
	
	option = { #Welcome them
		name = "gommo_expansion_events.1.a"
		owner = { largest_increase_of_gnomish_tolerance_effect = yes }
		4500 = { add_gnomish_minority_size_effect = yes }
		
		ai_chance = {
			factor = 75
			modifier = {
				factor = 0
				owner = { wants_to_decrease_tolerance_gnomish = yes }
			}
		}
	}

	option = { #Refuse them
		name = "gommo_expansion_events.1.b"
		
		owner = {
			set_country_flag = gnomes_refused_gommo9
			add_adm_power = 35
		}
		
		ai_chance = {
			factor = 25
			modifier = {
				factor = 0
				owner = { wants_to_increase_tolerance_gnomish = yes }
			}
		}
	}
}

province_event = { #Mao Ji immigration
	id = gommo_expansion_events.29
	title = gommo_expansion_events.29.t
	desc = gommo_expansion_events.29.d
	picture = EUROPEAN_REFUGEES_eventPicture

	trigger = {
		province_id = 4936
		NOT = {
			has_any_gnomish_pop_trigger = yes
		}
		
		owner = {
			NOT = { culture_group = gnomish }
			has_institution = manufactories
			NOT = { has_country_flag = gnomes_refused_gommo10 }
			is_core = ROOT
		}
	}
	
	is_triggered_only = yes
	
	option = { #Welcome them
		name = "gommo_expansion_events.1.a"
		owner = { largest_increase_of_gnomish_tolerance_effect = yes }
		4936 = { add_gnomish_minority_size_effect = yes }
		
		ai_chance = {
			factor = 75
			modifier = {
				factor = 0
				owner = { wants_to_decrease_tolerance_gnomish = yes }
			}
		}
	}

	option = { #Refuse them
		name = "gommo_expansion_events.1.b"
		
		owner = {
			set_country_flag = gnomes_refused_gommo10
			add_adm_power = 35
		}
		
		ai_chance = {
			factor = 25
			modifier = {
				factor = 0
				owner = { wants_to_increase_tolerance_gnomish = yes }
			}
		}
	}
}

country_event = { #Special quarter in Aqatbar for gnomes
	id = gommo_expansion_events.30
	title = gommo_expansion_events.30.t
	desc = gommo_expansion_events.30.d
	picture = HOUSE_OF_TRADE_eventPicture
	
	trigger = {	
		culture_group = gnomish
		has_institution = global_trade
		NOT = { has_country_flag = gommo_petition_refused_gommo1 }
		has_estate_privilege = estate_artificers_organization_international_gommo
		
		536 = {
			owned_by = ROOT
			has_integrated_gnomish_pop_trigger = yes
			NOT = { has_province_flag = special_gnomish_quarter_gommo }
			is_core = ROOT
		}
	}
	
	is_triggered_only = yes
	
	option = { #Funding granted
		name = "gommo_expansion_events.30.a"
		536 = {
			remove_province_modifier = gnomish_institute_gommo
			set_province_flag = special_gnomish_quarter_gommo
			add_permanent_province_modifier = {
				name = aqatbar_gnome_quarter
				duration = -1
			}
		}
		add_years_of_income = -0.5
		ai_chance = {
			factor = 95
			modifier = {
				factor = 0
				is_bankrupt = yes
			}
		}
	}
	
	option = { #Project scrapped
		name = "gommo_expansion_events.30.b"
		
		add_years_of_income = 0.5
		set_country_flag = gommo_petition_refused_gommo1
		
		ai_chance = {
			factor = 5
			modifier = {
				factor = 0
				is_bankrupt = no
			}
		}
	}
}

country_event = { #Special quarter in Port Jaher for gnomes
	id = gommo_expansion_events.31
	title = gommo_expansion_events.31.t
	desc = gommo_expansion_events.31.d
	picture = HOUSE_OF_TRADE_eventPicture
	
	trigger = {	
		culture_group = gnomish
		has_institution = global_trade
		NOT = { has_country_flag = gommo_petition_refused_gommo2 }
		has_estate_privilege = estate_artificers_organization_international_gommo
		
		365 = {
			owned_by = ROOT
			has_integrated_gnomish_pop_trigger = yes
			NOT = { has_province_flag = special_gnomish_quarter_gommo }
			is_core = ROOT
		}
	}
	
	is_triggered_only = yes
	
	option = { #Funding granted
		name = "gommo_expansion_events.30.a"
		365 = {
			remove_province_modifier = gnomish_institute_gommo
			set_province_flag = special_gnomish_quarter_gommo
			add_permanent_province_modifier = {
				name = port_jaher_gnome_quarter
				duration = -1
			}
		}
		add_years_of_income = -0.5
		ai_chance = {
			factor = 95
			modifier = {
				factor = 0
				is_bankrupt = yes
			}
		}
	}
	
	option = { #Project scrapped
		name = "gommo_expansion_events.30.b"
		
		add_years_of_income = 0.5
		set_country_flag = gommo_petition_refused_gommo2
		
		ai_chance = {
			factor = 5
			modifier = {
				factor = 0
				is_bankrupt = no
			}
		}
	}
}

country_event = { #Special quarter in Rayavhashapal for gnomes
	id = gommo_expansion_events.32
	title = gommo_expansion_events.32.t
	desc = gommo_expansion_events.32.d
	picture = HOUSE_OF_TRADE_eventPicture
	
	trigger = {	
		culture_group = gnomish
		has_institution = global_trade
		NOT = { has_country_flag = gommo_petition_refused_gommo3 }
		has_estate_privilege = estate_artificers_organization_international_gommo
		
		4435 = {
			owned_by = ROOT
			has_integrated_gnomish_pop_trigger = yes
			NOT = { has_province_flag = special_gnomish_quarter_gommo }
			is_core = ROOT
		}
	}
	
	is_triggered_only = yes
	
	option = { #Funding granted
		name = "gommo_expansion_events.30.a"
		4435 = {
			remove_province_modifier = gnomish_institute_gommo
			set_province_flag = special_gnomish_quarter_gommo
			add_permanent_province_modifier = {
				name = rayavhashapal_gnome_quarter
				duration = -1
			}
		}
		add_years_of_income = -0.5
		ai_chance = {
			factor = 95
			modifier = {
				factor = 0
				is_bankrupt = yes
			}
		}
	}
	
	option = { #Project scrapped
		name = "gommo_expansion_events.30.b"
		
		add_years_of_income = 0.5
		set_country_flag = gommo_petition_refused_gommo3
		
		ai_chance = {
			factor = 5
			modifier = {
				factor = 0
				is_bankrupt = no
			}
		}
	}
}

country_event = { #Special quarter in Feiten for gnomes
	id = gommo_expansion_events.33
	title = gommo_expansion_events.33.t
	desc = gommo_expansion_events.33.d
	picture = HOUSE_OF_TRADE_eventPicture
	
	trigger = {	
		culture_group = gnomish
		has_institution = industrialization
		NOT = { has_country_flag = gommo_petition_refused_gommo4 }
		has_estate_privilege = estate_artificers_organization_international_gommo
		
		4879 = {
			owned_by = ROOT
			has_integrated_gnomish_pop_trigger = yes
			NOT = { has_province_flag = special_gnomish_quarter_gommo }
			is_core = ROOT
		}
	}
	
	is_triggered_only = yes
	
	option = { #Funding granted
		name = "gommo_expansion_events.30.a"
		4879 = {
			remove_province_modifier = gnomish_institute_gommo
			set_province_flag = special_gnomish_quarter_gommo
			add_permanent_province_modifier = {
				name = feiten_gnome_quarter
				duration = -1
			}
		}
		add_years_of_income = -0.5
		ai_chance = {
			factor = 95
			modifier = {
				factor = 0
				is_bankrupt = yes
			}
		}
	}
	
	option = { #Project scrapped
		name = "gommo_expansion_events.30.b"
		
		add_years_of_income = 0.5
		set_country_flag = gommo_petition_refused_gommo4
		
		ai_chance = {
			factor = 5
			modifier = {
				factor = 0
				is_bankrupt = no
			}
		}
	}
}

country_event = { #Special quarter in Kherka for gnomes
	id = gommo_expansion_events.34
	title = gommo_expansion_events.34.t
	desc = gommo_expansion_events.34.d
	picture = HOUSE_OF_TRADE_eventPicture
	
	trigger = {	
		culture_group = gnomish
		has_institution = manufactories
		NOT = { has_country_flag = gommo_petition_refused_gommo5 }
		has_estate_privilege = estate_artificers_organization_international_gommo
		
		2773 = {
			owned_by = ROOT
			has_integrated_gnomish_pop_trigger = yes
			NOT = { has_province_flag = special_gnomish_quarter_gommo }
			is_core = ROOT
		}
	}
	
	is_triggered_only = yes
	
	option = { #Funding granted
		name = "gommo_expansion_events.30.a"
		2773 = {
			remove_province_modifier = gnomish_institute_gommo
			set_province_flag = special_gnomish_quarter_gommo
			add_permanent_province_modifier = {
				name = kherka_gnome_quarter
				duration = -1
			}
		}
		add_years_of_income = -0.5
		ai_chance = {
			factor = 95
			modifier = {
				factor = 0
				is_bankrupt = yes
			}
		}
	}
	
	option = { #Project scrapped
		name = "gommo_expansion_events.30.b"
		
		add_years_of_income = 0.5
		set_country_flag = gommo_petition_refused_gommo5
		
		ai_chance = {
			factor = 5
			modifier = {
				factor = 0
				is_bankrupt = no
			}
		}
	}
}

country_event = { #Special quarter in Cay Cam Sinh for gnomes
	id = gommo_expansion_events.35
	title = gommo_expansion_events.35.t
	desc = gommo_expansion_events.35.d
	picture = HOUSE_OF_TRADE_eventPicture
	
	trigger = {	
		culture_group = gnomish
		has_institution = manufactories
		NOT = { has_country_flag = gommo_petition_refused_gommo6 }
		has_estate_privilege = estate_artificers_organization_international_gommo
		
		4701 = {
			owned_by = ROOT
			has_integrated_gnomish_pop_trigger = yes
			NOT = { has_province_flag = special_gnomish_quarter_gommo }
			is_core = ROOT
		}
	}
	
	is_triggered_only = yes
	
	option = { #Funding granted
		name = "gommo_expansion_events.30.a"
		4701 = {
			remove_province_modifier = gnomish_institute_gommo
			set_province_flag = special_gnomish_quarter_gommo
			add_permanent_province_modifier = {
				name = camsinh_gnome_quarter
				duration = -1
			}
		}
		add_years_of_income = -0.5
		ai_chance = {
			factor = 95
			modifier = {
				factor = 0
				is_bankrupt = yes
			}
		}
	}
	
	option = { #Project scrapped
		name = "gommo_expansion_events.30.b"
		
		add_years_of_income = 0.5
		set_country_flag = gommo_petition_refused_gommo6
		
		ai_chance = {
			factor = 5
			modifier = {
				factor = 0
				is_bankrupt = no
			}
		}
	}
}

country_event = { #Special quarter in Arawkelin for gnomes
	id = gommo_expansion_events.36
	title = gommo_expansion_events.36.t
	desc = gommo_expansion_events.36.d
	picture = HOUSE_OF_TRADE_eventPicture
	
	trigger = {	
		culture_group = gnomish
		has_institution = global_trade
		NOT = { has_country_flag = gommo_petition_refused_gommo7 }
		has_estate_privilege = estate_artificers_organization_international_gommo
		
		4963 = {
			owned_by = ROOT
			has_integrated_gnomish_pop_trigger = yes
			NOT = { has_province_flag = special_gnomish_quarter_gommo }
			is_core = ROOT
		}
	}
	
	is_triggered_only = yes
	
	option = { #Funding granted
		name = "gommo_expansion_events.30.a"
		4963 = {
			remove_province_modifier = gnomish_institute_gommo
			set_province_flag = special_gnomish_quarter_gommo
			add_permanent_province_modifier = {
				name = arawkelin_gnome_quarter
				duration = -1
			}
		}
		add_years_of_income = -0.5
		ai_chance = {
			factor = 95
			modifier = {
				factor = 0
				is_bankrupt = yes
			}
		}
	}
	
	option = { #Project scrapped
		name = "gommo_expansion_events.30.b"
		
		add_years_of_income = 0.5
		set_country_flag = gommo_petition_refused_gommo7
		
		ai_chance = {
			factor = 5
			modifier = {
				factor = 0
				is_bankrupt = no
			}
		}
	}
}

country_event = { #Special quarter in Tianlou for gnomes
	id = gommo_expansion_events.37
	title = gommo_expansion_events.37.t
	desc = gommo_expansion_events.37.d
	picture = HOUSE_OF_TRADE_eventPicture
	
	trigger = {	
		culture_group = gnomish
		has_institution = global_trade
		NOT = { has_country_flag = gommo_petition_refused_gommo8 }
		has_estate_privilege = estate_artificers_organization_international_gommo
		
		4871 = {
			owned_by = ROOT
			has_integrated_gnomish_pop_trigger = yes
			NOT = { has_province_flag = special_gnomish_quarter_gommo }
			is_core = ROOT
		}
	}
	
	is_triggered_only = yes
	
	option = { #Funding granted
		name = "gommo_expansion_events.30.a"
		4871 = {
			remove_province_modifier = gnomish_institute_gommo
			set_province_flag = special_gnomish_quarter_gommo
			add_permanent_province_modifier = {
				name = tianlou_gnome_quarter
				duration = -1
			}
		}
		add_years_of_income = -0.5
		ai_chance = {
			factor = 95
			modifier = {
				factor = 0
				is_bankrupt = yes
			}
		}
	}
	
	option = { #Project scrapped
		name = "gommo_expansion_events.30.b"
		
		add_years_of_income = 0.5
		set_country_flag = gommo_petition_refused_gommo8
		
		ai_chance = {
			factor = 5
			modifier = {
				factor = 0
				is_bankrupt = no
			}
		}
	}
}

country_event = { #Special quarter in Sarisung for gnomes
	id = gommo_expansion_events.38
	title = gommo_expansion_events.38.t
	desc = gommo_expansion_events.38.d
	picture = HOUSE_OF_TRADE_eventPicture
	
	trigger = {	
		culture_group = gnomish
		has_institution = manufactories
		NOT = { has_country_flag = gommo_petition_refused_gommo9 }
		has_estate_privilege = estate_artificers_organization_international_gommo
		
		4500 = {
			owned_by = ROOT
			has_integrated_gnomish_pop_trigger = yes
			NOT = { has_province_flag = special_gnomish_quarter_gommo }
			is_core = ROOT
		}
	}
	
	is_triggered_only = yes
	
	option = { #Funding granted
		name = "gommo_expansion_events.30.a"
		4500 = {
			remove_province_modifier = gnomish_institute_gommo
			set_province_flag = special_gnomish_quarter_gommo
			add_permanent_province_modifier = {
				name = sarisung_gnome_quarter
				duration = -1
			}
		}
		add_years_of_income = -0.5
		ai_chance = {
			factor = 95
			modifier = {
				factor = 0
				is_bankrupt = yes
			}
		}
	}
	
	option = { #Project scrapped
		name = "gommo_expansion_events.30.b"
		
		add_years_of_income = 0.5
		set_country_flag = gommo_petition_refused_gommo9
		
		ai_chance = {
			factor = 5
			modifier = {
				factor = 0
				is_bankrupt = no
			}
		}
	}
}

country_event = { #Special quarter in Mao Ji for gnomes
	id = gommo_expansion_events.39
	title = gommo_expansion_events.39.t
	desc = gommo_expansion_events.39.d
	picture = HOUSE_OF_TRADE_eventPicture
	
	trigger = {	
		culture_group = gnomish
		has_institution = manufactories
		NOT = { has_country_flag = gommo_petition_refused_gommo10 }
		has_estate_privilege = estate_artificers_organization_international_gommo
		
		4936 = {
			owned_by = ROOT
			has_integrated_gnomish_pop_trigger = yes
			NOT = { has_province_flag = special_gnomish_quarter_gommo }
			is_core = ROOT
			
		}
	}
	
	is_triggered_only = yes
	
	option = { #Funding granted
		name = "gommo_expansion_events.30.a"
		4936 = {
			remove_province_modifier = gnomish_institute_gommo
			set_province_flag = special_gnomish_quarter_gommo
			add_permanent_province_modifier = {
				name = maoji_gnome_quarter
				duration = -1
			}
		}
		add_years_of_income = -0.5
		ai_chance = {
			factor = 95
			modifier = {
				factor = 0
				is_bankrupt = yes
			}
		}
	}
	
	option = { #Project scrapped
		name = "gommo_expansion_events.30.b"
		
		add_years_of_income = 0.5
		set_country_flag = gommo_petition_refused_gommo10
		
		ai_chance = {
			factor = 5
			modifier = {
				factor = 0
				is_bankrupt = no
			}
		}
	}
}