namespace = hobgoblin_tolerance_events

# Event organizer for the hobgoblin tolerance events - should be a huge improvement to performance - having 1 overall check for having the minority instead of one for EACH new event that gets added
country_event = {
	id = hobgoblin_tolerance_events.0
	title = race_setup_events.1.d
	desc = race_setup_events.1.d
	picture = BORDER_TENSION_eventPicture

	is_triggered_only = yes
	hidden = yes

	trigger = {
		NOT = { culture_group = hobgoblin }
		any_owned_province = {
			has_hobgoblin_minority_trigger = yes
		}
	}
	
	mean_time_to_happen = {
		days = 1
		modifier = {
			factor = 10
			has_country_modifier = racial_focus_hobgoblin
		}
	}

	option = {
		random_list = {
			# # 
			# 1 = {
				# trigger = {
					
				# }
				# modifier = {
					
				# }
				# country_event = {
					# #id = 
				# }
			# }
			#hobgoblin minister
			1 = {
				modifier = {
					factor = 1.5
					medium_tolerance_hobgoblin_race_trigger = yes
				}
				modifier = {
					factor = 2
					high_tolerance_hobgoblin_race_trigger = yes
				}
				country_event = {
					id = hobgoblin_tolerance_events.1
				}
			}
			#hobgoblin generic
			1 = {
				trigger = {
					has_estate = estate_mages
				}
				modifier = {
					
				}
				country_event = {
					id = hobgoblin_tolerance_events.2
				}
			}
			#hobgoblin military failure
			1 = {
				trigger = {
					has_estate = estate_nobles
					has_estate = estate_burghers
				}
				modifier = {
					factor = 1.5
					NOT = { check_variable = { army_tradition = 30 } }
				}
				modifier = {
					factor = 1.5
					NOT = { check_variable = { army_professionalism = 0.25 } }
				}
				country_event = {
					id = hobgoblin_tolerance_events.6
				}
			}
		}
	}
}

#hobgoblin minister
country_event = {
	id = hobgoblin_tolerance_events.1
	title = hobgoblin_tolerance_events.1.t
	desc = hobgoblin_tolerance_events.1.d
	picture = ADVISOR_eventPicture
	
	is_triggered_only = yes

	# If you have a hobgoblin culture province, that's the one the advisor comes from
	immediate = {
		hidden_effect = {
			if = {
				limit = {
					any_owned_province = {
						culture_group = hobgoblin
					}
				}
				random_owned_province = {
					limit = { culture_group = hobgoblin }
					save_event_target_as = hobgoblin_advisor_culture_province
				}
				set_country_flag = hobgoblin_advisor_culture_set
			}
		}
	}

	# Recruit the hobgoblin
	option = {
		name = hobgoblin_tolerance_events.1.a
		ai_chance = {
			factor = 50
			modifier = {
				factor = 0.5
				wants_to_maintain_tolerance_hobgoblin = yes
			}
			modifier = {
				factor = 0.1
				wants_to_decrease_tolerance_hobgoblin = yes
			}
		}
		small_increase_of_hobgoblin_tolerance_effect = yes
		if = {
			limit = { has_country_flag = hobgoblin_advisor_culture_set }
			if = {
				limit = { monthly_income = 50 }
				random_list = {
					1 = {
						define_advisor = {
							type = army_organiser
							culture = event_target:hobgoblin_advisor_culture_province
							religion = event_target:hobgoblin_advisor_culture_province
							skill = 3
							discount = yes
						}
					}
					1 = {
						define_advisor = {
							type = quartermaster
							culture = event_target:hobgoblin_advisor_culture_province
							religion = event_target:hobgoblin_advisor_culture_province
							skill = 3
							discount = yes
						}
					}
				}
			}
			else_if = {
				limit = { monthly_income = 25 }
				random_list = {
					1 = {
						define_advisor = {
							type = army_organiser
							culture = event_target:hobgoblin_advisor_culture_province
							religion = event_target:hobgoblin_advisor_culture_province
							skill = 2
							discount = yes
						}
					}
					1 = {
						define_advisor = {
							type = quartermaster
							culture = event_target:hobgoblin_advisor_culture_province
							religion = event_target:hobgoblin_advisor_culture_province
							skill = 2
							discount = yes
						}
					}
				}
			}
			else = {
				random_list = {
					1 = {
						define_advisor = {
							type = army_organiser
							culture = event_target:hobgoblin_advisor_culture_province
							religion = event_target:hobgoblin_advisor_culture_province
							skill = 1
							discount = yes
						}
					}
					1 = {
						define_advisor = {
							type = quartermaster
							culture = event_target:hobgoblin_advisor_culture_province
							religion = event_target:hobgoblin_advisor_culture_province
							skill = 1
							discount = yes
						}
					}
				}
			}
		}
		else_if = {
			limit = { 
				tag = Y00
			}
			if = {
				limit = { monthly_income = 50 }
				random_list = {
					1 = {
						define_advisor = {
							type = army_organiser
							culture = fenghuang_command
							skill = 3
							discount = yes
						}
					}
					1 = {
						define_advisor = {
							type = quartermaster
							culture = fenghuang_command
							skill = 3
							discount = yes
						}
					}
				}
			}
			else_if = {
				limit = { monthly_income = 25 }
				random_list = {
					1 = {
						define_advisor = {
							type = army_organiser
							culture = fenghuang_command
							skill = 2
							discount = yes
						}
					}
					1 = {
						define_advisor = {
							type = quartermaster
							culture = fenghuang_command
							skill = 2
							discount = yes
						}
					}
				}
			}
			else = {
				random_list = {
					1 = {
						define_advisor = {
							type = army_organiser
							culture = fenghuang_command
							skill = 1
							discount = yes
						}
					}
					1 = {
						define_advisor = {
							type = quartermaster
							culture = fenghuang_command
							skill = 1
							discount = yes
						}
					}
				}
			}
		}
		else = {
			if = {
				limit = { monthly_income = 50 }
				random_list = {
					1 = {
						random_list = {
							1 = {
								define_advisor = {
									type = army_organiser
									culture = boar_command
									skill = 3
									discount = yes
								}
							}
							1 = {
								define_advisor = {
									type = army_organiser
									culture = wolf_command
									skill = 3
									discount = yes
								}
							}
							1 = {
								define_advisor = {
									type = army_organiser
									culture = lion_command
									skill = 3
									discount = yes
								}
							}
							1 = {
								define_advisor = {
									type = army_organiser
									culture = swallow_command
									skill = 3
									discount = yes
								}
							}
						}
					}
					1 = {
						random_list = {
							1 = {
								define_advisor = {
									type = quartermaster
									culture = boar_command
									skill = 3
									discount = yes
								}
							}
							1 = {
								define_advisor = {
									type = quartermaster
									culture = wolf_command
									skill = 3
									discount = yes
								}
							}
							1 = {
								define_advisor = {
									type = quartermaster
									culture = lion_command
									skill = 3
									discount = yes
								}
							}
							1 = {
								define_advisor = {
									type = quartermaster
									culture = swallow_command
									skill = 3
									discount = yes
								}
							}
						}
					}
				}
			}
			else_if = {
				limit = { monthly_income = 25 }
				random_list = {
					1 = {
						random_list = {
							1 = {
								define_advisor = {
									type = army_organiser
									culture = boar_command
									skill = 2
									discount = yes
								}
							}
							1 = {
								define_advisor = {
									type = army_organiser
									culture = wolf_command
									skill = 2
									discount = yes
								}
							}
							1 = {
								define_advisor = {
									type = army_organiser
									culture = lion_command
									skill = 2
									discount = yes
								}
							}
							1 = {
								define_advisor = {
									type = army_organiser
									culture = swallow_command
									skill = 2
									discount = yes
								}
							}
						}
					}
					1 = {
						random_list = {
							1 = {
								define_advisor = {
									type = quartermaster
									culture = boar_command
									skill = 2
									discount = yes
								}
							}
							1 = {
								define_advisor = {
									type = quartermaster
									culture = wolf_command
									skill = 2
									discount = yes
								}
							}
							1 = {
								define_advisor = {
									type = quartermaster
									culture = lion_command
									skill = 2
									discount = yes
								}
							}
							1 = {
								define_advisor = {
									type = quartermaster
									culture = swallow_command
									skill = 2
									discount = yes
								}
							}
						}
					}
				}
			}
			else = {
				random_list = {
					1 = {
						random_list = {
							1 = {
								define_advisor = {
									type = army_organiser
									culture = boar_command
									skill = 1
									discount = yes
								}
							}
							1 = {
								define_advisor = {
									type = army_organiser
									culture = wolf_command
									skill = 1
									discount = yes
								}
							}
							1 = {
								define_advisor = {
									type = army_organiser
									culture = lion_command
									skill = 1
									discount = yes
								}
							}
							1 = {
								define_advisor = {
									type = army_organiser
									culture = swallow_command
									skill = 1
									discount = yes
								}
							}
						}
					}
					1 = {
						random_list = {
							1 = {
								define_advisor = {
									type = quartermaster
									culture = boar_command
									skill = 1
									discount = yes
								}
							}
							1 = {
								define_advisor = {
									type = quartermaster
									culture = wolf_command
									skill = 1
									discount = yes
								}
							}
							1 = {
								define_advisor = {
									type = quartermaster
									culture = lion_command
									skill = 1
									discount = yes
								}
							}
							1 = {
								define_advisor = {
									type = quartermaster
									culture = swallow_command
									skill = 1
									discount = yes
								}
							}
						}
					}
				}
			}
		}
	}

	# A true exemplar of their race
	option = {
		name = hobgoblin_tolerance_events.1.b
		ai_chance = {
			factor = 50
			modifier = {
				factor = 2
				wants_to_increase_tolerance_hobgoblin = yes
			}
		}
		medium_increase_of_hobgoblin_tolerance_effect = yes
	}

	# We dun give a shit
	option = {
		name = hobgoblin_tolerance_events.1.c
		ai_chance = {
			factor = 50
			modifier = {
				factor = 2
				wants_to_decrease_tolerance_hobgoblin = yes
			}
		}
		small_decrease_of_hobgoblin_tolerance_effect = yes
	}

	after = {
		clr_country_flag = hobgoblin_advisor_culture_set
	}
}

#hobgoblin generic
country_event = {
	id = hobgoblin_tolerance_events.2
	title = hobgoblin_tolerance_events.2.t
	desc = hobgoblin_tolerance_events.2.d
	picture = DEBATE_REPUBLICAN_eventPicture
	
	is_triggered_only = yes
		
	#control the mages
	option = {	
		name = hobgoblin_tolerance_events.2.a
		ai_chance = {
			factor = 50
			modifier = {
				factor = 0.1
				wants_to_increase_tolerance_hobgoblin = yes
			}
		}
		add_estate_loyalty = {
			estate = estate_mages
			loyalty = -10
		}
		add_estate_influence_modifier = {
			estate = estate_mages
			desc = EST_VAL_HOBGOBLIN_SIDED_HOBGOBLIN
			influence = -10
			duration = 3650
		}
		largest_increase_of_hobgoblin_tolerance_effect = yes
	}
	
	#argue somewhere else
	option = {
		name = hobgoblin_tolerance_events.2.b
		ai_chance = {
			factor = 50
		}
		small_increase_of_hobgoblin_tolerance_effect = yes
		reduce_estate_mages_loyalty_effect = yes
	}
	
	#we will not tolerate this!
	option = {
		name = hobgoblin_tolerance_events.2.c
		ai_chance = {
			factor = 50
			modifier = {
				factor = 0.5
				wants_to_increase_tolerance_hobgoblin = yes
			}
		}
		medium_decrease_of_hobgoblin_tolerance_effect = yes
		add_estate_mages_loyalty_effect = yes
		add_estate_influence_modifier = {
			estate = estate_mages
			desc = EST_VAL_HOBGOBLIN_SIDED_MAGES
			influence = 10
			duration = 3650
		}
		add_country_modifier = {
			name = hobgoblin_mages_rebellion
			duration = 3650
		}
	}
}

#hobgoblin military failure
country_event = {
	id = hobgoblin_tolerance_events.6
	title = hobgoblin_tolerance_events.6.t
	desc = hobgoblin_tolerance_events.6.d
	picture = LAND_MILITARY_eventPicture
	
	is_triggered_only = yes
		
	#god damnit
	option = {	
		name = hobgoblin_tolerance_events.6.a
		ai_chance = {
			factor = 50
			modifier = {
				factor = 0.1
				wants_to_increase_tolerance_hobgoblin = yes
			}
		}
		add_corruption = 1
		add_army_professionalism = -0.03
	}
	
	#replace them with hobgoblins
	option = {
		name = hobgoblin_tolerance_events.6.b
		ai_chance = {
			factor = 50
		}
		add_army_professionalism = 0.05
		small_increase_of_hobgoblin_tolerance_effect = yes
		add_estate_loyalty = {
			estate = estate_nobles
			loyalty = -15
		}
		add_estate_loyalty = {
			estate = estate_burghers
			loyalty = -15
		}
		add_estate_influence_modifier = {
			estate = estate_nobles
			desc = EST_VAL_HOBGOBLIN_IN_MILITARY
			influence = -15
			duration = 3650
		}
		add_estate_influence_modifier = {
			estate = estate_burghers
			desc = EST_VAL_HOBGOBLIN_IN_MILITARY
			influence = -15
			duration = 3650
		}
	}
	
	#hob-scapegoat
	option = {
		name = hobgoblin_tolerance_events.6.c
		ai_chance = {
			factor = 50
			modifier = {
				factor = 0.5
				wants_to_increase_tolerance_hobgoblin = yes
			}
		}
		medium_decrease_of_hobgoblin_tolerance_effect = yes
		add_corruption = 1
		add_army_professionalism = -0.03
		add_years_of_income = 1
		add_estate_nobles_loyalty_effect = yes
		add_estate_influence_modifier = {
			estate = estate_burghers
			desc = EST_VAL_HOBGOBLIN_SCAPEGOAT
			influence = 10
			duration = 3650
		}
	}
}