
#Country Name: Please see filename.

graphical_culture = muslimgfx

color = { 171  165  150 }



historical_idea_groups = {
	exploration_ideas
	maritime_ideas
	economic_ideas
	offensive_ideas
	expansion_ideas
	quality_ideas	
	administrative_ideas	
	influence_ideas
}

historical_units = {
	gnollish_1_gnoll_pack
	gnollish_1_hyena_riders
	gnollish_6_armoured_hyena_riders
	gnollish_9_flesh_wearers
	gnollish_10_mounted_krahs
	gnollish_12_ravenous_gnoll_pack
	gnollish_14_hyena_packmasters
	gnollish_18_powder_slaves
	gnollish_18_powder_hyenas
	gnollish_23_laughing_chargers
	gnollish_23_scavenged_gun_riders
	gnollish_26_long_rifles
	gnollish_28_fire_grenadiers
	gnollish_28_reformed_hyena_riders
}

monarch_names = {

	#Generic Gnoll Name Lists
	"Aaryz #0" = 1
	"Arkez #0" = 1
	"Brokx #0" = 1
	"Brotiark #0" = 1
	"Bryr #0" = 1
	"Diazyn #0" = 1
	"Dokkuat #0" = 1
	"Dunez #0" = 1
	"Ezz #0" = 1
	"Garhaahz #0" = 1
	"Garrger #0" = 1
	"Ghityt #0" = 1
	"Gniax #0" = 1
	"Gnonuiz #0" = 1
	"Grerrurr #0" = 1
	"Grorr #0" = 1
	"Grutt #0" = 1
	"Guryrk #0" = 1
	"Ik #0" = 1
	"Kaxac #0" = 1
	"Kazar #0" = 1
	"Kazz #0" = 1
	"Kelzeth #0" = 1
	"Kricirr #0" = 1
	"Kricoun #0" = 1
	"Kryzzaar #0" = 1
	"Kuok #0" = 1
	"Kynzin #0" = 1
	"Mykx #0" = 1
	"Mynerg #0" = 1
	"Okkeih #0" = 1
	"Roukon #0" = 1
	"Rri #0" = 1
	"Rrikk #0" = 1
	"Rrok #0" = 1
	"Thargok #0" = 1
	"Thek #0" = 1
	"Thex #0" = 1
	"Thymkein #0" = 1
	"Uak #0" = 1
	"Uxein #0" = 1
	"Xeze #0" = 1
	"Xezer #0" = 1
	"Xycarr #0" = 1
	"Ziz #0" = 1
	"Zykk #0" = 1
	"Zykkozz #0" = 1
	
	"Almahz #0" = -10
	"Betsa #0" = -10
	"Dha #0" = -10
	"Dhezryhz #0" = -10
	"Dhodda #0" = -10
	"Dhy #0" = -10
	"Egzeth #0" = -10
	"Ehn #0" = -10
	"Elrys #0" = -10
	"Eszraah #0" = -10
	"Guiz #0" = -10
	"Hutny #0" = -10
	"Ieshath #0" = -10
	"Lyhz #0" = -10
	"Miega #0" = -10
	"Mozrush #0" = -10
	"Mrynzu #0" = -10
	"Nerrohn #0" = -10
	"Pysh #0" = -10
	"Rrhihr #0" = -10
	"Ryreis #0" = -10
	"Saemsi #0" = -10
	"Srytsiehn #0" = -10
	"Suvnaahz #0" = -10
	"Sythriath #0" = -10
	"Sytnai #0" = -10
	"Szesni #0" = -10
	"Szith #0" = -10
	"Tha #0" = -10
	"Trizry #0" = -10
	"Tsuhz #0" = -10
	"Tusah #0" = -10
	"Vaash #0" = -10
	"Vea #0" = -10
	"Verga #0" = -10
	"Vieh #0" = -10
	"Zhehr #0" = -10
}

leader_names = {

	#Generic Gnoll Surnames
	Mudcrest Swampflesh Grimsniffer Tearpaw Growlspear Rashskull Skullchomper Ridgeborn Shredspear Shredclaw Pawclaw Gashfur Bloodfur Mudfur Mudpaw Brashaxe Deadcoat Deadfang 
	"Man-Eater" Flesheater Fleshbiter Fleshgrinder Skulleater Skullchomper Bonechewer Jawlicker Bonegrinder Tonguebiter Rotsniffer Fleshdancer Handchewer Footsniffer Earsmasher
	Meatgrinder Meatcutter Meatchewer 
	
	
	
	#Generic Gnoll Titles
	"'the Carcass-Collector'" "'the Butcher'" "'the Man-flesh Lover'" "'the Halfling-Connoisseur'" "'the Dwarf-preferer'" "'the Elf-Buffeter"
	"'the All-powerful'" "'the Supremely-Handsome'" "'the Largest Sword'" "'the Longest Sword'" "'the Most Regal'" "'the Even More Regal'" "'the King'" "'the Emperor'" "'the Strongest-of-all'"
	"'the Smartest-of-all'" "'the Most-Learned'" "'the Incredibly-Gifted'"

	#Generic Evil Titles
	"'the Stout'" "'the Rash'" "'the Deadly'" "'the Master'" "'the Slaver'" "'the Warlord'" "'the Relentless'" "'the Bold'" "'the Warrior'" "'the Death-bringer'" "'the Handsome'" "'the Greedy'" "'the Tyrant'" "'the Unbreakable'" "'the Great'"
	"'the Defiler'" "'the Dead'" "'the Poker'" "'the Strangler'" "'the Twisted'" "'the Punisher'" "'the Devourer'" "'the Gravewalker'" "'the Crafty'" "'the Smart'" "'the Unwashed'" "'the Vile'" "'the Whisperer'" "'the Seer'" "'the Wicked'" "'the Brander'"
	"'the Large'" "'the Tall'" "'the Fat'" "'the Small'" "'the Strong'" "'the Clever'" "'the Crusher'" "'the Halfblooded"
}

ship_names = {
	#Generic Monstrous
	Destruction Pillage Harness Power Axe Sword Tooth Nail Hammer Wrath Anger Dominion Domination Spike Severer "Severed Head" Triumph Tremendous Victory Conquest Courage Bravery Honour Honor
	Skinflayer Skinhider "Skin-masts" Skullfeeder Skulltaker Defiance Devastation Formidable Impregnable Hunter War Warmarked Warchosen Terrible Terror Thunderer Tarrasque
	Banshee Harpy Goblintongue Slaver
}

army_names = {
	"Zokka Army" "Gnollish Horde" "Gnollish Raiders" "Army of $PROVINCE$"
}

fleet_names = {
	"Zokka Fleet" "Diven Squadron" "Raider Quadron" "Looter Squadron"
}